processor/scripts/riscv_core.vcd
$date
	Wed Apr  8 01:06:51 2026
$end
$version
	Icarus Verilog
$end
$timescale
	1ps
$end
$scope module tb_risc $end
$var reg 1 ! clk $end
$var reg 1 " rst $end
$scope module uut $end
$var wire 1 ! clk $end
$var wire 1 " rst $end
$var wire 32 # write_data_wb [31:0] $end
$var wire 32 $ write_data_mem [31:0] $end
$var wire 32 % src2_forwarded [31:0] $end
$var wire 32 & src2 [31:0] $end
$var wire 32 ' src1_forwarded [31:0] $end
$var wire 32 ( src1 [31:0] $end
$var wire 5 ) rs2_id [4:0] $end
$var wire 5 * rs2_ex [4:0] $end
$var wire 5 + rs1_id [4:0] $end
$var wire 5 , rs1_ex [4:0] $end
$var wire 1 - reg_write_wb $end
$var wire 1 . reg_write_mem $end
$var wire 1 / reg_write_id_mux $end
$var wire 1 0 reg_write_id $end
$var wire 1 1 reg_write_ex $end
$var wire 32 2 read_data_2_id [31:0] $end
$var wire 32 3 read_data_2_ex [31:0] $end
$var wire 32 4 read_data_1_id [31:0] $end
$var wire 32 5 read_data_1_ex [31:0] $end
$var wire 5 6 rd_wb [4:0] $end
$var wire 5 7 rd_mem [4:0] $end
$var wire 5 8 rd_id [4:0] $end
$var wire 5 9 rd_ex [4:0] $end
$var wire 1 : pc_write $end
$var wire 32 ; pc_target [31:0] $end
$var wire 1 < pc_src $end
$var wire 32 = pc_plus_4_id [31:0] $end
$var wire 32 > pc_plus_4 [31:0] $end
$var wire 32 ? pc_int_offset [31:0] $end
$var wire 32 @ pc_id [31:0] $end
$var wire 32 A pc_ex [31:0] $end
$var wire 32 B pc [31:0] $end
$var wire 6 C operation_mem [5:0] $end
$var wire 6 D operation [5:0] $end
$var wire 7 E opcode_id [6:0] $end
$var wire 32 F next_pc [31:0] $end
$var wire 1 G mem_write_mem $end
$var wire 1 H mem_write_id_mux $end
$var wire 1 I mem_write_id $end
$var wire 1 J mem_write_ex $end
$var wire 1 K mem_to_reg_wb $end
$var wire 1 L mem_to_reg_mem $end
$var wire 1 M mem_to_reg_id_mux $end
$var wire 1 N mem_to_reg_id $end
$var wire 1 O mem_to_reg_ex $end
$var wire 32 P mem_result_wb [31:0] $end
$var wire 32 Q mem_result_mem [31:0] $end
$var wire 1 R mem_read_mem $end
$var wire 1 S mem_read_id_mux $end
$var wire 1 T mem_read_id $end
$var wire 1 U mem_read_ex $end
$var wire 1 V jump_id_mux $end
$var wire 1 W jump_id $end
$var wire 1 X jump_ex $end
$var wire 1 Y jalr_sel_id_mux $end
$var wire 1 Z jalr_sel_id $end
$var wire 1 [ jalr_sel_ex $end
$var wire 32 \ instruction_code_if [31:0] $end
$var wire 32 ] instruction_code_id [31:0] $end
$var wire 32 ^ imm_val_id [31:0] $end
$var wire 32 _ imm_val_ex [31:0] $end
$var wire 1 ` if_id_write $end
$var wire 7 a funct7_id [6:0] $end
$var wire 7 b funct7_ex [6:0] $end
$var wire 3 c funct3_id [2:0] $end
$var wire 3 d funct3_ex [2:0] $end
$var wire 2 e forwardB [1:0] $end
$var wire 2 f forwardA [1:0] $end
$var wire 1 g flush $end
$var wire 1 h control_mux_sel_id $end
$var wire 1 i branch_id_mux $end
$var wire 1 j branch_id $end
$var wire 1 k branch_ex $end
$var wire 1 l branch_condn_ex $end
$var wire 1 m alu_src_id_mux $end
$var wire 1 n alu_src_id $end
$var wire 1 o alu_src_ex $end
$var wire 32 p alu_result_wb [31:0] $end
$var wire 32 q alu_result_mem [31:0] $end
$var wire 32 r alu_result_ex [31:0] $end
$var wire 1 s alu_pc_sel_id_mux $end
$var wire 1 t alu_pc_sel_id $end
$var wire 1 u alu_pc_sel_ex $end
$var wire 3 v alu_op_id_mux [2:0] $end
$var wire 3 w alu_op_id [2:0] $end
$var wire 3 x alu_op_ex [2:0] $end
$var wire 1 y ID_EX_write $end
$scope module add_if $end
$var wire 32 z pc_plus_4 [31:0] $end
$var wire 32 { pc [31:0] $end
$upscope $end
$scope module alu1 $end
$var wire 32 | src2 [31:0] $end
$var wire 32 } src1 [31:0] $end
$var wire 6 ~ operation [5:0] $end
$var reg 32 !" alu_result [31:0] $end
$var reg 1 l branch_condn $end
$upscope $end
$scope module alu_ctrl $end
$var wire 1 J mem_write_ex $end
$var wire 7 "" func7 [6:0] $end
$var wire 3 #" func3 [2:0] $end
$var wire 3 $" alu_op [2:0] $end
$var reg 6 %" operation [5:0] $end
$upscope $end
$scope module bd $end
$var wire 1 l branch_condn_ex $end
$var wire 1 g flush $end
$var wire 1 < pc_src $end
$var wire 1 X jump_ex $end
$var wire 1 k branch_ex $end
$upscope $end
$scope module cmux $end
$var wire 1 0 regWrite $end
$var wire 1 I memWrite $end
$var wire 1 N memToReg $end
$var wire 1 T memRead $end
$var wire 1 W jump $end
$var wire 1 Z jalr_sel $end
$var wire 1 h control_mux_sel $end
$var wire 1 j branch $end
$var wire 1 t alu_pc_sel $end
$var wire 1 n aluSrc $end
$var wire 3 &" aluOp [2:0] $end
$var reg 3 '" aluOp_mux_out [2:0] $end
$var reg 1 m aluSrc_mux_out $end
$var reg 1 s alu_pc_sel_out $end
$var reg 1 i branch_mux_out $end
$var reg 1 Y jalr_sel_out $end
$var reg 1 V jump_mux_out $end
$var reg 1 S memRead_mux_out $end
$var reg 1 M memToReg_mux_out $end
$var reg 1 H memWrite_mux_out $end
$var reg 1 / regWrite_mux_out $end
$upscope $end
$scope module ctrl $end
$var wire 7 (" opcode [6:0] $end
$var reg 3 )" aluOp [2:0] $end
$var reg 1 n aluSrc $end
$var reg 1 t alu_pc_sel $end
$var reg 1 j branch $end
$var reg 1 Z jalr_sel $end
$var reg 1 W jump $end
$var reg 1 T memRead $end
$var reg 1 N memToReg $end
$var reg 1 I memWrite $end
$var reg 1 0 regWrite $end
$upscope $end
$scope module dmem $end
$var wire 1 ! clk $end
$var wire 1 " rst $end
$var wire 32 *" w_data [31:0] $end
$var wire 6 +" operation [5:0] $end
$var wire 1 G mem_write $end
$var wire 1 R mem_read $end
$var wire 32 ," addr [31:0] $end
$var reg 32 -" r_data [31:0] $end
$upscope $end
$scope module ex_mem1 $end
$var wire 32 ." alu_result_in [31:0] $end
$var wire 1 ! clk $end
$var wire 6 /" operation_ex [5:0] $end
$var wire 1 " rst $end
$var wire 32 0" write_data_in [31:0] $end
$var wire 1 1 reg_write_in $end
$var wire 5 1" rd_in [4:0] $end
$var wire 1 J mem_write_in $end
$var wire 1 O mem_to_reg_in $end
$var wire 1 U mem_read_in $end
$var reg 32 2" alu_result_out [31:0] $end
$var reg 1 R mem_read_out $end
$var reg 1 L mem_to_reg_out $end
$var reg 1 G mem_write_out $end
$var reg 6 3" operation_mem [5:0] $end
$var reg 5 4" rd_out [4:0] $end
$var reg 1 . reg_write_out $end
$var reg 32 5" write_data_out [31:0] $end
$upscope $end
$scope module fwd $end
$var wire 5 6" ex_mem_rd [4:0] $end
$var wire 1 . ex_mem_reg_write $end
$var wire 1 - mem_wb_reg_write $end
$var wire 5 7" mem_wb_rd [4:0] $end
$var wire 5 8" id_ex_rs2 [4:0] $end
$var wire 5 9" id_ex_rs1 [4:0] $end
$var reg 2 :" forward_A [1:0] $end
$var reg 2 ;" forward_B [1:0] $end
$upscope $end
$scope module hz $end
$var wire 5 <" rs1_id [4:0] $end
$var wire 5 =" rs2_id [4:0] $end
$var wire 5 >" rd_ex [4:0] $end
$var wire 1 U MemRead_ex $end
$var reg 1 y ID_EX_write $end
$var reg 1 ` IF_ID_write $end
$var reg 1 : PC_Write $end
$var reg 1 h control_mux_sel $end
$upscope $end
$scope module id_ex1 $end
$var wire 3 ?" aluOp_id [2:0] $end
$var wire 1 m aluSrc_id $end
$var wire 1 s alu_pc_sel_id $end
$var wire 1 i branch_id $end
$var wire 1 ! clk $end
$var wire 1 g flush $end
$var wire 3 @" funct3_id [2:0] $end
$var wire 7 A" funct7_id [6:0] $end
$var wire 1 Y jalr_sel_id $end
$var wire 1 V jump_id $end
$var wire 1 S memRead_id $end
$var wire 1 M memToReg_id $end
$var wire 1 H memWrite_id $end
$var wire 5 B" rd_id [4:0] $end
$var wire 1 / regWrite_id $end
$var wire 5 C" rs1_id [4:0] $end
$var wire 5 D" rs2_id [4:0] $end
$var wire 1 " rst $end
$var wire 1 h stall $end
$var wire 32 E" read_data2_id [31:0] $end
$var wire 32 F" read_data1_id [31:0] $end
$var wire 32 G" pc_id [31:0] $end
$var wire 32 H" imm_val_id [31:0] $end
$var reg 3 I" aluOp_ex [2:0] $end
$var reg 1 o aluSrc_ex $end
$var reg 1 u alu_pc_sel_ex $end
$var reg 1 k branch_ex $end
$var reg 3 J" funct3_ex [2:0] $end
$var reg 7 K" funct7_ex [6:0] $end
$var reg 32 L" imm_val_ex [31:0] $end
$var reg 1 [ jalr_sel_ex $end
$var reg 1 X jump_ex $end
$var reg 1 U memRead_ex $end
$var reg 1 O memToReg_ex $end
$var reg 1 J memWrite_ex $end
$var reg 32 M" pc_ex [31:0] $end
$var reg 5 N" rd_ex [4:0] $end
$var reg 32 O" read_data1_ex [31:0] $end
$var reg 32 P" read_data2_ex [31:0] $end
$var reg 1 1 regWrite_ex $end
$var reg 5 Q" rs1_ex [4:0] $end
$var reg 5 R" rs2_ex [4:0] $end
$upscope $end
$scope module if_id_reg $end
$var wire 1 ` IF_ID_write $end
$var wire 1 g IF_flush $end
$var wire 32 S" IF_pcplus4 [31:0] $end
$var wire 1 ! clk $end
$var wire 1 " rst $end
$var wire 32 T" IF_pc [31:0] $end
$var wire 32 U" IF_instr [31:0] $end
$var reg 32 V" Instr_ID [31:0] $end
$var reg 32 W" pc_ID [31:0] $end
$var reg 32 X" pc_plus_4_ID [31:0] $end
$upscope $end
$scope module imem_if $end
$var wire 32 Y" instruction_code [31:0] $end
$var wire 32 Z" pc [31:0] $end
$upscope $end
$scope module imm1 $end
$var wire 32 [" instruction [31:0] $end
$var reg 32 \" imm_val [31:0] $end
$upscope $end
$scope module m1 $end
$var wire 32 ]" alu_result [31:0] $end
$var wire 2 ^" forward_A [1:0] $end
$var wire 32 _" rd1 [31:0] $end
$var wire 32 `" mem_result [31:0] $end
$var reg 32 a" src1 [31:0] $end
$upscope $end
$scope module m2 $end
$var wire 32 b" alu_result [31:0] $end
$var wire 2 c" forward_B [1:0] $end
$var wire 32 d" rd2 [31:0] $end
$var wire 32 e" mem_result [31:0] $end
$var reg 32 f" src2 [31:0] $end
$upscope $end
$scope module m3 $end
$var wire 1 o alu_src $end
$var wire 32 g" imm [31:0] $end
$var wire 32 h" src2_in [31:0] $end
$var reg 32 i" src2 [31:0] $end
$upscope $end
$scope module m4 $end
$var wire 1 u alu_pc_sel $end
$var wire 32 j" pc [31:0] $end
$var wire 32 k" src1_in [31:0] $end
$var reg 32 l" src1 [31:0] $end
$upscope $end
$scope module m5 $end
$var wire 1 [ jalr_sel $end
$var wire 32 m" pc [31:0] $end
$var wire 32 n" read_data_1_ex [31:0] $end
$var reg 32 o" pc_offset_in [31:0] $end
$upscope $end
$scope module mem_wb1 $end
$var wire 32 p" alu_result_mem [31:0] $end
$var wire 1 ! clk $end
$var wire 1 L mem_to_reg_mem $end
$var wire 5 q" rd_mem [4:0] $end
$var wire 32 r" read_data_mem [31:0] $end
$var wire 1 . reg_write_mem $end
$var wire 1 " rst $end
$var reg 32 s" alu_result_wb [31:0] $end
$var reg 1 K mem_to_reg_wb $end
$var reg 5 t" rd_wb [4:0] $end
$var reg 32 u" read_data_wb [31:0] $end
$var reg 1 - reg_write_wb $end
$upscope $end
$scope module mux_if $end
$var wire 1 < PCSrc $end
$var wire 32 v" pc_plus_4 [31:0] $end
$var wire 32 w" next_pc [31:0] $end
$var wire 32 x" PCTarget [31:0] $end
$upscope $end
$scope module pc_if $end
$var wire 1 ! clk $end
$var wire 32 y" next_pc [31:0] $end
$var wire 1 : pc_write $end
$var wire 1 " rst $end
$var reg 32 z" pc [31:0] $end
$upscope $end
$scope module pco $end
$var wire 32 {" imm [31:0] $end
$var wire 32 |" pc_offset_in [31:0] $end
$var reg 32 }" pc_offset_out [31:0] $end
$upscope $end
$scope module rf $end
$var wire 1 ! clk $end
$var wire 5 ~" rd [4:0] $end
$var wire 1 - reg_write $end
$var wire 5 !# rs1 [4:0] $end
$var wire 5 "# rs2 [4:0] $end
$var wire 1 " rst $end
$var wire 32 ## write_data [31:0] $end
$var wire 32 $# read_data2 [31:0] $end
$var wire 32 %# read_data1 [31:0] $end
$var integer 32 &# i [31:0] $end
$upscope $end
$scope module wb_mux $end
$var wire 32 '# alu_result [31:0] $end
$var wire 1 K memToReg $end
$var wire 32 (# r_data [31:0] $end
$var wire 32 )# data_out [31:0] $end
$upscope $end
$upscope $end
$upscope $end
$enddefinitions $end
$comment Show the parameter values. $end
$dumpall
$end
#0
$dumpvars
bx )#
bx (#
bx '#
bx &#
bx %#
bx $#
bx ##
bx "#
bx !#
bx ~"
bx }"
bx |"
bx {"
bx z"
bx y"
bx x"
bx w"
bx v"
bx u"
bx t"
bx s"
bx r"
bx q"
bx p"
bx o"
bx n"
bx m"
bx l"
bx k"
bx j"
bx i"
bx h"
bx g"
bx f"
bx e"
bx d"
bx c"
bx b"
bx a"
bx `"
bx _"
bx ^"
bx ]"
bx \"
bx ["
bx Z"
bx Y"
bx X"
bx W"
bx V"
bx U"
bx T"
bx S"
bx R"
bx Q"
bx P"
bx O"
bx N"
bx M"
bx L"
bx K"
bx J"
bx I"
bx H"
bx G"
bx F"
bx E"
bx D"
bx C"
bx B"
bx A"
bx @"
bx ?"
bx >"
bx ="
bx <"
bx ;"
bx :"
bx 9"
bx 8"
bx 7"
bx 6"
bx 5"
bx 4"
bx 3"
bx 2"
bx 1"
bx 0"
bx /"
bx ."
bx -"
bx ,"
bx +"
bx *"
bx )"
bx ("
bx '"
bx &"
bx %"
bx $"
bx #"
bx ""
bx !"
bx ~
bx }
bx |
bx {
bx z
xy
bx x
bx w
bx v
xu
xt
xs
bx r
bx q
bx p
xo
xn
xm
xl
xk
xj
xi
xh
xg
bx f
bx e
bx d
bx c
bx b
bx a
x`
bx _
bx ^
bx ]
bx \
x[
xZ
xY
xX
xW
xV
xU
xT
xS
xR
bx Q
bx P
xO
xN
xM
xL
xK
xJ
xI
xH
xG
bx F
bx E
bx D
bx C
bx B
bx A
bx @
bx ?
bx >
bx =
x<
bx ;
x:
bx 9
bx 8
bx 7
bx 6
bx 5
bx 4
bx 3
bx 2
x1
x0
x/
x.
x-
bx ,
bx +
bx *
bx )
bx (
bx '
bx &
bx %
bx $
bx #
1"
0!
$end
#5000
0s
0Y
0V
0M
0S
0H
0i
b0 v
b0 '"
b0 ?"
0m
0/
0g
0<
b0 2
b0 E"
b0 $#
b0 4
b0 F"
b0 %#
0t
0Z
0W
0N
0T
0I
0j
b0 w
b0 &"
b0 )"
0n
00
b0 r
b0 !"
b0 ."
0l
b101000000000001010010011 \
b101000000000001010010011 U"
b101000000000001010010011 Y"
b100 F
b100 w"
b100 y"
b0 ^
b0 H"
b0 \"
b0 a
b0 A"
b0 )
b0 ="
b0 D"
b0 "#
b0 +
b0 <"
b0 C"
b0 !#
b0 c
b0 @"
b0 8
b0 B"
b0 E
b0 ("
b10011 D
b10011 ~
b10011 %"
b10011 /"
b0 &
b0 |
b0 i"
b0 ;
b0 x"
b0 }"
0h
1y
1`
1:
b0 '
b0 }
b0 l"
b0 ?
b0 o"
b0 |"
b0 Q
b0 -"
b0 r"
b0 (
b0 a"
b0 k"
b0 %
b0 0"
b0 f"
b0 h"
b0 e
b0 ;"
b0 c"
b0 f
b0 :"
b0 ^"
b0 #
b0 `"
b0 e"
b0 ##
b0 )#
b100 >
b100 z
b100 S"
b100 v"
b0 B
b0 {
b0 T"
b0 Z"
b0 z"
b0 =
b0 X"
b0 @
b0 G"
b0 W"
b0 ]
b0 V"
b0 ["
0u
0[
0X
0O
0U
0J
0k
b0 x
b0 $"
b0 I"
0o
01
b0 b
b0 ""
b0 K"
b0 d
b0 #"
b0 J"
b0 _
b0 L"
b0 g"
b0 {"
b0 3
b0 P"
b0 d"
b0 5
b0 O"
b0 _"
b0 n"
b0 9
b0 1"
b0 >"
b0 N"
b0 *
b0 8"
b0 R"
b0 ,
b0 9"
b0 Q"
b0 A
b0 M"
b0 j"
b0 m"
b0 C
b0 +"
b0 3"
0.
0L
0G
0R
b0 7
b0 4"
b0 6"
b0 q"
b0 $
b0 *"
b0 5"
b0 q
b0 ,"
b0 2"
b0 ]"
b0 b"
b0 p"
b0 6
b0 7"
b0 t"
b0 ~"
0K
0-
b0 P
b0 u"
b0 (#
b0 p
b0 s"
b0 '#
b100000 &#
1!
#10000
0!
0"
#15000
b11 v
b11 '"
b11 ?"
1m
1/
b11 w
b11 &"
b11 )"
1n
10
b1010 ^
b1010 H"
b1010 \"
b1010 )
b1010 ="
b1010 D"
b1010 "#
b101 8
b101 B"
b10011 E
b10011 ("
b1010000000000001100010011 \
b1010000000000001100010011 U"
b1010000000000001100010011 Y"
b1000 F
b1000 w"
b1000 y"
b10011 C
b10011 +"
b10011 3"
b100 =
b100 X"
b101000000000001010010011 ]
b101000000000001010010011 V"
b101000000000001010010011 ["
b1000 >
b1000 z
b1000 S"
b1000 v"
b100 B
b100 {
b100 T"
b100 Z"
b100 z"
1!
#20000
0!
#25000
b1010 r
b1010 !"
b1010 ."
b110000000000000011101111 \
b110000000000000011101111 U"
b110000000000000011101111 Y"
b1100 F
b1100 w"
b1100 y"
b10100 ^
b10100 H"
b10100 \"
b10100 )
b10100 ="
b10100 D"
b10100 "#
b110 8
b110 B"
b1011 D
b1011 ~
b1011 %"
b1011 /"
b1010 &
b1010 |
b1010 i"
b1010 ;
b1010 x"
b1010 }"
b1100 >
b1100 z
b1100 S"
b1100 v"
b1000 B
b1000 {
b1000 T"
b1000 Z"
b1000 z"
b1000 =
b1000 X"
b100 @
b100 G"
b100 W"
b1010000000000001100010011 ]
b1010000000000001100010011 V"
b1010000000000001100010011 ["
b11 x
b11 $"
b11 I"
1o
11
b1010 _
b1010 L"
b1010 g"
b1010 {"
b101 9
b101 1"
b101 >"
b101 N"
b1010 *
b1010 8"
b1010 R"
1!
#30000
0!
#35000
1s
1V
b100 v
b100 '"
b100 ?"
0m
b10100 r
b10100 !"
b10100 ."
1t
1W
b100 w
b100 &"
b100 )"
0n
10
b10100 &
b10100 |
b10100 i"
b11000 ;
b11000 x"
b11000 }"
b100 ?
b100 o"
b100 |"
b1100 ^
b1100 H"
b1100 \"
b1100 )
b1100 ="
b1100 D"
b1100 "#
b1 8
b1 B"
b1101111 E
b1101111 ("
b110001100000000001110010011 \
b110001100000000001110010011 U"
b110001100000000001110010011 Y"
b10000 F
b10000 w"
b10000 y"
b1011 C
b1011 +"
b1011 3"
1.
b101 7
b101 4"
b101 6"
b101 q"
b1010 q
b1010 ,"
b1010 2"
b1010 ]"
b1010 b"
b1010 p"
b10100 _
b10100 L"
b10100 g"
b10100 {"
b110 9
b110 1"
b110 >"
b110 N"
b10100 *
b10100 8"
b10100 R"
b100 A
b100 M"
b100 j"
b100 m"
b1100 =
b1100 X"
b1000 @
b1000 G"
b1000 W"
b110000000000000011101111 ]
b110000000000000011101111 V"
b110000000000000011101111 ["
b10000 >
b10000 z
b10000 S"
b10000 v"
b1100 B
b1100 {
b1100 T"
b1100 Z"
b1100 z"
1!
#40000
0!
#45000
0s
0V
b11 v
b11 '"
b11 ?"
1m
1g
1<
1n
0t
0W
b11 w
b11 &"
b11 )"
10
b1100 r
b1100 !"
b1100 ."
b100111000000010010011 \
b100111000000010010011 U"
b100111000000010010011 Y"
b10100 F
b10100 w"
b10100 y"
b1100011 ^
b1100011 H"
b1100011 \"
b11 a
b11 A"
b11 )
b11 ="
b11 D"
b11 "#
b111 8
b111 B"
b10011 E
b10011 ("
b100010 D
b100010 ~
b100010 %"
b100010 /"
b0 &
b0 |
b0 i"
b10100 ;
b10100 x"
b10100 }"
b1000 '
b1000 }
b1000 l"
b1000 ?
b1000 o"
b1000 |"
b1010 #
b1010 `"
b1010 e"
b1010 ##
b1010 )#
b10100 >
b10100 z
b10100 S"
b10100 v"
b10000 B
b10000 {
b10000 T"
b10000 Z"
b10000 z"
b10000 =
b10000 X"
b1100 @
b1100 G"
b1100 W"
b110001100000000001110010011 ]
b110001100000000001110010011 V"
b110001100000000001110010011 ["
1u
1X
b100 x
b100 $"
b100 I"
0o
b1100 _
b1100 L"
b1100 g"
b1100 {"
b1 9
b1 1"
b1 >"
b1 N"
b1100 *
b1100 8"
b1100 R"
b1000 A
b1000 M"
b1000 j"
b1000 m"
b110 7
b110 4"
b110 6"
b110 q"
b10100 q
b10100 ,"
b10100 2"
b10100 ]"
b10100 b"
b10100 p"
b101 6
b101 7"
b101 t"
b101 ~"
1-
b1010 p
b1010 s"
b1010 '#
1!
#50000
0!
#55000
0g
0<
b0 v
b0 '"
b0 ?"
0m
0/
b11000 F
b11000 w"
b11000 y"
b0 r
b0 !"
b0 ."
b0 w
b0 &"
b0 )"
0n
00
b10100 #
b10100 `"
b10100 e"
b10100 ##
b10100 )#
b0 ;
b0 x"
b0 }"
b0 '
b0 }
b0 l"
b0 ?
b0 o"
b0 |"
b10011 D
b10011 ~
b10011 %"
b10011 /"
b0 ^
b0 H"
b0 \"
b0 a
b0 A"
b0 )
b0 ="
b0 D"
b0 "#
b0 8
b0 B"
b0 E
b0 ("
b11000101000010100110011 \
b11000101000010100110011 U"
b11000101000010100110011 Y"
b110 6
b110 7"
b110 t"
b110 ~"
b10100 p
b10100 s"
b10100 '#
b100010 C
b100010 +"
b100010 3"
b1 7
b1 4"
b1 6"
b1 q"
b1100 q
b1100 ,"
b1100 2"
b1100 ]"
b1100 b"
b1100 p"
0u
b0 _
b0 L"
b0 g"
b0 {"
b0 9
b0 1"
b0 >"
b0 N"
b0 *
b0 8"
b0 R"
b0 A
b0 M"
b0 j"
b0 m"
0X
b0 x
b0 $"
b0 I"
01
b0 =
b0 X"
b0 @
b0 G"
b0 W"
b0 ]
b0 V"
b0 ["
b11000 >
b11000 z
b11000 S"
b11000 v"
b10100 B
b10100 {
b10100 T"
b10100 Z"
b10100 z"
1!
#60000
0!
#65000
b10 v
b10 '"
b10 ?"
1/
b10100 2
b10100 E"
b10100 $#
b1010 4
b1010 F"
b1010 %#
b10 w
b10 &"
b10 )"
10
b1000000001100111 \
b1000000001100111 U"
b1000000001100111 Y"
b11100 F
b11100 w"
b11100 y"
b110 )
b110 ="
b110 D"
b110 "#
b101 +
b101 <"
b101 C"
b101 !#
b1010 8
b1010 B"
b110011 E
b110011 ("
b1100 #
b1100 `"
b1100 e"
b1100 ##
b1100 )#
b11100 >
b11100 z
b11100 S"
b11100 v"
b11000 B
b11000 {
b11000 T"
b11000 Z"
b11000 z"
b11000 =
b11000 X"
b10100 @
b10100 G"
b10100 W"
b11000101000010100110011 ]
b11000101000010100110011 V"
b11000101000010100110011 ["
b10011 C
b10011 +"
b10011 3"
0.
b0 7
b0 4"
b0 6"
b0 q"
b0 q
b0 ,"
b0 2"
b0 ]"
b0 b"
b0 p"
b1 6
b1 7"
b1 t"
b1 ~"
b1100 p
b1100 s"
b1100 '#
1!
#70000
0!
#75000
1s
1Y
1V
b101 v
b101 '"
b101 ?"
1m
b11110 r
b11110 !"
b11110 ."
b10100 &
b10100 |
b10100 i"
b1010 '
b1010 }
b1010 l"
b10100 ;
b10100 x"
b10100 }"
b0 2
b0 E"
b0 $#
b1100 4
b1100 F"
b1100 %#
1t
1Z
1W
1n
b101 w
b101 &"
b101 )"
10
b0 #
b0 `"
b0 e"
b0 ##
b0 )#
b1 D
b1 ~
b1 %"
b1 /"
b10100 %
b10100 0"
b10100 f"
b10100 h"
b1010 (
b1010 a"
b1010 k"
b10100 ?
b10100 o"
b10100 |"
b0 )
b0 ="
b0 D"
b0 "#
b1 +
b1 <"
b1 C"
b1 !#
b0 8
b0 B"
b1100111 E
b1100111 ("
bx \
bx U"
bx Y"
b100000 F
b100000 w"
b100000 y"
b0 6
b0 7"
b0 t"
b0 ~"
0-
b0 p
b0 s"
b0 '#
b10 x
b10 $"
b10 I"
11
b10100 3
b10100 P"
b10100 d"
b1010 5
b1010 O"
b1010 _"
b1010 n"
b1010 9
b1010 1"
b1010 >"
b1010 N"
b110 *
b110 8"
b110 R"
b101 ,
b101 9"
b101 Q"
b10100 A
b10100 M"
b10100 j"
b10100 m"
b11100 =
b11100 X"
b11000 @
b11000 G"
b11000 W"
b1000000001100111 ]
b1000000001100111 V"
b1000000001100111 ["
b100000 >
b100000 z
b100000 S"
b100000 v"
b11100 B
b11100 {
b11100 T"
b11100 Z"
b11100 z"
1!
#80000
0!
#85000
0s
0Y
0V
b0 v
b0 '"
b0 ?"
0m
0/
1g
1<
bx 2
bx E"
bx $#
bx 4
bx F"
bx %#
0t
0Z
0W
b0 w
b0 &"
b0 )"
0n
00
b11100 r
b11100 !"
b11100 ."
b1100 ;
b1100 x"
b1100 }"
b1100 F
b1100 w"
b1100 y"
bx a
bx A"
bx )
bx ="
bx D"
bx "#
bx +
bx <"
bx C"
bx !#
bx c
bx @"
bx 8
bx B"
bx E
bx ("
b100011 D
b100011 ~
b100011 %"
b100011 /"
b0 &
b0 |
b0 i"
b11000 '
b11000 }
b11000 l"
b1100 ?
b1100 o"
b1100 |"
b1100 (
b1100 a"
b1100 k"
b0 %
b0 0"
b0 f"
b0 h"
b100100 >
b100100 z
b100100 S"
b100100 v"
b100000 B
b100000 {
b100000 T"
b100000 Z"
b100000 z"
b100000 =
b100000 X"
b11100 @
b11100 G"
b11100 W"
bx ]
bx V"
bx ["
1u
1[
1X
b101 x
b101 $"
b101 I"
1o
b0 3
b0 P"
b0 d"
b1100 5
b1100 O"
b1100 _"
b1100 n"
b0 9
b0 1"
b0 >"
b0 N"
b0 *
b0 8"
b0 R"
b1 ,
b1 9"
b1 Q"
b11000 A
b11000 M"
b11000 j"
b11000 m"
b1 C
b1 +"
b1 3"
1.
b1010 7
b1010 4"
b1010 6"
b1010 q"
b10100 $
b10100 *"
b10100 5"
b11110 q
b11110 ,"
b11110 2"
b11110 ]"
b11110 b"
b11110 p"
1!
#90000
0!
#95000
b10000 F
b10000 w"
b10000 y"
0g
0<
b0 ;
b0 x"
b0 }"
b0 r
b0 !"
b0 ."
b0 2
b0 E"
b0 $#
b0 4
b0 F"
b0 %#
b11110 #
b11110 `"
b11110 e"
b11110 ##
b11110 )#
b0 (
b0 a"
b0 k"
b0 '
b0 }
b0 l"
b0 ?
b0 o"
b0 |"
b10011 D
b10011 ~
b10011 %"
b10011 /"
b0 a
b0 A"
b0 )
b0 ="
b0 D"
b0 "#
b0 +
b0 <"
b0 C"
b0 !#
b0 c
b0 @"
b0 8
b0 B"
b0 E
b0 ("
b110001100000000001110010011 \
b110001100000000001110010011 U"
b110001100000000001110010011 Y"
b1010 6
b1010 7"
b1010 t"
b1010 ~"
1-
b11110 p
b11110 s"
b11110 '#
b100011 C
b100011 +"
b100011 3"
b0 7
b0 4"
b0 6"
b0 q"
b0 $
b0 *"
b0 5"
b11100 q
b11100 ,"
b11100 2"
b11100 ]"
b11100 b"
b11100 p"
0u
0[
b0 5
b0 O"
b0 _"
b0 n"
b0 ,
b0 9"
b0 Q"
b0 A
b0 M"
b0 j"
b0 m"
0X
b0 x
b0 $"
b0 I"
0o
01
b0 =
b0 X"
b0 @
b0 G"
b0 W"
b0 ]
b0 V"
b0 ["
b10000 >
b10000 z
b10000 S"
b10000 v"
b1100 B
b1100 {
b1100 T"
b1100 Z"
b1100 z"
1!
#100000
0!
#105000
b11 v
b11 '"
b11 ?"
1m
1/
b11 w
b11 &"
b11 )"
1n
10
b100111000000010010011 \
b100111000000010010011 U"
b100111000000010010011 Y"
b10100 F
b10100 w"
b10100 y"
b1100011 ^
b1100011 H"
b1100011 \"
b11 a
b11 A"
b11 )
b11 ="
b11 D"
b11 "#
b111 8
b111 B"
b10011 E
b10011 ("
b11100 #
b11100 `"
b11100 e"
b11100 ##
b11100 )#
b10100 >
b10100 z
b10100 S"
b10100 v"
b10000 B
b10000 {
b10000 T"
b10000 Z"
b10000 z"
b10000 =
b10000 X"
b1100 @
b1100 G"
b1100 W"
b110001100000000001110010011 ]
b110001100000000001110010011 V"
b110001100000000001110010011 ["
b10011 C
b10011 +"
b10011 3"
0.
b0 q
b0 ,"
b0 2"
b0 ]"
b0 b"
b0 p"
b0 6
b0 7"
b0 t"
b0 ~"
b11100 p
b11100 s"
b11100 '#
1!
#110000
0!
#115000
b1100011 r
b1100011 !"
b1100011 ."
b1100 2
b1100 E"
b1100 $#
b0 #
b0 `"
b0 e"
b0 ##
b0 )#
b1011 D
b1011 ~
b1011 %"
b1011 /"
b1100011 &
b1100011 |
b1100011 i"
b1101111 ;
b1101111 x"
b1101111 }"
b1100 ?
b1100 o"
b1100 |"
b1 ^
b1 H"
b1 \"
b0 a
b0 A"
b1 )
b1 ="
b1 D"
b1 "#
b111 +
b111 <"
b111 C"
b111 !#
b1 8
b1 B"
b11000101000010100110011 \
b11000101000010100110011 U"
b11000101000010100110011 Y"
b11000 F
b11000 w"
b11000 y"
0-
b0 p
b0 s"
b0 '#
b11 x
b11 $"
b11 I"
1o
11
b11 b
b11 ""
b11 K"
b1100011 _
b1100011 L"
b1100011 g"
b1100011 {"
b111 9
b111 1"
b111 >"
b111 N"
b11 *
b11 8"
b11 R"
b1100 A
b1100 M"
b1100 j"
b1100 m"
b10100 =
b10100 X"
b10000 @
b10000 G"
b10000 W"
b100111000000010010011 ]
b100111000000010010011 V"
b100111000000010010011 ["
b11000 >
b11000 z
b11000 S"
b11000 v"
b10100 B
b10100 {
b10100 T"
b10100 Z"
b10100 z"
1!
#120000
0!
