processor/scripts/riscv_core.vcd
$date
	Fri Apr 10 09:45:34 2026
$end
$version
	Icarus Verilog
$end
$timescale
	1ps
$end
$scope module tb_risc $end
$var reg 1 ! clk $end
$var reg 1 " rst $end
$scope module uut $end
$var wire 1 ! clk $end
$var wire 1 " rst $end
$var wire 32 # write_data_wb [31:0] $end
$var wire 32 $ write_data_mem [31:0] $end
$var wire 32 % src2_forwarded [31:0] $end
$var wire 32 & src2 [31:0] $end
$var wire 32 ' src1_forwarded [31:0] $end
$var wire 32 ( src1 [31:0] $end
$var wire 5 ) rs2_id [4:0] $end
$var wire 5 * rs2_ex [4:0] $end
$var wire 5 + rs1_id [4:0] $end
$var wire 5 , rs1_ex [4:0] $end
$var wire 1 - reg_write_wb $end
$var wire 1 . reg_write_mem $end
$var wire 1 / reg_write_id_mux $end
$var wire 1 0 reg_write_id $end
$var wire 1 1 reg_write_ex $end
$var wire 32 2 read_data_2_id [31:0] $end
$var wire 32 3 read_data_2_ex [31:0] $end
$var wire 32 4 read_data_1_id [31:0] $end
$var wire 32 5 read_data_1_ex [31:0] $end
$var wire 5 6 rd_wb [4:0] $end
$var wire 5 7 rd_mem [4:0] $end
$var wire 5 8 rd_id [4:0] $end
$var wire 5 9 rd_ex [4:0] $end
$var wire 1 : pc_write $end
$var wire 32 ; pc_target [31:0] $end
$var wire 1 < pc_src $end
$var wire 32 = pc_plus_4_id [31:0] $end
$var wire 32 > pc_plus_4 [31:0] $end
$var wire 32 ? pc_int_offset [31:0] $end
$var wire 32 @ pc_id [31:0] $end
$var wire 32 A pc_ex [31:0] $end
$var wire 32 B pc [31:0] $end
$var wire 6 C operation_mem [5:0] $end
$var wire 6 D operation [5:0] $end
$var wire 7 E opcode_id [6:0] $end
$var wire 32 F next_pc [31:0] $end
$var wire 1 G mem_write_mem $end
$var wire 1 H mem_write_id_mux $end
$var wire 1 I mem_write_id $end
$var wire 1 J mem_write_ex $end
$var wire 1 K mem_to_reg_wb $end
$var wire 1 L mem_to_reg_mem $end
$var wire 1 M mem_to_reg_id_mux $end
$var wire 1 N mem_to_reg_id $end
$var wire 1 O mem_to_reg_ex $end
$var wire 32 P mem_result_wb [31:0] $end
$var wire 32 Q mem_result_mem [31:0] $end
$var wire 1 R mem_read_mem $end
$var wire 1 S mem_read_id_mux $end
$var wire 1 T mem_read_id $end
$var wire 1 U mem_read_ex $end
$var wire 1 V jump_id_mux $end
$var wire 1 W jump_id $end
$var wire 1 X jump_ex $end
$var wire 1 Y jalr_sel_id_mux $end
$var wire 1 Z jalr_sel_id $end
$var wire 1 [ jalr_sel_ex $end
$var wire 32 \ instruction_code_if [31:0] $end
$var wire 32 ] instruction_code_id [31:0] $end
$var wire 32 ^ imm_val_id [31:0] $end
$var wire 32 _ imm_val_ex [31:0] $end
$var wire 1 ` if_id_write $end
$var wire 7 a funct7_id [6:0] $end
$var wire 7 b funct7_ex [6:0] $end
$var wire 3 c funct3_id [2:0] $end
$var wire 3 d funct3_ex [2:0] $end
$var wire 2 e forwardB [1:0] $end
$var wire 2 f forwardA [1:0] $end
$var wire 1 g flush $end
$var wire 1 h control_mux_sel_id $end
$var wire 1 i branch_id_mux $end
$var wire 1 j branch_id $end
$var wire 1 k branch_ex $end
$var wire 1 l branch_condn_ex $end
$var wire 1 m alu_src_id_mux $end
$var wire 1 n alu_src_id $end
$var wire 1 o alu_src_ex $end
$var wire 32 p alu_result_wb [31:0] $end
$var wire 32 q alu_result_mem [31:0] $end
$var wire 32 r alu_result_ex [31:0] $end
$var wire 1 s alu_pc_sel_id_mux $end
$var wire 1 t alu_pc_sel_id $end
$var wire 1 u alu_pc_sel_ex $end
$var wire 3 v alu_op_id_mux [2:0] $end
$var wire 3 w alu_op_id [2:0] $end
$var wire 3 x alu_op_ex [2:0] $end
$var wire 1 y ID_EX_write $end
$scope module add_if $end
$var wire 32 z pc_plus_4 [31:0] $end
$var wire 32 { pc [31:0] $end
$upscope $end
$scope module alu1 $end
$var wire 32 | src2 [31:0] $end
$var wire 32 } src1 [31:0] $end
$var wire 6 ~ operation [5:0] $end
$var reg 32 !" alu_result [31:0] $end
$var reg 1 l branch_condn $end
$upscope $end
$scope module alu_ctrl $end
$var wire 1 J mem_write_ex $end
$var wire 7 "" func7 [6:0] $end
$var wire 3 #" func3 [2:0] $end
$var wire 3 $" alu_op [2:0] $end
$var reg 6 %" operation [5:0] $end
$upscope $end
$scope module bd $end
$var wire 1 l branch_condn_ex $end
$var wire 1 g flush $end
$var wire 1 < pc_src $end
$var wire 1 X jump_ex $end
$var wire 1 k branch_ex $end
$upscope $end
$scope module cmux $end
$var wire 1 0 regWrite $end
$var wire 1 I memWrite $end
$var wire 1 N memToReg $end
$var wire 1 T memRead $end
$var wire 1 W jump $end
$var wire 1 Z jalr_sel $end
$var wire 1 h control_mux_sel $end
$var wire 1 j branch $end
$var wire 1 t alu_pc_sel $end
$var wire 1 n aluSrc $end
$var wire 3 &" aluOp [2:0] $end
$var reg 3 '" aluOp_mux_out [2:0] $end
$var reg 1 m aluSrc_mux_out $end
$var reg 1 s alu_pc_sel_out $end
$var reg 1 i branch_mux_out $end
$var reg 1 Y jalr_sel_out $end
$var reg 1 V jump_mux_out $end
$var reg 1 S memRead_mux_out $end
$var reg 1 M memToReg_mux_out $end
$var reg 1 H memWrite_mux_out $end
$var reg 1 / regWrite_mux_out $end
$upscope $end
$scope module ctrl $end
$var wire 7 (" opcode [6:0] $end
$var reg 3 )" aluOp [2:0] $end
$var reg 1 n aluSrc $end
$var reg 1 t alu_pc_sel $end
$var reg 1 j branch $end
$var reg 1 Z jalr_sel $end
$var reg 1 W jump $end
$var reg 1 T memRead $end
$var reg 1 N memToReg $end
$var reg 1 I memWrite $end
$var reg 1 0 regWrite $end
$upscope $end
$scope module dmem $end
$var wire 1 ! clk $end
$var wire 1 " rst $end
$var wire 32 *" w_data [31:0] $end
$var wire 6 +" operation [5:0] $end
$var wire 1 G mem_write $end
$var wire 1 R mem_read $end
$var wire 32 ," addr [31:0] $end
$var reg 32 -" r_data [31:0] $end
$var integer 32 ." i [31:0] $end
$upscope $end
$scope module ex_mem1 $end
$var wire 32 /" alu_result_in [31:0] $end
$var wire 1 ! clk $end
$var wire 6 0" operation_ex [5:0] $end
$var wire 1 " rst $end
$var wire 32 1" write_data_in [31:0] $end
$var wire 1 1 reg_write_in $end
$var wire 5 2" rd_in [4:0] $end
$var wire 1 J mem_write_in $end
$var wire 1 O mem_to_reg_in $end
$var wire 1 U mem_read_in $end
$var reg 32 3" alu_result_out [31:0] $end
$var reg 1 R mem_read_out $end
$var reg 1 L mem_to_reg_out $end
$var reg 1 G mem_write_out $end
$var reg 6 4" operation_mem [5:0] $end
$var reg 5 5" rd_out [4:0] $end
$var reg 1 . reg_write_out $end
$var reg 32 6" write_data_out [31:0] $end
$upscope $end
$scope module fwd $end
$var wire 5 7" ex_mem_rd [4:0] $end
$var wire 1 . ex_mem_reg_write $end
$var wire 1 - mem_wb_reg_write $end
$var wire 5 8" mem_wb_rd [4:0] $end
$var wire 5 9" id_ex_rs2 [4:0] $end
$var wire 5 :" id_ex_rs1 [4:0] $end
$var reg 2 ;" forward_A [1:0] $end
$var reg 2 <" forward_B [1:0] $end
$upscope $end
$scope module hz $end
$var wire 5 =" rs1_id [4:0] $end
$var wire 5 >" rs2_id [4:0] $end
$var wire 5 ?" rd_ex [4:0] $end
$var wire 1 U MemRead_ex $end
$var reg 1 y ID_EX_write $end
$var reg 1 ` IF_ID_write $end
$var reg 1 : PC_Write $end
$var reg 1 h control_mux_sel $end
$upscope $end
$scope module id_ex1 $end
$var wire 3 @" aluOp_id [2:0] $end
$var wire 1 m aluSrc_id $end
$var wire 1 s alu_pc_sel_id $end
$var wire 1 i branch_id $end
$var wire 1 ! clk $end
$var wire 1 g flush $end
$var wire 3 A" funct3_id [2:0] $end
$var wire 7 B" funct7_id [6:0] $end
$var wire 1 Y jalr_sel_id $end
$var wire 1 V jump_id $end
$var wire 1 S memRead_id $end
$var wire 1 M memToReg_id $end
$var wire 1 H memWrite_id $end
$var wire 5 C" rd_id [4:0] $end
$var wire 1 / regWrite_id $end
$var wire 5 D" rs1_id [4:0] $end
$var wire 5 E" rs2_id [4:0] $end
$var wire 1 " rst $end
$var wire 1 h stall $end
$var wire 32 F" read_data2_id [31:0] $end
$var wire 32 G" read_data1_id [31:0] $end
$var wire 32 H" pc_id [31:0] $end
$var wire 32 I" imm_val_id [31:0] $end
$var reg 3 J" aluOp_ex [2:0] $end
$var reg 1 o aluSrc_ex $end
$var reg 1 u alu_pc_sel_ex $end
$var reg 1 k branch_ex $end
$var reg 3 K" funct3_ex [2:0] $end
$var reg 7 L" funct7_ex [6:0] $end
$var reg 32 M" imm_val_ex [31:0] $end
$var reg 1 [ jalr_sel_ex $end
$var reg 1 X jump_ex $end
$var reg 1 U memRead_ex $end
$var reg 1 O memToReg_ex $end
$var reg 1 J memWrite_ex $end
$var reg 32 N" pc_ex [31:0] $end
$var reg 5 O" rd_ex [4:0] $end
$var reg 32 P" read_data1_ex [31:0] $end
$var reg 32 Q" read_data2_ex [31:0] $end
$var reg 1 1 regWrite_ex $end
$var reg 5 R" rs1_ex [4:0] $end
$var reg 5 S" rs2_ex [4:0] $end
$upscope $end
$scope module if_id_reg $end
$var wire 1 ` IF_ID_write $end
$var wire 1 g IF_flush $end
$var wire 32 T" IF_pcplus4 [31:0] $end
$var wire 1 ! clk $end
$var wire 1 " rst $end
$var wire 32 U" IF_pc [31:0] $end
$var wire 32 V" IF_instr [31:0] $end
$var reg 32 W" Instr_ID [31:0] $end
$var reg 32 X" pc_ID [31:0] $end
$var reg 32 Y" pc_plus_4_ID [31:0] $end
$upscope $end
$scope module imem_if $end
$var wire 32 Z" instruction_code [31:0] $end
$var wire 32 [" pc [31:0] $end
$upscope $end
$scope module imm1 $end
$var wire 32 \" instruction [31:0] $end
$var reg 32 ]" imm_val [31:0] $end
$upscope $end
$scope module m1 $end
$var wire 32 ^" alu_result [31:0] $end
$var wire 2 _" forward_A [1:0] $end
$var wire 32 `" rd1 [31:0] $end
$var wire 32 a" mem_result [31:0] $end
$var reg 32 b" src1 [31:0] $end
$upscope $end
$scope module m2 $end
$var wire 32 c" alu_result [31:0] $end
$var wire 2 d" forward_B [1:0] $end
$var wire 32 e" rd2 [31:0] $end
$var wire 32 f" mem_result [31:0] $end
$var reg 32 g" src2 [31:0] $end
$upscope $end
$scope module m3 $end
$var wire 1 o alu_src $end
$var wire 32 h" imm [31:0] $end
$var wire 32 i" src2_in [31:0] $end
$var reg 32 j" src2 [31:0] $end
$upscope $end
$scope module m4 $end
$var wire 1 u alu_pc_sel $end
$var wire 32 k" pc [31:0] $end
$var wire 32 l" src1_in [31:0] $end
$var reg 32 m" src1 [31:0] $end
$upscope $end
$scope module m5 $end
$var wire 1 [ jalr_sel $end
$var wire 32 n" pc [31:0] $end
$var wire 32 o" read_data_1_ex [31:0] $end
$var reg 32 p" pc_offset_in [31:0] $end
$upscope $end
$scope module mem_wb1 $end
$var wire 32 q" alu_result_mem [31:0] $end
$var wire 1 ! clk $end
$var wire 1 L mem_to_reg_mem $end
$var wire 5 r" rd_mem [4:0] $end
$var wire 32 s" read_data_mem [31:0] $end
$var wire 1 . reg_write_mem $end
$var wire 1 " rst $end
$var reg 32 t" alu_result_wb [31:0] $end
$var reg 1 K mem_to_reg_wb $end
$var reg 5 u" rd_wb [4:0] $end
$var reg 32 v" read_data_wb [31:0] $end
$var reg 1 - reg_write_wb $end
$upscope $end
$scope module mux_if $end
$var wire 1 < PCSrc $end
$var wire 32 w" pc_plus_4 [31:0] $end
$var wire 32 x" next_pc [31:0] $end
$var wire 32 y" PCTarget [31:0] $end
$upscope $end
$scope module pc_if $end
$var wire 1 ! clk $end
$var wire 32 z" next_pc [31:0] $end
$var wire 1 : pc_write $end
$var wire 1 " rst $end
$var reg 32 {" pc [31:0] $end
$upscope $end
$scope module pco $end
$var wire 32 |" imm [31:0] $end
$var wire 32 }" pc_offset_in [31:0] $end
$var reg 32 ~" pc_offset_out [31:0] $end
$upscope $end
$scope module rf $end
$var wire 1 ! clk $end
$var wire 5 !# rd [4:0] $end
$var wire 1 - reg_write $end
$var wire 5 "# rs1 [4:0] $end
$var wire 5 ## rs2 [4:0] $end
$var wire 1 " rst $end
$var wire 32 $# write_data [31:0] $end
$var wire 32 %# read_data2 [31:0] $end
$var wire 32 &# read_data1 [31:0] $end
$var integer 32 '# i [31:0] $end
$upscope $end
$scope module wb_mux $end
$var wire 32 (# alu_result [31:0] $end
$var wire 1 K memToReg $end
$var wire 32 )# r_data [31:0] $end
$var wire 32 *# data_out [31:0] $end
$upscope $end
$upscope $end
$upscope $end
$enddefinitions $end
$comment Show the parameter values. $end
$dumpall
$end
#0
$dumpvars
bx *#
bx )#
bx (#
bx '#
bx &#
bx %#
bx $#
bx ##
bx "#
bx !#
bx ~"
bx }"
bx |"
bx {"
bx z"
bx y"
bx x"
bx w"
bx v"
bx u"
bx t"
bx s"
bx r"
bx q"
bx p"
bx o"
bx n"
bx m"
bx l"
bx k"
bx j"
bx i"
bx h"
bx g"
bx f"
bx e"
bx d"
bx c"
bx b"
bx a"
bx `"
bx _"
bx ^"
bx ]"
bx \"
bx ["
bx Z"
bx Y"
bx X"
bx W"
bx V"
bx U"
bx T"
bx S"
bx R"
bx Q"
bx P"
bx O"
bx N"
bx M"
bx L"
bx K"
bx J"
bx I"
bx H"
bx G"
bx F"
bx E"
bx D"
bx C"
bx B"
bx A"
bx @"
bx ?"
bx >"
bx ="
bx <"
bx ;"
bx :"
bx 9"
bx 8"
bx 7"
bx 6"
bx 5"
bx 4"
bx 3"
bx 2"
bx 1"
bx 0"
bx /"
bx ."
bx -"
bx ,"
bx +"
bx *"
bx )"
bx ("
bx '"
bx &"
bx %"
bx $"
bx #"
bx ""
bx !"
bx ~
bx }
bx |
bx {
bx z
xy
bx x
bx w
bx v
xu
xt
xs
bx r
bx q
bx p
xo
xn
xm
xl
xk
xj
xi
xh
xg
bx f
bx e
bx d
bx c
bx b
bx a
x`
bx _
bx ^
bx ]
bx \
x[
xZ
xY
xX
xW
xV
xU
xT
xS
xR
bx Q
bx P
xO
xN
xM
xL
xK
xJ
xI
xH
xG
bx F
bx E
bx D
bx C
bx B
bx A
bx @
bx ?
bx >
bx =
x<
bx ;
x:
bx 9
bx 8
bx 7
bx 6
bx 5
bx 4
bx 3
bx 2
x1
x0
x/
x.
x-
bx ,
bx +
bx *
bx )
bx (
bx '
bx &
bx %
bx $
bx #
1"
0!
$end
#5000
0s
0Y
0V
0M
0S
0H
0i
b0 v
b0 '"
b0 @"
0m
0/
0g
0<
b0 2
b0 F"
b0 %#
b0 4
b0 G"
b0 &#
0t
0Z
0W
0N
0T
0I
0j
b0 w
b0 &"
b0 )"
0n
00
b0 r
b0 !"
b0 /"
0l
b101000000000001010010011 \
b101000000000001010010011 V"
b101000000000001010010011 Z"
b100 F
b100 x"
b100 z"
b0 ^
b0 I"
b0 ]"
b0 a
b0 B"
b0 )
b0 >"
b0 E"
b0 ##
b0 +
b0 ="
b0 D"
b0 "#
b0 c
b0 A"
b0 8
b0 C"
b0 E
b0 ("
b10011 D
b10011 ~
b10011 %"
b10011 0"
b0 &
b0 |
b0 j"
b0 ;
b0 y"
b0 ~"
0h
1y
1`
1:
b0 '
b0 }
b0 m"
b0 ?
b0 p"
b0 }"
b0 (
b0 b"
b0 l"
b0 %
b0 1"
b0 g"
b0 i"
b0 Q
b0 -"
b0 s"
b0 e
b0 <"
b0 d"
b0 f
b0 ;"
b0 _"
b0 #
b0 a"
b0 f"
b0 $#
b0 *#
b100 >
b100 z
b100 T"
b100 w"
b0 B
b0 {
b0 U"
b0 ["
b0 {"
b0 =
b0 Y"
b0 @
b0 H"
b0 X"
b0 ]
b0 W"
b0 \"
0u
0[
0X
0O
0U
0J
0k
b0 x
b0 $"
b0 J"
0o
01
b0 b
b0 ""
b0 L"
b0 d
b0 #"
b0 K"
b0 _
b0 M"
b0 h"
b0 |"
b0 3
b0 Q"
b0 e"
b0 5
b0 P"
b0 `"
b0 o"
b0 9
b0 2"
b0 ?"
b0 O"
b0 *
b0 9"
b0 S"
b0 ,
b0 :"
b0 R"
b0 A
b0 N"
b0 k"
b0 n"
b0 C
b0 +"
b0 4"
0.
0L
0G
0R
b0 7
b0 5"
b0 7"
b0 r"
b0 $
b0 *"
b0 6"
b0 q
b0 ,"
b0 3"
b0 ^"
b0 c"
b0 q"
b0 6
b0 8"
b0 u"
b0 !#
0K
0-
b0 P
b0 v"
b0 )#
b0 p
b0 t"
b0 (#
b100000 '#
b100000000000000 ."
1!
#10000
0!
0"
#15000
b11 v
b11 '"
b11 @"
1m
1/
b11 w
b11 &"
b11 )"
1n
10
b1010 ^
b1010 I"
b1010 ]"
b1010 )
b1010 >"
b1010 E"
b1010 ##
b101 8
b101 C"
b10011 E
b10011 ("
b1010000000000001100010011 \
b1010000000000001100010011 V"
b1010000000000001100010011 Z"
b1000 F
b1000 x"
b1000 z"
b10011 C
b10011 +"
b10011 4"
b100 =
b100 Y"
b101000000000001010010011 ]
b101000000000001010010011 W"
b101000000000001010010011 \"
b1000 >
b1000 z
b1000 T"
b1000 w"
b100 B
b100 {
b100 U"
b100 ["
b100 {"
1!
#20000
0!
#25000
b1010 r
b1010 !"
b1010 /"
b1010000000000000011101111 \
b1010000000000000011101111 V"
b1010000000000000011101111 Z"
b1100 F
b1100 x"
b1100 z"
b10100 ^
b10100 I"
b10100 ]"
b10100 )
b10100 >"
b10100 E"
b10100 ##
b110 8
b110 C"
b1011 D
b1011 ~
b1011 %"
b1011 0"
b1010 &
b1010 |
b1010 j"
b1010 ;
b1010 y"
b1010 ~"
b1100 >
b1100 z
b1100 T"
b1100 w"
b1000 B
b1000 {
b1000 U"
b1000 ["
b1000 {"
b1000 =
b1000 Y"
b100 @
b100 H"
b100 X"
b1010000000000001100010011 ]
b1010000000000001100010011 W"
b1010000000000001100010011 \"
b11 x
b11 $"
b11 J"
1o
11
b1010 _
b1010 M"
b1010 h"
b1010 |"
b101 9
b101 2"
b101 ?"
b101 O"
b1010 *
b1010 9"
b1010 S"
1!
#30000
0!
#35000
1s
1V
b100 v
b100 '"
b100 @"
0m
b10100 r
b10100 !"
b10100 /"
1t
1W
b100 w
b100 &"
b100 )"
0n
10
b10100 &
b10100 |
b10100 j"
b11000 ;
b11000 y"
b11000 ~"
b100 ?
b100 p"
b100 }"
b1 8
b1 C"
b1101111 E
b1101111 ("
b1000000100110011 \
b1000000100110011 V"
b1000000100110011 Z"
b10000 F
b10000 x"
b10000 z"
b1011 C
b1011 +"
b1011 4"
1.
b101 7
b101 5"
b101 7"
b101 r"
b1010 q
b1010 ,"
b1010 3"
b1010 ^"
b1010 c"
b1010 q"
b10100 _
b10100 M"
b10100 h"
b10100 |"
b110 9
b110 2"
b110 ?"
b110 O"
b10100 *
b10100 9"
b10100 S"
b100 A
b100 N"
b100 k"
b100 n"
b1100 =
b1100 Y"
b1000 @
b1000 H"
b1000 X"
b1010000000000000011101111 ]
b1010000000000000011101111 W"
b1010000000000000011101111 \"
b10000 >
b10000 z
b10000 T"
b10000 w"
b1100 B
b1100 {
b1100 U"
b1100 ["
b1100 {"
1!
#40000
0!
#45000
0s
0V
b10 v
b10 '"
b10 @"
1g
1<
0t
0W
b10 w
b10 &"
b10 )"
10
b1100 r
b1100 !"
b1100 /"
b11100 ;
b11100 y"
b11100 ~"
b10100010000001110010011 \
b10100010000001110010011 V"
b10100010000001110010011 Z"
b11100 F
b11100 x"
b11100 z"
b0 ^
b0 I"
b0 ]"
b0 )
b0 >"
b0 E"
b0 ##
b1 +
b1 ="
b1 D"
b1 "#
b10 8
b10 C"
b110011 E
b110011 ("
b100010 D
b100010 ~
b100010 %"
b100010 0"
b0 &
b0 |
b0 j"
b1000 '
b1000 }
b1000 m"
b1000 ?
b1000 p"
b1000 }"
b1010 #
b1010 a"
b1010 f"
b1010 $#
b1010 *#
b10100 >
b10100 z
b10100 T"
b10100 w"
b10000 B
b10000 {
b10000 U"
b10000 ["
b10000 {"
b10000 =
b10000 Y"
b1100 @
b1100 H"
b1100 X"
b1000000100110011 ]
b1000000100110011 W"
b1000000100110011 \"
1u
1X
b100 x
b100 $"
b100 J"
0o
b1 9
b1 2"
b1 ?"
b1 O"
b1000 A
b1000 N"
b1000 k"
b1000 n"
b110 7
b110 5"
b110 7"
b110 r"
b10100 q
b10100 ,"
b10100 3"
b10100 ^"
b10100 c"
b10100 q"
b101 6
b101 8"
b101 u"
b101 !#
1-
b1010 p
b1010 t"
b1010 (#
1!
#50000
0!
#55000
0g
0<
b0 v
b0 '"
b0 @"
0/
b100000 F
b100000 x"
b100000 z"
b0 r
b0 !"
b0 /"
b0 w
b0 &"
b0 )"
00
b10100 #
b10100 a"
b10100 f"
b10100 $#
b10100 *#
b0 ;
b0 y"
b0 ~"
b0 '
b0 }
b0 m"
b0 ?
b0 p"
b0 }"
b10011 D
b10011 ~
b10011 %"
b10011 0"
b0 +
b0 ="
b0 D"
b0 "#
b0 8
b0 C"
b0 E
b0 ("
b11000101000010100110011 \
b11000101000010100110011 V"
b11000101000010100110011 Z"
b110 6
b110 8"
b110 u"
b110 !#
b10100 p
b10100 t"
b10100 (#
b100010 C
b100010 +"
b100010 4"
b1 7
b1 5"
b1 7"
b1 r"
b1100 q
b1100 ,"
b1100 3"
b1100 ^"
b1100 c"
b1100 q"
0u
b0 _
b0 M"
b0 h"
b0 |"
b0 9
b0 2"
b0 ?"
b0 O"
b0 *
b0 9"
b0 S"
b0 A
b0 N"
b0 k"
b0 n"
0X
b0 x
b0 $"
b0 J"
01
b0 =
b0 Y"
b0 @
b0 H"
b0 X"
b0 ]
b0 W"
b0 \"
b100000 >
b100000 z
b100000 T"
b100000 w"
b11100 B
b11100 {
b11100 U"
b11100 ["
b11100 {"
1!
#60000
0!
#65000
b10 v
b10 '"
b10 @"
1/
b10100 2
b10100 F"
b10100 %#
b1010 4
b1010 G"
b1010 &#
b10 w
b10 &"
b10 )"
10
b1000000001100111 \
b1000000001100111 V"
b1000000001100111 Z"
b100100 F
b100100 x"
b100100 z"
b110 )
b110 >"
b110 E"
b110 ##
b101 +
b101 ="
b101 D"
b101 "#
b1010 8
b1010 C"
b110011 E
b110011 ("
b1100 #
b1100 a"
b1100 f"
b1100 $#
b1100 *#
b100100 >
b100100 z
b100100 T"
b100100 w"
b100000 B
b100000 {
b100000 U"
b100000 ["
b100000 {"
b100000 =
b100000 Y"
b11100 @
b11100 H"
b11100 X"
b11000101000010100110011 ]
b11000101000010100110011 W"
b11000101000010100110011 \"
b10011 C
b10011 +"
b10011 4"
0.
b0 7
b0 5"
b0 7"
b0 r"
b0 q
b0 ,"
b0 3"
b0 ^"
b0 c"
b0 q"
b1 6
b1 8"
b1 u"
b1 !#
b1100 p
b1100 t"
b1100 (#
1!
#70000
0!
#75000
1s
1Y
1V
b101 v
b101 '"
b101 @"
1m
b11110 r
b11110 !"
b11110 /"
b10100 &
b10100 |
b10100 j"
b1010 '
b1010 }
b1010 m"
b11100 ;
b11100 y"
b11100 ~"
b0 2
b0 F"
b0 %#
b1100 4
b1100 G"
b1100 &#
1t
1Z
1W
1n
b101 w
b101 &"
b101 )"
10
b0 #
b0 a"
b0 f"
b0 $#
b0 *#
b1 D
b1 ~
b1 %"
b1 0"
b10100 %
b10100 1"
b10100 g"
b10100 i"
b1010 (
b1010 b"
b1010 l"
b11100 ?
b11100 p"
b11100 }"
b0 )
b0 >"
b0 E"
b0 ##
b1 +
b1 ="
b1 D"
b1 "#
b0 8
b0 C"
b1100111 E
b1100111 ("
bx \
bx V"
bx Z"
b101000 F
b101000 x"
b101000 z"
b0 6
b0 8"
b0 u"
b0 !#
0-
b0 p
b0 t"
b0 (#
b10 x
b10 $"
b10 J"
11
b10100 3
b10100 Q"
b10100 e"
b1010 5
b1010 P"
b1010 `"
b1010 o"
b1010 9
b1010 2"
b1010 ?"
b1010 O"
b110 *
b110 9"
b110 S"
b101 ,
b101 :"
b101 R"
b11100 A
b11100 N"
b11100 k"
b11100 n"
b100100 =
b100100 Y"
b100000 @
b100000 H"
b100000 X"
b1000000001100111 ]
b1000000001100111 W"
b1000000001100111 \"
b101000 >
b101000 z
b101000 T"
b101000 w"
b100100 B
b100100 {
b100100 U"
b100100 ["
b100100 {"
1!
#80000
0!
#85000
0s
0Y
0V
b0 v
b0 '"
b0 @"
0m
0/
1g
1<
bx 2
bx F"
bx %#
bx 4
bx G"
bx &#
0t
0Z
0W
b0 w
b0 &"
b0 )"
0n
00
b100100 r
b100100 !"
b100100 /"
b1100 ;
b1100 y"
b1100 ~"
b1100 F
b1100 x"
b1100 z"
bx a
bx B"
bx )
bx >"
bx E"
bx ##
bx +
bx ="
bx D"
bx "#
bx c
bx A"
bx 8
bx C"
bx E
bx ("
b100011 D
b100011 ~
b100011 %"
b100011 0"
b0 &
b0 |
b0 j"
b100000 '
b100000 }
b100000 m"
b1100 ?
b1100 p"
b1100 }"
b1100 (
b1100 b"
b1100 l"
b0 %
b0 1"
b0 g"
b0 i"
b101100 >
b101100 z
b101100 T"
b101100 w"
b101000 B
b101000 {
b101000 U"
b101000 ["
b101000 {"
b101000 =
b101000 Y"
b100100 @
b100100 H"
b100100 X"
bx ]
bx W"
bx \"
1u
1[
1X
b101 x
b101 $"
b101 J"
1o
b0 3
b0 Q"
b0 e"
b1100 5
b1100 P"
b1100 `"
b1100 o"
b0 9
b0 2"
b0 ?"
b0 O"
b0 *
b0 9"
b0 S"
b1 ,
b1 :"
b1 R"
b100000 A
b100000 N"
b100000 k"
b100000 n"
b1 C
b1 +"
b1 4"
1.
b1010 7
b1010 5"
b1010 7"
b1010 r"
b10100 $
b10100 *"
b10100 6"
b11110 q
b11110 ,"
b11110 3"
b11110 ^"
b11110 c"
b11110 q"
1!
#90000
0!
#95000
b10000 F
b10000 x"
b10000 z"
0g
0<
b0 ;
b0 y"
b0 ~"
b0 r
b0 !"
b0 /"
b0 2
b0 F"
b0 %#
b0 4
b0 G"
b0 &#
b11110 #
b11110 a"
b11110 f"
b11110 $#
b11110 *#
b0 (
b0 b"
b0 l"
b0 '
b0 }
b0 m"
b0 ?
b0 p"
b0 }"
b10011 D
b10011 ~
b10011 %"
b10011 0"
b0 a
b0 B"
b0 )
b0 >"
b0 E"
b0 ##
b0 +
b0 ="
b0 D"
b0 "#
b0 c
b0 A"
b0 8
b0 C"
b0 E
b0 ("
b1000000100110011 \
b1000000100110011 V"
b1000000100110011 Z"
b1010 6
b1010 8"
b1010 u"
b1010 !#
1-
b11110 p
b11110 t"
b11110 (#
b100011 C
b100011 +"
b100011 4"
b0 7
b0 5"
b0 7"
b0 r"
b0 $
b0 *"
b0 6"
b100100 q
b100100 ,"
b100100 3"
b100100 ^"
b100100 c"
b100100 q"
0u
0[
b0 5
b0 P"
b0 `"
b0 o"
b0 ,
b0 :"
b0 R"
b0 A
b0 N"
b0 k"
b0 n"
0X
b0 x
b0 $"
b0 J"
0o
01
b0 =
b0 Y"
b0 @
b0 H"
b0 X"
b0 ]
b0 W"
b0 \"
b10000 >
b10000 z
b10000 T"
b10000 w"
b1100 B
b1100 {
b1100 U"
b1100 ["
b1100 {"
1!
#100000
0!
#105000
b10 v
b10 '"
b10 @"
1/
b1100 4
b1100 G"
b1100 &#
b10 w
b10 &"
b10 )"
10
b10100010000001110010011 \
b10100010000001110010011 V"
b10100010000001110010011 Z"
b10100 F
b10100 x"
b10100 z"
b1 +
b1 ="
b1 D"
b1 "#
b10 8
b10 C"
b110011 E
b110011 ("
b100100 #
b100100 a"
b100100 f"
b100100 $#
b100100 *#
b10100 >
b10100 z
b10100 T"
b10100 w"
b10000 B
b10000 {
b10000 U"
b10000 ["
b10000 {"
b10000 =
b10000 Y"
b1100 @
b1100 H"
b1100 X"
b1000000100110011 ]
b1000000100110011 W"
b1000000100110011 \"
b10011 C
b10011 +"
b10011 4"
0.
b0 q
b0 ,"
b0 3"
b0 ^"
b0 c"
b0 q"
b0 6
b0 8"
b0 u"
b0 !#
b100100 p
b100100 t"
b100100 (#
1!
#110000
0!
#115000
b11 v
b11 '"
b11 @"
1m
b1100 r
b1100 !"
b1100 /"
b1100 '
b1100 }
b1100 m"
b1100 ;
b1100 y"
b1100 ~"
b1010 2
b1010 F"
b1010 %#
b0 4
b0 G"
b0 &#
1n
b11 w
b11 &"
b11 )"
10
b0 #
b0 a"
b0 f"
b0 $#
b0 *#
b1 D
b1 ~
b1 %"
b1 0"
b1100 (
b1100 b"
b1100 l"
b1100 ?
b1100 p"
b1100 }"
b101 ^
b101 I"
b101 ]"
b101 )
b101 >"
b101 E"
b101 ##
b10 +
b10 ="
b10 D"
b10 "#
b111 8
b111 C"
b10011 E
b10011 ("
b100111000000010010011 \
b100111000000010010011 V"
b100111000000010010011 Z"
b11000 F
b11000 x"
b11000 z"
0-
b0 p
b0 t"
b0 (#
b10 x
b10 $"
b10 J"
11
b1100 5
b1100 P"
b1100 `"
b1100 o"
b10 9
b10 2"
b10 ?"
b10 O"
b1 ,
b1 :"
b1 R"
b1100 A
b1100 N"
b1100 k"
b1100 n"
b10100 =
b10100 Y"
b10000 @
b10000 H"
b10000 X"
b10100010000001110010011 ]
b10100010000001110010011 W"
b10100010000001110010011 \"
b11000 >
b11000 z
b11000 T"
b11000 w"
b10100 B
b10100 {
b10100 U"
b10100 ["
b10100 {"
1!
#120000
0!
