processor/scripts/riscv_core.vcd
$date
	Thu Apr  2 23:25:47 2026
$end
$version
	Icarus Verilog
$end
$timescale
	1ps
$end
$scope module tb_risc $end
$var reg 1 ! clk $end
$var reg 1 " rst $end
$scope module uut $end
$var wire 1 ! clk $end
$var wire 1 " rst $end
$var wire 32 # write_data_wb [31:0] $end
$var wire 32 $ write_data_mem [31:0] $end
$var wire 32 % src2_forwarded [31:0] $end
$var wire 32 & src2 [31:0] $end
$var wire 32 ' src1 [31:0] $end
$var wire 5 ( rs2_id [4:0] $end
$var wire 5 ) rs2_ex [4:0] $end
$var wire 5 * rs1_id [4:0] $end
$var wire 5 + rs1_ex [4:0] $end
$var wire 1 , reg_write_wb $end
$var wire 1 - reg_write_mem $end
$var wire 1 . reg_write_id_mux $end
$var wire 1 / reg_write_id $end
$var wire 1 0 reg_write_ex $end
$var wire 32 1 read_data_2_id [31:0] $end
$var wire 32 2 read_data_2_ex [31:0] $end
$var wire 32 3 read_data_1_id [31:0] $end
$var wire 32 4 read_data_1_ex [31:0] $end
$var wire 5 5 rd_wb [4:0] $end
$var wire 5 6 rd_mem [4:0] $end
$var wire 5 7 rd_id [4:0] $end
$var wire 5 8 rd_ex [4:0] $end
$var wire 1 9 pc_write $end
$var wire 32 : pc_target [31:0] $end
$var wire 1 ; pc_src $end
$var wire 32 < pc_plus_4_id [31:0] $end
$var wire 32 = pc_plus_4 [31:0] $end
$var wire 32 > pc_id [31:0] $end
$var wire 32 ? pc_ex [31:0] $end
$var wire 32 @ pc [31:0] $end
$var wire 6 A operation [5:0] $end
$var wire 7 B opcode_id [6:0] $end
$var wire 32 C next_pc [31:0] $end
$var wire 1 D mem_write_mem $end
$var wire 1 E mem_write_id_mux $end
$var wire 1 F mem_write_id $end
$var wire 1 G mem_write_ex $end
$var wire 1 H mem_to_reg_wb $end
$var wire 1 I mem_to_reg_mem $end
$var wire 1 J mem_to_reg_id_mux $end
$var wire 1 K mem_to_reg_id $end
$var wire 1 L mem_to_reg_ex $end
$var wire 32 M mem_result_wb [31:0] $end
$var wire 32 N mem_result_mem [31:0] $end
$var wire 1 O mem_read_mem $end
$var wire 1 P mem_read_id_mux $end
$var wire 1 Q mem_read_id $end
$var wire 1 R mem_read_ex $end
$var wire 1 S jump_id_mux $end
$var wire 1 T jump_id $end
$var wire 1 U jump_ex $end
$var wire 32 V instruction_code_if [31:0] $end
$var wire 32 W instruction_code_id [31:0] $end
$var wire 32 X imm_val_id [31:0] $end
$var wire 32 Y imm_val_ex [31:0] $end
$var wire 1 Z if_id_write $end
$var wire 1 [ id_ex_write $end
$var wire 7 \ funct7_id [6:0] $end
$var wire 7 ] funct7_ex [6:0] $end
$var wire 3 ^ funct3_id [2:0] $end
$var wire 3 _ funct3_ex [2:0] $end
$var wire 2 ` forwardB [1:0] $end
$var wire 2 a forwardA [1:0] $end
$var wire 1 b flush $end
$var wire 1 c control_mux_sel_id $end
$var wire 1 d branch_id_mux $end
$var wire 1 e branch_id $end
$var wire 1 f branch_ex $end
$var wire 1 g branch_condn_ex $end
$var wire 1 h alu_src_id_mux $end
$var wire 1 i alu_src_id $end
$var wire 1 j alu_src_ex $end
$var wire 32 k alu_result_wb [31:0] $end
$var wire 32 l alu_result_mem [31:0] $end
$var wire 32 m alu_result_ex [31:0] $end
$var wire 3 n alu_op_id_mux [2:0] $end
$var wire 3 o alu_op_id [2:0] $end
$var wire 3 p alu_op_ex [2:0] $end
$scope module add_if $end
$var wire 32 q pc_plus_4 [31:0] $end
$var wire 32 r pc [31:0] $end
$upscope $end
$scope module alu1 $end
$var wire 32 s src2 [31:0] $end
$var wire 32 t src1 [31:0] $end
$var wire 6 u operation [5:0] $end
$var reg 32 v alu_result [31:0] $end
$var reg 1 g branch_condn $end
$upscope $end
$scope module alu_ctrl $end
$var wire 7 w func7 [6:0] $end
$var wire 3 x func3 [2:0] $end
$var wire 3 y alu_op [2:0] $end
$var reg 6 z operation [5:0] $end
$upscope $end
$scope module bd $end
$var wire 1 g branch_condn_ex $end
$var wire 1 b flush $end
$var wire 1 ; pc_src $end
$var wire 1 U jump_ex $end
$var wire 1 f branch_ex $end
$upscope $end
$scope module cmux $end
$var wire 1 / regWrite $end
$var wire 1 F memWrite $end
$var wire 1 K memToReg $end
$var wire 1 Q memRead $end
$var wire 1 T jump $end
$var wire 1 c control_mux_sel $end
$var wire 1 e branch $end
$var wire 1 i aluSrc $end
$var wire 3 { aluOp [2:0] $end
$var reg 3 | aluOp_mux_out [2:0] $end
$var reg 1 h aluSrc_mux_out $end
$var reg 1 d branch_mux_out $end
$var reg 1 S jump_mux_out $end
$var reg 1 P memRead_mux_out $end
$var reg 1 J memToReg_mux_out $end
$var reg 1 E memWrite_mux_out $end
$var reg 1 . regWrite_mux_out $end
$upscope $end
$scope module ctrl $end
$var wire 7 } opcode [6:0] $end
$var reg 3 ~ aluOp [2:0] $end
$var reg 1 i aluSrc $end
$var reg 1 e branch $end
$var reg 1 T jump $end
$var reg 1 Q memRead $end
$var reg 1 K memToReg $end
$var reg 1 F memWrite $end
$var reg 1 / regWrite $end
$upscope $end
$scope module dmem $end
$var wire 1 ! clk $end
$var wire 1 " rst $end
$var wire 32 !" w_data [31:0] $end
$var wire 32 "" r_data [31:0] $end
$var wire 1 D mem_write $end
$var wire 1 O mem_read $end
$var wire 32 #" addr [31:0] $end
$var integer 32 $" i [31:0] $end
$upscope $end
$scope module ex_mem1 $end
$var wire 32 %" alu_result_in [31:0] $end
$var wire 1 ! clk $end
$var wire 1 " rst $end
$var wire 32 &" write_data_in [31:0] $end
$var wire 1 0 reg_write_in $end
$var wire 5 '" rd_in [4:0] $end
$var wire 1 G mem_write_in $end
$var wire 1 L mem_to_reg_in $end
$var wire 1 R mem_read_in $end
$var reg 32 (" alu_result_out [31:0] $end
$var reg 1 O mem_read_out $end
$var reg 1 I mem_to_reg_out $end
$var reg 1 D mem_write_out $end
$var reg 5 )" rd_out [4:0] $end
$var reg 1 - reg_write_out $end
$var reg 32 *" write_data_out [31:0] $end
$upscope $end
$scope module fwd $end
$var wire 5 +" ex_mem_rd [4:0] $end
$var wire 1 - ex_mem_reg_write $end
$var wire 1 , mem_wb_reg_write $end
$var wire 5 ," mem_wb_rd [4:0] $end
$var wire 5 -" id_ex_rs2 [4:0] $end
$var wire 5 ." id_ex_rs1 [4:0] $end
$var reg 2 /" forward_A [1:0] $end
$var reg 2 0" forward_B [1:0] $end
$upscope $end
$scope module hz $end
$var wire 5 1" rs1_id [4:0] $end
$var wire 5 2" rs2_id [4:0] $end
$var wire 5 3" rd_ex [4:0] $end
$var wire 1 R MemRead_ex $end
$var reg 1 [ ID_EX_write $end
$var reg 1 Z IF_ID_write $end
$var reg 1 9 PC_Write $end
$var reg 1 c control_mux_sel $end
$upscope $end
$scope module id_ex1 $end
$var wire 3 4" aluOp_id [2:0] $end
$var wire 1 h aluSrc_id $end
$var wire 1 d branch_id $end
$var wire 1 ! clk $end
$var wire 1 b flush $end
$var wire 3 5" funct3_id [2:0] $end
$var wire 7 6" funct7_id [6:0] $end
$var wire 1 7" id_ex_write $end
$var wire 1 S jump_id $end
$var wire 1 P memRead_id $end
$var wire 1 J memToReg_id $end
$var wire 1 E memWrite_id $end
$var wire 5 8" rd_id [4:0] $end
$var wire 1 . regWrite_id $end
$var wire 5 9" rs1_id [4:0] $end
$var wire 5 :" rs2_id [4:0] $end
$var wire 1 " rst $end
$var wire 1 c stall $end
$var wire 32 ;" read_data2_id [31:0] $end
$var wire 32 <" read_data1_id [31:0] $end
$var wire 32 =" pc_id [31:0] $end
$var wire 32 >" imm_val_id [31:0] $end
$var reg 3 ?" aluOp_ex [2:0] $end
$var reg 1 j aluSrc_ex $end
$var reg 1 f branch_ex $end
$var reg 3 @" funct3_ex [2:0] $end
$var reg 7 A" funct7_ex [6:0] $end
$var reg 32 B" imm_val_ex [31:0] $end
$var reg 1 U jump_ex $end
$var reg 1 R memRead_ex $end
$var reg 1 L memToReg_ex $end
$var reg 1 G memWrite_ex $end
$var reg 32 C" pc_ex [31:0] $end
$var reg 5 D" rd_ex [4:0] $end
$var reg 32 E" read_data1_ex [31:0] $end
$var reg 32 F" read_data2_ex [31:0] $end
$var reg 1 0 regWrite_ex $end
$var reg 5 G" rs1_ex [4:0] $end
$var reg 5 H" rs2_ex [4:0] $end
$upscope $end
$scope module if_id_reg $end
$var wire 1 Z IF_ID_write $end
$var wire 1 b IF_flush $end
$var wire 32 I" IF_pcplus4 [31:0] $end
$var wire 1 ! clk $end
$var wire 1 " rst $end
$var wire 32 J" IF_pc [31:0] $end
$var wire 32 K" IF_instr [31:0] $end
$var reg 32 L" Instr_ID [31:0] $end
$var reg 32 M" pc_ID [31:0] $end
$var reg 32 N" pc_plus_4_ID [31:0] $end
$upscope $end
$scope module imem_if $end
$var wire 32 O" instruction_code [31:0] $end
$var wire 32 P" pc [31:0] $end
$upscope $end
$scope module imm1 $end
$var wire 32 Q" instruction [31:0] $end
$var reg 32 R" imm_val [31:0] $end
$upscope $end
$scope module m1 $end
$var wire 32 S" alu_result [31:0] $end
$var wire 2 T" forward_A [1:0] $end
$var wire 32 U" rd1 [31:0] $end
$var wire 32 V" mem_result [31:0] $end
$var reg 32 W" src1 [31:0] $end
$upscope $end
$scope module m2 $end
$var wire 32 X" alu_result [31:0] $end
$var wire 2 Y" forward_B [1:0] $end
$var wire 32 Z" rd2 [31:0] $end
$var wire 32 [" mem_result [31:0] $end
$var reg 32 \" src2 [31:0] $end
$upscope $end
$scope module m3 $end
$var wire 1 j alu_src $end
$var wire 32 ]" imm [31:0] $end
$var wire 32 ^" src2_in [31:0] $end
$var reg 32 _" src2 [31:0] $end
$upscope $end
$scope module mem_wb1 $end
$var wire 32 `" alu_result_mem [31:0] $end
$var wire 1 ! clk $end
$var wire 1 I mem_to_reg_mem $end
$var wire 5 a" rd_mem [4:0] $end
$var wire 32 b" read_data_mem [31:0] $end
$var wire 1 - reg_write_mem $end
$var wire 1 " rst $end
$var reg 32 c" alu_result_wb [31:0] $end
$var reg 1 H mem_to_reg_wb $end
$var reg 5 d" rd_wb [4:0] $end
$var reg 32 e" read_data_wb [31:0] $end
$var reg 1 , reg_write_wb $end
$upscope $end
$scope module mux_if $end
$var wire 1 ; PCSrc $end
$var wire 32 f" pc_plus_4 [31:0] $end
$var wire 32 g" next_pc [31:0] $end
$var wire 32 h" PCTarget [31:0] $end
$upscope $end
$scope module pc_if $end
$var wire 1 ! clk $end
$var wire 32 i" next_pc [31:0] $end
$var wire 1 9 pc_write $end
$var wire 1 " rst $end
$var reg 32 j" pc [31:0] $end
$upscope $end
$scope module pco $end
$var wire 32 k" imm [31:0] $end
$var wire 32 l" pc [31:0] $end
$var reg 32 m" pc_offset_out [31:0] $end
$upscope $end
$scope module rf $end
$var wire 1 ! clk $end
$var wire 5 n" rd [4:0] $end
$var wire 1 , reg_write $end
$var wire 5 o" rs1 [4:0] $end
$var wire 5 p" rs2 [4:0] $end
$var wire 1 " rst $end
$var wire 32 q" write_data [31:0] $end
$var wire 32 r" read_data2 [31:0] $end
$var wire 32 s" read_data1 [31:0] $end
$var integer 32 t" i [31:0] $end
$upscope $end
$scope module wb_mux $end
$var wire 32 u" alu_result [31:0] $end
$var wire 1 H mem_to_reg $end
$var wire 32 v" r_data [31:0] $end
$var wire 32 w" data_out [31:0] $end
$upscope $end
$upscope $end
$upscope $end
$enddefinitions $end
$comment Show the parameter values. $end
$dumpall
$end
#0
$dumpvars
bx w"
bx v"
bx u"
bx t"
bx s"
bx r"
bx q"
bx p"
bx o"
bx n"
bx m"
bx l"
bx k"
bx j"
bx i"
bx h"
bx g"
bx f"
bx e"
bx d"
bx c"
bx b"
bx a"
bx `"
bx _"
bx ^"
bx ]"
bx \"
bx ["
bx Z"
bx Y"
bx X"
bx W"
bx V"
bx U"
bx T"
bx S"
bx R"
bx Q"
bx P"
bx O"
bx N"
bx M"
bx L"
bx K"
bx J"
bx I"
bx H"
bx G"
bx F"
bx E"
bx D"
bx C"
bx B"
bx A"
bx @"
bx ?"
bx >"
bx ="
bx <"
bx ;"
bx :"
bx 9"
bx 8"
z7"
bx 6"
bx 5"
bx 4"
bx 3"
bx 2"
bx 1"
bx 0"
bx /"
bx ."
bx -"
bx ,"
bx +"
bx *"
bx )"
bx ("
bx '"
bx &"
bx %"
bx $"
bx #"
bx ""
bx !"
bx ~
bx }
bx |
bx {
bx z
bx y
bx x
bx w
bx v
bx u
bx t
bx s
bx r
bx q
bx p
bx o
bx n
bx m
bx l
bx k
xj
xi
xh
xg
xf
xe
xd
xc
xb
bx a
bx `
bx _
bx ^
bx ]
bx \
x[
xZ
bx Y
bx X
bx W
bx V
xU
xT
xS
xR
xQ
xP
xO
bx N
bx M
xL
xK
xJ
xI
xH
xG
xF
xE
xD
bx C
bx B
bx A
bx @
bx ?
bx >
bx =
bx <
x;
bx :
x9
bx 8
bx 7
bx 6
bx 5
bx 4
bx 3
bx 2
bx 1
x0
x/
x.
x-
x,
bx +
bx *
bx )
bx (
bx '
bx &
bx %
bx $
bx #
1"
0!
$end
#5000
0S
0J
0P
0E
0d
b0 n
b0 |
b0 4"
0h
0.
0b
0;
b0 1
b0 ;"
b0 r"
b0 3
b0 <"
b0 s"
0T
0K
0Q
0F
0e
b0 o
b0 {
b0 ~
0i
0/
b0 m
b0 v
b0 %"
0g
b101000000000000010010011 V
b101000000000000010010011 K"
b101000000000000010010011 O"
b100 C
b100 g"
b100 i"
b0 X
b0 >"
b0 R"
b0 \
b0 6"
b0 (
b0 2"
b0 :"
b0 p"
b0 *
b0 1"
b0 9"
b0 o"
b0 ^
b0 5"
b0 7
b0 8"
b0 B
b0 }
b1 A
b1 u
b1 z
b0 &
b0 s
b0 _"
0c
1[
1Z
19
b0 :
b0 h"
b0 m"
b0 N
b0 ""
b0 b"
b0 '
b0 t
b0 W"
b0 %
b0 &"
b0 \"
b0 ^"
b0 `
b0 0"
b0 Y"
b0 a
b0 /"
b0 T"
b0 #
b0 V"
b0 ["
b0 q"
b0 w"
b100 =
b100 q
b100 I"
b100 f"
b0 @
b0 r
b0 J"
b0 P"
b0 j"
b0 <
b0 N"
b0 >
b0 ="
b0 M"
b0 W
b0 L"
b0 Q"
0U
0L
0R
0G
0f
b0 p
b0 y
b0 ?"
0j
00
b0 ]
b0 w
b0 A"
b0 _
b0 x
b0 @"
b0 Y
b0 B"
b0 ]"
b0 k"
b0 2
b0 F"
b0 Z"
b0 4
b0 E"
b0 U"
b0 8
b0 '"
b0 3"
b0 D"
b0 )
b0 -"
b0 H"
b0 +
b0 ."
b0 G"
b0 ?
b0 C"
b0 l"
0-
0I
0D
0O
b0 6
b0 )"
b0 +"
b0 a"
b0 $
b0 !"
b0 *"
b0 l
b0 #"
b0 ("
b0 S"
b0 X"
b0 `"
b0 5
b0 ,"
b0 d"
b0 n"
0H
0,
b0 M
b0 e"
b0 v"
b0 k
b0 c"
b0 u"
b100000 t"
b1000000000000 $"
1!
#10000
0!
0"
#15000
b11 n
b11 |
b11 4"
1h
1.
b11 o
b11 {
b11 ~
1i
1/
b1010 X
b1010 >"
b1010 R"
b1010 (
b1010 2"
b1010 :"
b1010 p"
b1 7
b1 8"
b10011 B
b10011 }
b110001100000000000100010011 V
b110001100000000000100010011 K"
b110001100000000000100010011 O"
b1000 C
b1000 g"
b1000 i"
b100 <
b100 N"
b101000000000000010010011 W
b101000000000000010010011 L"
b101000000000000010010011 Q"
b1000 =
b1000 q
b1000 I"
b1000 f"
b100 @
b100 r
b100 J"
b100 P"
b100 j"
1!
#20000
0!
#25000
b1010 m
b1010 v
b1010 %"
b1000001010000000100011 V
b1000001010000000100011 K"
b1000001010000000100011 O"
b1100 C
b1100 g"
b1100 i"
b1100011 X
b1100011 >"
b1100011 R"
b11 \
b11 6"
b11 (
b11 2"
b11 :"
b11 p"
b10 7
b10 8"
b1011 A
b1011 u
b1011 z
b1010 &
b1010 s
b1010 _"
b1010 :
b1010 h"
b1010 m"
b1100 =
b1100 q
b1100 I"
b1100 f"
b1000 @
b1000 r
b1000 J"
b1000 P"
b1000 j"
b1000 <
b1000 N"
b100 >
b100 ="
b100 M"
b110001100000000000100010011 W
b110001100000000000100010011 L"
b110001100000000000100010011 Q"
b11 p
b11 y
b11 ?"
1j
10
b1010 Y
b1010 B"
b1010 ]"
b1010 k"
b1 8
b1 '"
b1 3"
b1 D"
b1010 )
b1010 -"
b1010 H"
1!
#30000
0!
#35000
1E
b0 n
b0 |
b0 4"
0.
b1100011 m
b1100011 v
b1100011 %"
1F
b0 o
b0 {
b0 ~
0/
b1011 A
b1011 u
b1011 z
b1100011 &
b1100011 s
b1100011 _"
b1100111 :
b1100111 h"
b1100111 m"
b0 X
b0 >"
b0 R"
b0 \
b0 6"
b10 (
b10 2"
b10 :"
b10 p"
b1 *
b1 1"
b1 9"
b1 o"
b10 ^
b10 5"
b0 7
b0 8"
b100011 B
b100011 }
b1010000110000011 V
b1010000110000011 K"
b1010000110000011 O"
b10000 C
b10000 g"
b10000 i"
1-
b1 6
b1 )"
b1 +"
b1 a"
b1010 l
b1010 #"
b1010 ("
b1010 S"
b1010 X"
b1010 `"
b11 ]
b11 w
b11 A"
b1100011 Y
b1100011 B"
b1100011 ]"
b1100011 k"
b10 8
b10 '"
b10 3"
b10 D"
b11 )
b11 -"
b11 H"
b100 ?
b100 C"
b100 l"
b1100 <
b1100 N"
b1000 >
b1000 ="
b1000 M"
b1000001010000000100011 W
b1000001010000000100011 L"
b1000001010000000100011 Q"
b10000 =
b10000 q
b10000 I"
b10000 f"
b1100 @
b1100 r
b1100 J"
b1100 P"
b1100 j"
1!
#40000
0!
#45000
1J
1P
0E
1.
1K
1Q
0F
1/
b1010 m
b1010 v
b1010 %"
bx V
bx K"
bx O"
b10100 C
b10100 g"
b10100 i"
b0 (
b0 2"
b0 :"
b0 p"
b11 7
b11 8"
b11 B
b11 }
b1 A
b1 u
b1 z
b0 &
b0 s
b0 _"
b1000 :
b1000 h"
b1000 m"
b1010 '
b1010 t
b1010 W"
b1100011 %
b1100011 &"
b1100011 \"
b1100011 ^"
b1 `
b1 0"
b1 Y"
b10 a
b10 /"
b10 T"
b1010 #
b1010 V"
b1010 ["
b1010 q"
b1010 w"
b10100 =
b10100 q
b10100 I"
b10100 f"
b10000 @
b10000 r
b10000 J"
b10000 P"
b10000 j"
b10000 <
b10000 N"
b1100 >
b1100 ="
b1100 M"
b1010000110000011 W
b1010000110000011 L"
b1010000110000011 Q"
1G
b0 p
b0 y
b0 ?"
00
b0 ]
b0 w
b0 A"
b10 _
b10 x
b10 @"
b0 Y
b0 B"
b0 ]"
b0 k"
b0 8
b0 '"
b0 3"
b0 D"
b10 )
b10 -"
b10 H"
b1 +
b1 ."
b1 G"
b1000 ?
b1000 C"
b1000 l"
b10 6
b10 )"
b10 +"
b10 a"
b1100011 l
b1100011 #"
b1100011 ("
b1100011 S"
b1100011 X"
b1100011 `"
b1 5
b1 ,"
b1 d"
b1 n"
1,
b1010 k
b1010 c"
b1010 u"
1!
#50000
0!
#55000
0J
0P
0h
0.
b0 m
b0 v
b0 %"
bx 1
bx ;"
bx r"
0K
0Q
0i
0/
b1100011 #
b1100011 V"
b1100011 ["
b1100011 q"
b1100011 w"
b0 '
b0 t
b0 W"
b0 %
b0 &"
b0 \"
b0 ^"
b0 `
b0 0"
b0 Y"
b0 a
b0 /"
b0 T"
b1100 :
b1100 h"
b1100 m"
bx 3
bx <"
bx s"
bx \
bx 6"
bx (
bx 2"
bx :"
bx p"
bx *
bx 1"
bx 9"
bx o"
bx ^
bx 5"
bx 7
bx 8"
bx B
bx }
b11000 C
b11000 g"
b11000 i"
b10 5
b10 ,"
b10 d"
b10 n"
b1100011 k
b1100011 c"
b1100011 u"
0-
1D
b0 6
b0 )"
b0 +"
b0 a"
b1100011 $
b1100011 !"
b1100011 *"
b1010 l
b1010 #"
b1010 ("
b1010 S"
b1010 X"
b1010 `"
1L
1R
0G
10
b11 8
b11 '"
b11 3"
b11 D"
b0 )
b0 -"
b0 H"
b1100 ?
b1100 C"
b1100 l"
b10100 <
b10100 N"
b10000 >
b10000 ="
b10000 M"
bx W
bx L"
bx Q"
b11000 =
b11000 q
b11000 I"
b11000 f"
b10100 @
b10100 r
b10100 J"
b10100 P"
b10100 j"
1!
#60000
0!
#65000
bx m
bx v
bx %"
b11100 C
b11100 g"
b11100 i"
bx &
bx s
bx _"
b10000 :
b10000 h"
b10000 m"
bx '
bx t
bx W"
bx %
bx &"
bx \"
bx ^"
b1010 #
b1010 V"
b1010 ["
b1010 q"
b1010 w"
b11100 =
b11100 q
b11100 I"
b11100 f"
b11000 @
b11000 r
b11000 J"
b11000 P"
b11000 j"
b11000 <
b11000 N"
b10100 >
b10100 ="
b10100 M"
0L
0R
0j
00
bx ]
bx w
bx A"
bx _
bx x
bx @"
bx 2
bx F"
bx Z"
bx 4
bx E"
bx U"
bx 8
bx '"
bx 3"
bx D"
bx )
bx -"
bx H"
bx +
bx ."
bx G"
b10000 ?
b10000 C"
b10000 l"
1-
1I
0D
1O
b11 6
b11 )"
b11 +"
b11 a"
b0 $
b0 !"
b0 *"
b0 l
b0 #"
b0 ("
b0 S"
b0 X"
b0 `"
b0 5
b0 ,"
b0 d"
b0 n"
0,
b1010 k
b1010 c"
b1010 u"
1!
#70000
0!
#75000
b0 #
b0 V"
b0 ["
b0 q"
b0 w"
b10100 :
b10100 h"
b10100 m"
b100000 C
b100000 g"
b100000 i"
b11 5
b11 ,"
b11 d"
b11 n"
1H
1,
b0 k
b0 c"
b0 u"
0-
0I
0O
bx 6
bx )"
bx +"
bx a"
bx $
bx !"
bx *"
bx l
bx #"
bx ("
bx S"
bx X"
bx `"
b10100 ?
b10100 C"
b10100 l"
b11100 <
b11100 N"
b11000 >
b11000 ="
b11000 M"
b100000 =
b100000 q
b100000 I"
b100000 f"
b11100 @
b11100 r
b11100 J"
b11100 P"
b11100 j"
1!
#80000
0!
#85000
bx #
bx V"
bx ["
bx q"
bx w"
b100100 C
b100100 g"
b100100 i"
b11000 :
b11000 h"
b11000 m"
b100100 =
b100100 q
b100100 I"
b100100 f"
b100000 @
b100000 r
b100000 J"
b100000 P"
b100000 j"
b100000 <
b100000 N"
b11100 >
b11100 ="
b11100 M"
b11000 ?
b11000 C"
b11000 l"
bx 5
bx ,"
bx d"
bx n"
0H
0,
bx k
bx c"
bx u"
1!
#90000
0!
#95000
b11100 :
b11100 h"
b11100 m"
b101000 C
b101000 g"
b101000 i"
b11100 ?
b11100 C"
b11100 l"
b100100 <
b100100 N"
b100000 >
b100000 ="
b100000 M"
b101000 =
b101000 q
b101000 I"
b101000 f"
b100100 @
b100100 r
b100100 J"
b100100 P"
b100100 j"
1!
#100000
0!
#105000
b101100 C
b101100 g"
b101100 i"
b100000 :
b100000 h"
b100000 m"
b101100 =
b101100 q
b101100 I"
b101100 f"
b101000 @
b101000 r
b101000 J"
b101000 P"
b101000 j"
b101000 <
b101000 N"
b100100 >
b100100 ="
b100100 M"
b100000 ?
b100000 C"
b100000 l"
1!
#110000
0!
#115000
b100100 :
b100100 h"
b100100 m"
b110000 C
b110000 g"
b110000 i"
b100100 ?
b100100 C"
b100100 l"
b101100 <
b101100 N"
b101000 >
b101000 ="
b101000 M"
b110000 =
b110000 q
b110000 I"
b110000 f"
b101100 @
b101100 r
b101100 J"
b101100 P"
b101100 j"
1!
#120000
0!
#125000
b110100 C
b110100 g"
b110100 i"
b101000 :
b101000 h"
b101000 m"
b110100 =
b110100 q
b110100 I"
b110100 f"
b110000 @
b110000 r
b110000 J"
b110000 P"
b110000 j"
b110000 <
b110000 N"
b101100 >
b101100 ="
b101100 M"
b101000 ?
b101000 C"
b101000 l"
1!
#130000
0!
#135000
b101100 :
b101100 h"
b101100 m"
b111000 C
b111000 g"
b111000 i"
b101100 ?
b101100 C"
b101100 l"
b110100 <
b110100 N"
b110000 >
b110000 ="
b110000 M"
b111000 =
b111000 q
b111000 I"
b111000 f"
b110100 @
b110100 r
b110100 J"
b110100 P"
b110100 j"
1!
#140000
0!
#145000
b111100 C
b111100 g"
b111100 i"
b110000 :
b110000 h"
b110000 m"
b111100 =
b111100 q
b111100 I"
b111100 f"
b111000 @
b111000 r
b111000 J"
b111000 P"
b111000 j"
b111000 <
b111000 N"
b110100 >
b110100 ="
b110100 M"
b110000 ?
b110000 C"
b110000 l"
1!
#150000
0!
#155000
b110100 :
b110100 h"
b110100 m"
b1000000 C
b1000000 g"
b1000000 i"
b110100 ?
b110100 C"
b110100 l"
b111100 <
b111100 N"
b111000 >
b111000 ="
b111000 M"
b1000000 =
b1000000 q
b1000000 I"
b1000000 f"
b111100 @
b111100 r
b111100 J"
b111100 P"
b111100 j"
1!
#160000
0!
#165000
b1000100 C
b1000100 g"
b1000100 i"
b111000 :
b111000 h"
b111000 m"
b1000100 =
b1000100 q
b1000100 I"
b1000100 f"
b1000000 @
b1000000 r
b1000000 J"
b1000000 P"
b1000000 j"
b1000000 <
b1000000 N"
b111100 >
b111100 ="
b111100 M"
b111000 ?
b111000 C"
b111000 l"
1!
#170000
0!
#175000
b111100 :
b111100 h"
b111100 m"
b1001000 C
b1001000 g"
b1001000 i"
b111100 ?
b111100 C"
b111100 l"
b1000100 <
b1000100 N"
b1000000 >
b1000000 ="
b1000000 M"
b1001000 =
b1001000 q
b1001000 I"
b1001000 f"
b1000100 @
b1000100 r
b1000100 J"
b1000100 P"
b1000100 j"
1!
#180000
0!
#185000
b1001100 C
b1001100 g"
b1001100 i"
b1000000 :
b1000000 h"
b1000000 m"
b1001100 =
b1001100 q
b1001100 I"
b1001100 f"
b1001000 @
b1001000 r
b1001000 J"
b1001000 P"
b1001000 j"
b1001000 <
b1001000 N"
b1000100 >
b1000100 ="
b1000100 M"
b1000000 ?
b1000000 C"
b1000000 l"
1!
#190000
0!
#195000
b1000100 :
b1000100 h"
b1000100 m"
b1010000 C
b1010000 g"
b1010000 i"
b1000100 ?
b1000100 C"
b1000100 l"
b1001100 <
b1001100 N"
b1001000 >
b1001000 ="
b1001000 M"
b1010000 =
b1010000 q
b1010000 I"
b1010000 f"
b1001100 @
b1001100 r
b1001100 J"
b1001100 P"
b1001100 j"
1!
#200000
0!
#205000
b1010100 C
b1010100 g"
b1010100 i"
b1001000 :
b1001000 h"
b1001000 m"
b1010100 =
b1010100 q
b1010100 I"
b1010100 f"
b1010000 @
b1010000 r
b1010000 J"
b1010000 P"
b1010000 j"
b1010000 <
b1010000 N"
b1001100 >
b1001100 ="
b1001100 M"
b1001000 ?
b1001000 C"
b1001000 l"
1!
#210000
0!
#215000
b1001100 :
b1001100 h"
b1001100 m"
b1011000 C
b1011000 g"
b1011000 i"
b1001100 ?
b1001100 C"
b1001100 l"
b1010100 <
b1010100 N"
b1010000 >
b1010000 ="
b1010000 M"
b1011000 =
b1011000 q
b1011000 I"
b1011000 f"
b1010100 @
b1010100 r
b1010100 J"
b1010100 P"
b1010100 j"
1!
#220000
0!
#225000
b1011100 C
b1011100 g"
b1011100 i"
b1010000 :
b1010000 h"
b1010000 m"
b1011100 =
b1011100 q
b1011100 I"
b1011100 f"
b1011000 @
b1011000 r
b1011000 J"
b1011000 P"
b1011000 j"
b1011000 <
b1011000 N"
b1010100 >
b1010100 ="
b1010100 M"
b1010000 ?
b1010000 C"
b1010000 l"
1!
#230000
0!
#235000
b1010100 :
b1010100 h"
b1010100 m"
b1100000 C
b1100000 g"
b1100000 i"
b1010100 ?
b1010100 C"
b1010100 l"
b1011100 <
b1011100 N"
b1011000 >
b1011000 ="
b1011000 M"
b1100000 =
b1100000 q
b1100000 I"
b1100000 f"
b1011100 @
b1011100 r
b1011100 J"
b1011100 P"
b1011100 j"
1!
#240000
0!
#245000
b1100100 C
b1100100 g"
b1100100 i"
b1011000 :
b1011000 h"
b1011000 m"
b1100100 =
b1100100 q
b1100100 I"
b1100100 f"
b1100000 @
b1100000 r
b1100000 J"
b1100000 P"
b1100000 j"
b1100000 <
b1100000 N"
b1011100 >
b1011100 ="
b1011100 M"
b1011000 ?
b1011000 C"
b1011000 l"
1!
#250000
0!
#255000
b1011100 :
b1011100 h"
b1011100 m"
b1101000 C
b1101000 g"
b1101000 i"
b1011100 ?
b1011100 C"
b1011100 l"
b1100100 <
b1100100 N"
b1100000 >
b1100000 ="
b1100000 M"
b1101000 =
b1101000 q
b1101000 I"
b1101000 f"
b1100100 @
b1100100 r
b1100100 J"
b1100100 P"
b1100100 j"
1!
#260000
0!
#265000
b1101100 C
b1101100 g"
b1101100 i"
b1100000 :
b1100000 h"
b1100000 m"
b1101100 =
b1101100 q
b1101100 I"
b1101100 f"
b1101000 @
b1101000 r
b1101000 J"
b1101000 P"
b1101000 j"
b1101000 <
b1101000 N"
b1100100 >
b1100100 ="
b1100100 M"
b1100000 ?
b1100000 C"
b1100000 l"
1!
#270000
0!
#275000
b1100100 :
b1100100 h"
b1100100 m"
b1110000 C
b1110000 g"
b1110000 i"
b1100100 ?
b1100100 C"
b1100100 l"
b1101100 <
b1101100 N"
b1101000 >
b1101000 ="
b1101000 M"
b1110000 =
b1110000 q
b1110000 I"
b1110000 f"
b1101100 @
b1101100 r
b1101100 J"
b1101100 P"
b1101100 j"
1!
#280000
0!
#285000
b1110100 C
b1110100 g"
b1110100 i"
b1101000 :
b1101000 h"
b1101000 m"
b1110100 =
b1110100 q
b1110100 I"
b1110100 f"
b1110000 @
b1110000 r
b1110000 J"
b1110000 P"
b1110000 j"
b1110000 <
b1110000 N"
b1101100 >
b1101100 ="
b1101100 M"
b1101000 ?
b1101000 C"
b1101000 l"
1!
#290000
0!
