processor/scripts/riscv_core.vcd
$date
	Sat Apr  4 20:09:35 2026
$end
$version
	Icarus Verilog
$end
$timescale
	1ps
$end
$scope module tb_risc $end
$var reg 1 ! clk $end
$var reg 1 " rst $end
$scope module uut $end
$var wire 1 ! clk $end
$var wire 1 " rst $end
$var wire 32 # write_data_wb [31:0] $end
$var wire 32 $ write_data_mem [31:0] $end
$var wire 32 % src2_forwarded [31:0] $end
$var wire 32 & src2 [31:0] $end
$var wire 32 ' src1 [31:0] $end
$var wire 5 ( rs2_id [4:0] $end
$var wire 5 ) rs2_ex [4:0] $end
$var wire 5 * rs1_id [4:0] $end
$var wire 5 + rs1_ex [4:0] $end
$var wire 2 , result_src_wb [1:0] $end
$var wire 2 - result_src_mem [1:0] $end
$var wire 2 . result_src_id_mux [1:0] $end
$var wire 2 / result_src_id [1:0] $end
$var wire 2 0 result_src_ex [1:0] $end
$var wire 1 1 reg_write_wb $end
$var wire 1 2 reg_write_mem $end
$var wire 1 3 reg_write_id_mux $end
$var wire 1 4 reg_write_id $end
$var wire 1 5 reg_write_ex $end
$var wire 32 6 read_data_2_id [31:0] $end
$var wire 32 7 read_data_2_ex [31:0] $end
$var wire 32 8 read_data_1_id [31:0] $end
$var wire 32 9 read_data_1_ex [31:0] $end
$var wire 5 : rd_wb [4:0] $end
$var wire 5 ; rd_mem [4:0] $end
$var wire 5 < rd_id [4:0] $end
$var wire 5 = rd_ex [4:0] $end
$var wire 1 > pc_write $end
$var wire 32 ? pc_target [31:0] $end
$var wire 1 @ pc_src $end
$var wire 32 A pc_plus_4_wb [31:0] $end
$var wire 32 B pc_plus_4_mem [31:0] $end
$var wire 32 C pc_plus_4_id [31:0] $end
$var wire 32 D pc_plus_4_ex [31:0] $end
$var wire 32 E pc_plus_4 [31:0] $end
$var wire 32 F pc_id [31:0] $end
$var wire 32 G pc_ex [31:0] $end
$var wire 32 H pc [31:0] $end
$var wire 6 I operation [5:0] $end
$var wire 7 J opcode_id [6:0] $end
$var wire 32 K next_pc [31:0] $end
$var wire 1 L mem_write_mem $end
$var wire 1 M mem_write_id_mux $end
$var wire 1 N mem_write_id $end
$var wire 1 O mem_write_ex $end
$var wire 1 P mem_to_reg_wb $end
$var wire 1 Q mem_to_reg_mem $end
$var wire 1 R mem_to_reg_id_mux $end
$var wire 1 S mem_to_reg_id $end
$var wire 1 T mem_to_reg_ex $end
$var wire 32 U mem_result_wb [31:0] $end
$var wire 32 V mem_result_mem [31:0] $end
$var wire 1 W mem_read_mem $end
$var wire 1 X mem_read_id_mux $end
$var wire 1 Y mem_read_id $end
$var wire 1 Z mem_read_ex $end
$var wire 1 [ jump_id_mux $end
$var wire 1 \ jump_id $end
$var wire 1 ] jump_ex $end
$var wire 32 ^ instruction_code_if [31:0] $end
$var wire 32 _ instruction_code_id [31:0] $end
$var wire 32 ` imm_val_id [31:0] $end
$var wire 32 a imm_val_ex [31:0] $end
$var wire 1 b if_id_write $end
$var wire 7 c funct7_id [6:0] $end
$var wire 7 d funct7_ex [6:0] $end
$var wire 3 e funct3_id [2:0] $end
$var wire 3 f funct3_ex [2:0] $end
$var wire 2 g forwardB [1:0] $end
$var wire 2 h forwardA [1:0] $end
$var wire 1 i flush $end
$var wire 1 j control_mux_sel_id $end
$var wire 1 k branch_id_mux $end
$var wire 1 l branch_id $end
$var wire 1 m branch_ex $end
$var wire 1 n branch_condn_ex $end
$var wire 1 o alu_src_id_mux $end
$var wire 1 p alu_src_id $end
$var wire 1 q alu_src_ex $end
$var wire 32 r alu_result_wb [31:0] $end
$var wire 32 s alu_result_mem [31:0] $end
$var wire 32 t alu_result_ex [31:0] $end
$var wire 3 u alu_op_id_mux [2:0] $end
$var wire 3 v alu_op_id [2:0] $end
$var wire 3 w alu_op_ex [2:0] $end
$var wire 1 x ID_EX_write $end
$scope module add_if $end
$var wire 32 y pc_plus_4 [31:0] $end
$var wire 32 z pc [31:0] $end
$upscope $end
$scope module alu1 $end
$var wire 32 { src2 [31:0] $end
$var wire 32 | src1 [31:0] $end
$var wire 6 } operation [5:0] $end
$var reg 32 ~ alu_result [31:0] $end
$var reg 1 n branch_condn $end
$upscope $end
$scope module alu_ctrl $end
$var wire 7 !" func7 [6:0] $end
$var wire 3 "" func3 [2:0] $end
$var wire 3 #" alu_op [2:0] $end
$var reg 6 $" operation [5:0] $end
$upscope $end
$scope module bd $end
$var wire 1 n branch_condn_ex $end
$var wire 1 i flush $end
$var wire 1 @ pc_src $end
$var wire 1 ] jump_ex $end
$var wire 1 m branch_ex $end
$upscope $end
$scope module cmux $end
$var wire 2 %" result_src [1:0] $end
$var wire 1 4 regWrite $end
$var wire 1 N memWrite $end
$var wire 1 S memToReg $end
$var wire 1 Y memRead $end
$var wire 1 \ jump $end
$var wire 1 j control_mux_sel $end
$var wire 1 l branch $end
$var wire 1 p aluSrc $end
$var wire 3 &" aluOp [2:0] $end
$var reg 3 '" aluOp_mux_out [2:0] $end
$var reg 1 o aluSrc_mux_out $end
$var reg 1 k branch_mux_out $end
$var reg 1 [ jump_mux_out $end
$var reg 1 X memRead_mux_out $end
$var reg 1 R memToReg_mux_out $end
$var reg 1 M memWrite_mux_out $end
$var reg 1 3 regWrite_mux_out $end
$var reg 2 (" result_src_mux_out [1:0] $end
$upscope $end
$scope module ctrl $end
$var wire 7 )" opcode [6:0] $end
$var reg 3 *" aluOp [2:0] $end
$var reg 1 p aluSrc $end
$var reg 1 l branch $end
$var reg 1 \ jump $end
$var reg 1 Y memRead $end
$var reg 1 S memToReg $end
$var reg 1 N memWrite $end
$var reg 1 4 regWrite $end
$var reg 2 +" result_src [1:0] $end
$upscope $end
$scope module dmem $end
$var wire 1 ! clk $end
$var wire 1 " rst $end
$var wire 32 ," w_data [31:0] $end
$var wire 32 -" r_data [31:0] $end
$var wire 1 L mem_write $end
$var wire 1 W mem_read $end
$var wire 32 ." addr [31:0] $end
$var integer 32 /" i [31:0] $end
$upscope $end
$scope module ex_mem1 $end
$var wire 32 0" alu_result_in [31:0] $end
$var wire 1 ! clk $end
$var wire 1 " rst $end
$var wire 32 1" write_data_in [31:0] $end
$var wire 2 2" result_src_ex [1:0] $end
$var wire 1 5 reg_write_in $end
$var wire 5 3" rd_in [4:0] $end
$var wire 32 4" pc_plus_4_ex [31:0] $end
$var wire 1 O mem_write_in $end
$var wire 1 T mem_to_reg_in $end
$var wire 1 Z mem_read_in $end
$var reg 32 5" alu_result_out [31:0] $end
$var reg 1 W mem_read_out $end
$var reg 1 Q mem_to_reg_out $end
$var reg 1 L mem_write_out $end
$var reg 32 6" pc_plus_4_mem [31:0] $end
$var reg 5 7" rd_out [4:0] $end
$var reg 1 2 reg_write_out $end
$var reg 2 8" result_src_mem [1:0] $end
$var reg 32 9" write_data_out [31:0] $end
$upscope $end
$scope module fwd $end
$var wire 5 :" ex_mem_rd [4:0] $end
$var wire 1 2 ex_mem_reg_write $end
$var wire 1 1 mem_wb_reg_write $end
$var wire 5 ;" mem_wb_rd [4:0] $end
$var wire 5 <" id_ex_rs2 [4:0] $end
$var wire 5 =" id_ex_rs1 [4:0] $end
$var reg 2 >" forward_A [1:0] $end
$var reg 2 ?" forward_B [1:0] $end
$upscope $end
$scope module hz $end
$var wire 5 @" rs1_id [4:0] $end
$var wire 5 A" rs2_id [4:0] $end
$var wire 5 B" rd_ex [4:0] $end
$var wire 1 Z MemRead_ex $end
$var reg 1 x ID_EX_write $end
$var reg 1 b IF_ID_write $end
$var reg 1 > PC_Write $end
$var reg 1 j control_mux_sel $end
$upscope $end
$scope module id_ex1 $end
$var wire 3 C" aluOp_id [2:0] $end
$var wire 1 o aluSrc_id $end
$var wire 1 k branch_id $end
$var wire 1 ! clk $end
$var wire 1 i flush $end
$var wire 3 D" funct3_id [2:0] $end
$var wire 7 E" funct7_id [6:0] $end
$var wire 1 F" id_ex_write $end
$var wire 1 [ jump_id $end
$var wire 1 X memRead_id $end
$var wire 1 R memToReg_id $end
$var wire 1 M memWrite_id $end
$var wire 5 G" rd_id [4:0] $end
$var wire 1 3 regWrite_id $end
$var wire 2 H" result_src_id [1:0] $end
$var wire 5 I" rs1_id [4:0] $end
$var wire 5 J" rs2_id [4:0] $end
$var wire 1 " rst $end
$var wire 1 j stall $end
$var wire 32 K" read_data2_id [31:0] $end
$var wire 32 L" read_data1_id [31:0] $end
$var wire 32 M" pc_plus_4_id [31:0] $end
$var wire 32 N" pc_id [31:0] $end
$var wire 32 O" imm_val_id [31:0] $end
$var reg 3 P" aluOp_ex [2:0] $end
$var reg 1 q aluSrc_ex $end
$var reg 1 m branch_ex $end
$var reg 3 Q" funct3_ex [2:0] $end
$var reg 7 R" funct7_ex [6:0] $end
$var reg 32 S" imm_val_ex [31:0] $end
$var reg 1 ] jump_ex $end
$var reg 1 Z memRead_ex $end
$var reg 1 T memToReg_ex $end
$var reg 1 O memWrite_ex $end
$var reg 32 T" pc_ex [31:0] $end
$var reg 32 U" pc_plus_4_ex [31:0] $end
$var reg 5 V" rd_ex [4:0] $end
$var reg 32 W" read_data1_ex [31:0] $end
$var reg 32 X" read_data2_ex [31:0] $end
$var reg 1 5 regWrite_ex $end
$var reg 2 Y" result_src_ex [1:0] $end
$var reg 5 Z" rs1_ex [4:0] $end
$var reg 5 [" rs2_ex [4:0] $end
$upscope $end
$scope module if_id_reg $end
$var wire 1 b IF_ID_write $end
$var wire 1 i IF_flush $end
$var wire 32 \" IF_pcplus4 [31:0] $end
$var wire 1 ! clk $end
$var wire 1 " rst $end
$var wire 32 ]" IF_pc [31:0] $end
$var wire 32 ^" IF_instr [31:0] $end
$var reg 32 _" Instr_ID [31:0] $end
$var reg 32 `" pc_ID [31:0] $end
$var reg 32 a" pc_plus_4_ID [31:0] $end
$upscope $end
$scope module imem_if $end
$var wire 32 b" instruction_code [31:0] $end
$var wire 32 c" pc [31:0] $end
$upscope $end
$scope module imm1 $end
$var wire 32 d" instruction [31:0] $end
$var reg 32 e" imm_val [31:0] $end
$upscope $end
$scope module m1 $end
$var wire 32 f" alu_result [31:0] $end
$var wire 2 g" forward_A [1:0] $end
$var wire 32 h" rd1 [31:0] $end
$var wire 32 i" mem_result [31:0] $end
$var reg 32 j" src1 [31:0] $end
$upscope $end
$scope module m2 $end
$var wire 32 k" alu_result [31:0] $end
$var wire 2 l" forward_B [1:0] $end
$var wire 32 m" rd2 [31:0] $end
$var wire 32 n" mem_result [31:0] $end
$var reg 32 o" src2 [31:0] $end
$upscope $end
$scope module m3 $end
$var wire 1 q alu_src $end
$var wire 32 p" imm [31:0] $end
$var wire 32 q" src2_in [31:0] $end
$var reg 32 r" src2 [31:0] $end
$upscope $end
$scope module mem_wb1 $end
$var wire 32 s" alu_result_mem [31:0] $end
$var wire 1 ! clk $end
$var wire 1 Q mem_to_reg_mem $end
$var wire 32 t" pc_plus_4_mem [31:0] $end
$var wire 5 u" rd_mem [4:0] $end
$var wire 32 v" read_data_mem [31:0] $end
$var wire 1 2 reg_write_mem $end
$var wire 2 w" result_src_mem [1:0] $end
$var wire 1 " rst $end
$var reg 32 x" alu_result_wb [31:0] $end
$var reg 1 P mem_to_reg_wb $end
$var reg 32 y" pc_plus_4_wb [31:0] $end
$var reg 5 z" rd_wb [4:0] $end
$var reg 32 {" read_data_wb [31:0] $end
$var reg 1 1 reg_write_wb $end
$var reg 2 |" result_src_wb [1:0] $end
$upscope $end
$scope module mux_if $end
$var wire 1 @ PCSrc $end
$var wire 32 }" pc_plus_4 [31:0] $end
$var wire 32 ~" next_pc [31:0] $end
$var wire 32 !# PCTarget [31:0] $end
$upscope $end
$scope module pc_if $end
$var wire 1 ! clk $end
$var wire 32 "# next_pc [31:0] $end
$var wire 1 > pc_write $end
$var wire 1 " rst $end
$var reg 32 ## pc [31:0] $end
$upscope $end
$scope module pco $end
$var wire 32 $# imm [31:0] $end
$var wire 32 %# pc [31:0] $end
$var reg 32 &# pc_offset_out [31:0] $end
$upscope $end
$scope module rf $end
$var wire 1 ! clk $end
$var wire 5 '# rd [4:0] $end
$var wire 1 1 reg_write $end
$var wire 5 (# rs1 [4:0] $end
$var wire 5 )# rs2 [4:0] $end
$var wire 1 " rst $end
$var wire 32 *# write_data [31:0] $end
$var wire 32 +# read_data2 [31:0] $end
$var wire 32 ,# read_data1 [31:0] $end
$var integer 32 -# i [31:0] $end
$upscope $end
$scope module wb_mux $end
$var wire 32 .# alu_result [31:0] $end
$var wire 32 /# pc_plus_4_wb [31:0] $end
$var wire 32 0# r_data [31:0] $end
$var wire 2 1# result_src [1:0] $end
$var reg 32 2# data_out [31:0] $end
$upscope $end
$upscope $end
$upscope $end
$enddefinitions $end
$comment Show the parameter values. $end
$dumpall
$end
#0
$dumpvars
bx 2#
bx 1#
bx 0#
bx /#
bx .#
bx -#
bx ,#
bx +#
bx *#
bx )#
bx (#
bx '#
bx &#
bx %#
bx $#
bx ##
bx "#
bx !#
bx ~"
bx }"
bx |"
bx {"
bx z"
bx y"
bx x"
bx w"
bx v"
bx u"
bx t"
bx s"
bx r"
bx q"
bx p"
bx o"
bx n"
bx m"
bx l"
bx k"
bx j"
bx i"
bx h"
bx g"
bx f"
bx e"
bx d"
bx c"
bx b"
bx a"
bx `"
bx _"
bx ^"
bx ]"
bx \"
bx ["
bx Z"
bx Y"
bx X"
bx W"
bx V"
bx U"
bx T"
bx S"
bx R"
bx Q"
bx P"
bx O"
bx N"
bx M"
bx L"
bx K"
bx J"
bx I"
bx H"
bx G"
zF"
bx E"
bx D"
bx C"
bx B"
bx A"
bx @"
bx ?"
bx >"
bx ="
bx <"
bx ;"
bx :"
bx 9"
bx 8"
bx 7"
bx 6"
bx 5"
bx 4"
bx 3"
bx 2"
bx 1"
bx 0"
bx /"
bx ."
bx -"
bx ,"
bx +"
bx *"
bx )"
bx ("
bx '"
bx &"
bx %"
bx $"
bx #"
bx ""
bx !"
bx ~
bx }
bx |
bx {
bx z
bx y
xx
bx w
bx v
bx u
bx t
bx s
bx r
xq
xp
xo
xn
xm
xl
xk
xj
xi
bx h
bx g
bx f
bx e
bx d
bx c
xb
bx a
bx `
bx _
bx ^
x]
x\
x[
xZ
xY
xX
xW
bx V
bx U
xT
xS
xR
xQ
xP
xO
xN
xM
xL
bx K
bx J
bx I
bx H
bx G
bx F
bx E
bx D
bx C
bx B
bx A
x@
bx ?
x>
bx =
bx <
bx ;
bx :
bx 9
bx 8
bx 7
bx 6
x5
x4
x3
x2
x1
bx 0
bx /
bx .
bx -
bx ,
bx +
bx *
bx )
bx (
bx '
bx &
bx %
bx $
bx #
1"
0!
$end
#5000
b0 .
b0 ("
b0 H"
0[
0R
0X
0M
0k
b0 u
b0 '"
b0 C"
0o
03
0i
0@
b0 6
b0 K"
b0 +#
b0 8
b0 L"
b0 ,#
b0 /
b0 %"
b0 +"
0\
0S
0Y
0N
0l
b0 v
b0 &"
b0 *"
0p
04
b0 V
b0 -"
b0 v"
b0 t
b0 ~
b0 0"
0n
b10011 ^
b10011 ^"
b10011 b"
b100 K
b100 ~"
b100 "#
b0 `
b0 O"
b0 e"
b0 c
b0 E"
b0 (
b0 A"
b0 J"
b0 )#
b0 *
b0 @"
b0 I"
b0 (#
b0 e
b0 D"
b0 <
b0 G"
b0 J
b0 )"
b1 I
b1 }
b1 $"
b0 &
b0 {
b0 r"
0j
1x
1b
1>
b0 ?
b0 !#
b0 &#
b0 '
b0 |
b0 j"
b0 %
b0 1"
b0 o"
b0 q"
b0 g
b0 ?"
b0 l"
b0 h
b0 >"
b0 g"
b0 #
b0 i"
b0 n"
b0 *#
b0 2#
b100 E
b100 y
b100 \"
b100 }"
b0 H
b0 z
b0 ]"
b0 c"
b0 ##
b0 C
b0 M"
b0 a"
b0 F
b0 N"
b0 `"
b0 _
b0 _"
b0 d"
b0 0
b0 2"
b0 Y"
b0 D
b0 4"
b0 U"
0]
0T
0Z
0O
0m
b0 w
b0 #"
b0 P"
0q
05
b0 d
b0 !"
b0 R"
b0 f
b0 ""
b0 Q"
b0 a
b0 S"
b0 p"
b0 $#
b0 7
b0 X"
b0 m"
b0 9
b0 W"
b0 h"
b0 =
b0 3"
b0 B"
b0 V"
b0 )
b0 <"
b0 ["
b0 +
b0 ="
b0 Z"
b0 G
b0 T"
b0 %#
b0 -
b0 8"
b0 w"
b0 B
b0 6"
b0 t"
02
0Q
0L
0W
b0 ;
b0 7"
b0 :"
b0 u"
b0 $
b0 ,"
b0 9"
b0 s
b0 ."
b0 5"
b0 f"
b0 k"
b0 s"
b0 ,
b0 |"
b0 1#
b0 A
b0 y"
b0 /#
b0 :
b0 ;"
b0 z"
b0 '#
0P
01
b0 U
b0 {"
b0 0#
b0 r
b0 x"
b0 .#
b100000 -#
b1000000000000 /"
1!
#10000
0!
0"
#15000
b11 u
b11 '"
b11 C"
1o
13
b11 v
b11 &"
b11 *"
1p
14
b10011 J
b10011 )"
b1000 K
b1000 ~"
b1000 "#
b100 C
b100 M"
b100 a"
b10011 _
b10011 _"
b10011 d"
b1000 E
b1000 y
b1000 \"
b1000 }"
b100 H
b100 z
b100 ]"
b100 c"
b100 ##
1!
#20000
0!
#25000
b1000000000000000011101111 ^
b1000000000000000011101111 ^"
b1000000000000000011101111 b"
b1100 K
b1100 ~"
b1100 "#
b1011 I
b1011 }
b1011 $"
b1100 E
b1100 y
b1100 \"
b1100 }"
b1000 H
b1000 z
b1000 ]"
b1000 c"
b1000 ##
b1000 C
b1000 M"
b1000 a"
b100 F
b100 N"
b100 `"
b100 D
b100 4"
b100 U"
b11 w
b11 #"
b11 P"
1q
15
1!
#30000
0!
#35000
b10 .
b10 ("
b10 H"
1[
b100 u
b100 '"
b100 C"
0o
b10 /
b10 %"
b10 +"
1\
b100 v
b100 &"
b100 *"
0p
b100 ?
b100 !#
b100 &#
b10000 `
b10000 O"
b10000 e"
b10000 (
b10000 A"
b10000 J"
b10000 )#
b1 <
b1 G"
b1101111 J
b1101111 )"
b1000000000000100010011 ^
b1000000000000100010011 ^"
b1000000000000100010011 b"
b10000 K
b10000 ~"
b10000 "#
b100 B
b100 6"
b100 t"
12
b1000 D
b1000 4"
b1000 U"
b100 G
b100 T"
b100 %#
b1100 C
b1100 M"
b1100 a"
b1000 F
b1000 N"
b1000 `"
b1000000000000000011101111 _
b1000000000000000011101111 _"
b1000000000000000011101111 d"
b10000 E
b10000 y
b10000 \"
b10000 }"
b1100 H
b1100 z
b1100 ]"
b1100 c"
b1100 ##
1!
#40000
0!
#45000
b0 .
b0 ("
b0 H"
0[
b11 u
b11 '"
b11 C"
1o
1i
1@
b0 /
b0 %"
b0 +"
0\
b11 v
b11 &"
b11 *"
1p
b1100000000000110010011 ^
b1100000000000110010011 ^"
b1100000000000110010011 b"
b11000 K
b11000 ~"
b11000 "#
b10 `
b10 O"
b10 e"
b10 (
b10 A"
b10 J"
b10 )#
b10 <
b10 G"
b10011 J
b10011 )"
b1 I
b1 }
b1 $"
b11000 ?
b11000 !#
b11000 &#
b10100 E
b10100 y
b10100 \"
b10100 }"
b10000 H
b10000 z
b10000 ]"
b10000 c"
b10000 ##
b10000 C
b10000 M"
b10000 a"
b1100 F
b1100 N"
b1100 `"
b1000000000000100010011 _
b1000000000000100010011 _"
b1000000000000100010011 d"
b10 0
b10 2"
b10 Y"
b1100 D
b1100 4"
b1100 U"
1]
b100 w
b100 #"
b100 P"
0q
b10000 a
b10000 S"
b10000 p"
b10000 $#
b1 =
b1 3"
b1 B"
b1 V"
b10000 )
b10000 <"
b10000 ["
b1000 G
b1000 T"
b1000 %#
b1000 B
b1000 6"
b1000 t"
b100 A
b100 y"
b100 /#
11
1!
#50000
0!
#55000
0i
0@
b0 u
b0 '"
b0 C"
0o
03
b11100 K
b11100 ~"
b11100 "#
b0 v
b0 &"
b0 *"
0p
04
b0 ?
b0 !#
b0 &#
b0 `
b0 O"
b0 e"
b0 (
b0 A"
b0 J"
b0 )#
b0 <
b0 G"
b0 J
b0 )"
b10100000000001010010011 ^
b10100000000001010010011 ^"
b10100000000001010010011 b"
b1000 A
b1000 y"
b1000 /#
b10 -
b10 8"
b10 w"
b1100 B
b1100 6"
b1100 t"
b1 ;
b1 7"
b1 :"
b1 u"
b0 0
b0 2"
b0 Y"
b0 D
b0 4"
b0 U"
b0 a
b0 S"
b0 p"
b0 $#
b0 =
b0 3"
b0 B"
b0 V"
b0 )
b0 <"
b0 ["
b0 G
b0 T"
b0 %#
0]
b0 w
b0 #"
b0 P"
05
b0 C
b0 M"
b0 a"
b0 F
b0 N"
b0 `"
b0 _
b0 _"
b0 d"
b11100 E
b11100 y
b11100 \"
b11100 }"
b11000 H
b11000 z
b11000 ]"
b11000 c"
b11000 ##
1!
#60000
0!
#65000
b11 u
b11 '"
b11 C"
1o
13
b11 v
b11 &"
b11 *"
1p
14
bx ^
bx ^"
bx b"
b100000 K
b100000 ~"
b100000 "#
b101 `
b101 O"
b101 e"
b101 (
b101 A"
b101 J"
b101 )#
b101 <
b101 G"
b10011 J
b10011 )"
b1100 #
b1100 i"
b1100 n"
b1100 *#
b1100 2#
b100000 E
b100000 y
b100000 \"
b100000 }"
b11100 H
b11100 z
b11100 ]"
b11100 c"
b11100 ##
b11100 C
b11100 M"
b11100 a"
b11000 F
b11000 N"
b11000 `"
b10100000000001010010011 _
b10100000000001010010011 _"
b10100000000001010010011 d"
b0 -
b0 8"
b0 w"
b0 B
b0 6"
b0 t"
02
b0 ;
b0 7"
b0 :"
b0 u"
b10 ,
b10 |"
b10 1#
b1100 A
b1100 y"
b1100 /#
b1 :
b1 ;"
b1 z"
b1 '#
1!
#70000
0!
#75000
b0 u
b0 '"
b0 C"
0o
03
b101 t
b101 ~
b101 0"
bx 6
bx K"
bx +#
bx 8
bx L"
bx ,#
b0 v
b0 &"
b0 *"
0p
04
b0 #
b0 i"
b0 n"
b0 *#
b0 2#
b1011 I
b1011 }
b1011 $"
b101 &
b101 {
b101 r"
b11101 ?
b11101 !#
b11101 &#
b0 `
b0 O"
b0 e"
bx c
bx E"
bx (
bx A"
bx J"
bx )#
bx *
bx @"
bx I"
bx (#
bx e
bx D"
bx <
bx G"
bx J
bx )"
b100100 K
b100100 ~"
b100100 "#
b0 ,
b0 |"
b0 1#
b0 A
b0 y"
b0 /#
b0 :
b0 ;"
b0 z"
b0 '#
01
b11100 D
b11100 4"
b11100 U"
b11 w
b11 #"
b11 P"
1q
15
b101 a
b101 S"
b101 p"
b101 $#
b101 =
b101 3"
b101 B"
b101 V"
b101 )
b101 <"
b101 ["
b11000 G
b11000 T"
b11000 %#
b100000 C
b100000 M"
b100000 a"
b11100 F
b11100 N"
b11100 `"
bx _
bx _"
bx d"
b100100 E
b100100 y
b100100 \"
b100100 }"
b100000 H
b100000 z
b100000 ]"
b100000 c"
b100000 ##
1!
#80000
0!
#85000
bx t
bx ~
bx 0"
b101000 K
b101000 ~"
b101000 "#
b1 I
b1 }
b1 $"
bx &
bx {
bx r"
b11100 ?
b11100 !#
b11100 &#
bx '
bx |
bx j"
bx %
bx 1"
bx o"
bx q"
b101000 E
b101000 y
b101000 \"
b101000 }"
b100100 H
b100100 z
b100100 ]"
b100100 c"
b100100 ##
b100100 C
b100100 M"
b100100 a"
b100000 F
b100000 N"
b100000 `"
b100000 D
b100000 4"
b100000 U"
b0 w
b0 #"
b0 P"
0q
05
bx d
bx !"
bx R"
bx f
bx ""
bx Q"
b0 a
b0 S"
b0 p"
b0 $#
bx 7
bx X"
bx m"
bx 9
bx W"
bx h"
bx =
bx 3"
bx B"
bx V"
bx )
bx <"
bx ["
bx +
bx ="
bx Z"
b11100 G
b11100 T"
b11100 %#
b11100 B
b11100 6"
b11100 t"
12
b101 ;
b101 7"
b101 :"
b101 u"
b101 s
b101 ."
b101 5"
b101 f"
b101 k"
b101 s"
1!
#90000
0!
#95000
b101 #
b101 i"
b101 n"
b101 *#
b101 2#
b100000 ?
b100000 !#
b100000 &#
b101100 K
b101100 ~"
b101100 "#
b11100 A
b11100 y"
b11100 /#
b101 :
b101 ;"
b101 z"
b101 '#
11
b101 r
b101 x"
b101 .#
b100000 B
b100000 6"
b100000 t"
02
bx ;
bx 7"
bx :"
bx u"
bx $
bx ,"
bx 9"
bx s
bx ."
bx 5"
bx f"
bx k"
bx s"
b100100 D
b100100 4"
b100100 U"
b100000 G
b100000 T"
b100000 %#
b101000 C
b101000 M"
b101000 a"
b100100 F
b100100 N"
b100100 `"
b101100 E
b101100 y
b101100 \"
b101100 }"
b101000 H
b101000 z
b101000 ]"
b101000 c"
b101000 ##
1!
#100000
0!
#105000
b110000 K
b110000 ~"
b110000 "#
b100100 ?
b100100 !#
b100100 &#
bx #
bx i"
bx n"
bx *#
bx 2#
b110000 E
b110000 y
b110000 \"
b110000 }"
b101100 H
b101100 z
b101100 ]"
b101100 c"
b101100 ##
b101100 C
b101100 M"
b101100 a"
b101000 F
b101000 N"
b101000 `"
b101000 D
b101000 4"
b101000 U"
b100100 G
b100100 T"
b100100 %#
b100100 B
b100100 6"
b100100 t"
b100000 A
b100000 y"
b100000 /#
bx :
bx ;"
bx z"
bx '#
01
bx r
bx x"
bx .#
1!
#110000
0!
#115000
b101000 ?
b101000 !#
b101000 &#
b110100 K
b110100 ~"
b110100 "#
b100100 A
b100100 y"
b100100 /#
b101000 B
b101000 6"
b101000 t"
b101100 D
b101100 4"
b101100 U"
b101000 G
b101000 T"
b101000 %#
b110000 C
b110000 M"
b110000 a"
b101100 F
b101100 N"
b101100 `"
b110100 E
b110100 y
b110100 \"
b110100 }"
b110000 H
b110000 z
b110000 ]"
b110000 c"
b110000 ##
1!
#120000
0!
#125000
b111000 K
b111000 ~"
b111000 "#
b101100 ?
b101100 !#
b101100 &#
b111000 E
b111000 y
b111000 \"
b111000 }"
b110100 H
b110100 z
b110100 ]"
b110100 c"
b110100 ##
b110100 C
b110100 M"
b110100 a"
b110000 F
b110000 N"
b110000 `"
b110000 D
b110000 4"
b110000 U"
b101100 G
b101100 T"
b101100 %#
b101100 B
b101100 6"
b101100 t"
b101000 A
b101000 y"
b101000 /#
1!
#130000
0!
#135000
b110000 ?
b110000 !#
b110000 &#
b111100 K
b111100 ~"
b111100 "#
b101100 A
b101100 y"
b101100 /#
b110000 B
b110000 6"
b110000 t"
b110100 D
b110100 4"
b110100 U"
b110000 G
b110000 T"
b110000 %#
b111000 C
b111000 M"
b111000 a"
b110100 F
b110100 N"
b110100 `"
b111100 E
b111100 y
b111100 \"
b111100 }"
b111000 H
b111000 z
b111000 ]"
b111000 c"
b111000 ##
1!
#140000
0!
#145000
b1000000 K
b1000000 ~"
b1000000 "#
b110100 ?
b110100 !#
b110100 &#
b1000000 E
b1000000 y
b1000000 \"
b1000000 }"
b111100 H
b111100 z
b111100 ]"
b111100 c"
b111100 ##
b111100 C
b111100 M"
b111100 a"
b111000 F
b111000 N"
b111000 `"
b111000 D
b111000 4"
b111000 U"
b110100 G
b110100 T"
b110100 %#
b110100 B
b110100 6"
b110100 t"
b110000 A
b110000 y"
b110000 /#
1!
#150000
0!
#155000
b111000 ?
b111000 !#
b111000 &#
b1000100 K
b1000100 ~"
b1000100 "#
b110100 A
b110100 y"
b110100 /#
b111000 B
b111000 6"
b111000 t"
b111100 D
b111100 4"
b111100 U"
b111000 G
b111000 T"
b111000 %#
b1000000 C
b1000000 M"
b1000000 a"
b111100 F
b111100 N"
b111100 `"
b1000100 E
b1000100 y
b1000100 \"
b1000100 }"
b1000000 H
b1000000 z
b1000000 ]"
b1000000 c"
b1000000 ##
1!
#160000
0!
#165000
b1001000 K
b1001000 ~"
b1001000 "#
b111100 ?
b111100 !#
b111100 &#
b1001000 E
b1001000 y
b1001000 \"
b1001000 }"
b1000100 H
b1000100 z
b1000100 ]"
b1000100 c"
b1000100 ##
b1000100 C
b1000100 M"
b1000100 a"
b1000000 F
b1000000 N"
b1000000 `"
b1000000 D
b1000000 4"
b1000000 U"
b111100 G
b111100 T"
b111100 %#
b111100 B
b111100 6"
b111100 t"
b111000 A
b111000 y"
b111000 /#
1!
#170000
0!
#175000
b1000000 ?
b1000000 !#
b1000000 &#
b1001100 K
b1001100 ~"
b1001100 "#
b111100 A
b111100 y"
b111100 /#
b1000000 B
b1000000 6"
b1000000 t"
b1000100 D
b1000100 4"
b1000100 U"
b1000000 G
b1000000 T"
b1000000 %#
b1001000 C
b1001000 M"
b1001000 a"
b1000100 F
b1000100 N"
b1000100 `"
b1001100 E
b1001100 y
b1001100 \"
b1001100 }"
b1001000 H
b1001000 z
b1001000 ]"
b1001000 c"
b1001000 ##
1!
#180000
0!
#185000
b1010000 K
b1010000 ~"
b1010000 "#
b1000100 ?
b1000100 !#
b1000100 &#
b1010000 E
b1010000 y
b1010000 \"
b1010000 }"
b1001100 H
b1001100 z
b1001100 ]"
b1001100 c"
b1001100 ##
b1001100 C
b1001100 M"
b1001100 a"
b1001000 F
b1001000 N"
b1001000 `"
b1001000 D
b1001000 4"
b1001000 U"
b1000100 G
b1000100 T"
b1000100 %#
b1000100 B
b1000100 6"
b1000100 t"
b1000000 A
b1000000 y"
b1000000 /#
1!
#190000
0!
#195000
b1001000 ?
b1001000 !#
b1001000 &#
b1010100 K
b1010100 ~"
b1010100 "#
b1000100 A
b1000100 y"
b1000100 /#
b1001000 B
b1001000 6"
b1001000 t"
b1001100 D
b1001100 4"
b1001100 U"
b1001000 G
b1001000 T"
b1001000 %#
b1010000 C
b1010000 M"
b1010000 a"
b1001100 F
b1001100 N"
b1001100 `"
b1010100 E
b1010100 y
b1010100 \"
b1010100 }"
b1010000 H
b1010000 z
b1010000 ]"
b1010000 c"
b1010000 ##
1!
#200000
0!
