processor/scripts/riscv_core.vcd
$date
	Fri Apr  3 18:01:06 2026
$end
$version
	Icarus Verilog
$end
$timescale
	1ps
$end
$scope module tb_risc $end
$var reg 1 ! clk $end
$var reg 1 " rst $end
$scope module uut $end
$var wire 1 ! clk $end
$var wire 1 " rst $end
$var wire 32 # write_data_wb [31:0] $end
$var wire 32 $ write_data_mem [31:0] $end
$var wire 32 % src2_forwarded [31:0] $end
$var wire 32 & src2 [31:0] $end
$var wire 32 ' src1 [31:0] $end
$var wire 5 ( rs2_id [4:0] $end
$var wire 5 ) rs2_ex [4:0] $end
$var wire 5 * rs1_id [4:0] $end
$var wire 5 + rs1_ex [4:0] $end
$var wire 1 , reg_write_wb $end
$var wire 1 - reg_write_mem $end
$var wire 1 . reg_write_id_mux $end
$var wire 1 / reg_write_id $end
$var wire 1 0 reg_write_ex $end
$var wire 32 1 read_data_2_id [31:0] $end
$var wire 32 2 read_data_2_ex [31:0] $end
$var wire 32 3 read_data_1_id [31:0] $end
$var wire 32 4 read_data_1_ex [31:0] $end
$var wire 5 5 rd_wb [4:0] $end
$var wire 5 6 rd_mem [4:0] $end
$var wire 5 7 rd_id [4:0] $end
$var wire 5 8 rd_ex [4:0] $end
$var wire 1 9 pc_write $end
$var wire 32 : pc_target [31:0] $end
$var wire 1 ; pc_src $end
$var wire 32 < pc_plus_4_id [31:0] $end
$var wire 32 = pc_plus_4 [31:0] $end
$var wire 32 > pc_id [31:0] $end
$var wire 32 ? pc_ex [31:0] $end
$var wire 32 @ pc [31:0] $end
$var wire 6 A operation [5:0] $end
$var wire 7 B opcode_id [6:0] $end
$var wire 32 C next_pc [31:0] $end
$var wire 1 D mem_write_mem $end
$var wire 1 E mem_write_id_mux $end
$var wire 1 F mem_write_id $end
$var wire 1 G mem_write_ex $end
$var wire 1 H mem_to_reg_wb $end
$var wire 1 I mem_to_reg_mem $end
$var wire 1 J mem_to_reg_id_mux $end
$var wire 1 K mem_to_reg_id $end
$var wire 1 L mem_to_reg_ex $end
$var wire 32 M mem_result_wb [31:0] $end
$var wire 32 N mem_result_mem [31:0] $end
$var wire 1 O mem_read_mem $end
$var wire 1 P mem_read_id_mux $end
$var wire 1 Q mem_read_id $end
$var wire 1 R mem_read_ex $end
$var wire 1 S jump_id_mux $end
$var wire 1 T jump_id $end
$var wire 1 U jump_ex $end
$var wire 32 V instruction_code_if [31:0] $end
$var wire 32 W instruction_code_id [31:0] $end
$var wire 32 X imm_val_id [31:0] $end
$var wire 32 Y imm_val_ex [31:0] $end
$var wire 1 Z if_id_write $end
$var wire 1 [ id_ex_write $end
$var wire 7 \ funct7_id [6:0] $end
$var wire 7 ] funct7_ex [6:0] $end
$var wire 3 ^ funct3_id [2:0] $end
$var wire 3 _ funct3_ex [2:0] $end
$var wire 2 ` forwardB [1:0] $end
$var wire 2 a forwardA [1:0] $end
$var wire 1 b flush $end
$var wire 1 c control_mux_sel_id $end
$var wire 1 d branch_id_mux $end
$var wire 1 e branch_id $end
$var wire 1 f branch_ex $end
$var wire 1 g branch_condn_ex $end
$var wire 1 h alu_src_id_mux $end
$var wire 1 i alu_src_id $end
$var wire 1 j alu_src_ex $end
$var wire 32 k alu_result_wb [31:0] $end
$var wire 32 l alu_result_mem [31:0] $end
$var wire 32 m alu_result_ex [31:0] $end
$var wire 3 n alu_op_id_mux [2:0] $end
$var wire 3 o alu_op_id [2:0] $end
$var wire 3 p alu_op_ex [2:0] $end
$scope module add_if $end
$var wire 32 q pc_plus_4 [31:0] $end
$var wire 32 r pc [31:0] $end
$upscope $end
$scope module alu1 $end
$var wire 32 s src2 [31:0] $end
$var wire 32 t src1 [31:0] $end
$var wire 6 u operation [5:0] $end
$var reg 32 v alu_result [31:0] $end
$var reg 1 g branch_condn $end
$upscope $end
$scope module alu_ctrl $end
$var wire 7 w func7 [6:0] $end
$var wire 3 x func3 [2:0] $end
$var wire 3 y alu_op [2:0] $end
$var reg 6 z operation [5:0] $end
$upscope $end
$scope module bd $end
$var wire 1 g branch_condn_ex $end
$var wire 1 b flush $end
$var wire 1 ; pc_src $end
$var wire 1 U jump_ex $end
$var wire 1 f branch_ex $end
$upscope $end
$scope module cmux $end
$var wire 1 / regWrite $end
$var wire 1 F memWrite $end
$var wire 1 K memToReg $end
$var wire 1 Q memRead $end
$var wire 1 T jump $end
$var wire 1 c control_mux_sel $end
$var wire 1 e branch $end
$var wire 1 i aluSrc $end
$var wire 3 { aluOp [2:0] $end
$var reg 3 | aluOp_mux_out [2:0] $end
$var reg 1 h aluSrc_mux_out $end
$var reg 1 d branch_mux_out $end
$var reg 1 S jump_mux_out $end
$var reg 1 P memRead_mux_out $end
$var reg 1 J memToReg_mux_out $end
$var reg 1 E memWrite_mux_out $end
$var reg 1 . regWrite_mux_out $end
$upscope $end
$scope module ctrl $end
$var wire 7 } opcode [6:0] $end
$var reg 3 ~ aluOp [2:0] $end
$var reg 1 i aluSrc $end
$var reg 1 e branch $end
$var reg 1 T jump $end
$var reg 1 Q memRead $end
$var reg 1 K memToReg $end
$var reg 1 F memWrite $end
$var reg 1 / regWrite $end
$upscope $end
$scope module dmem $end
$var wire 1 ! clk $end
$var wire 1 " rst $end
$var wire 32 !" w_data [31:0] $end
$var wire 32 "" r_data [31:0] $end
$var wire 1 D mem_write $end
$var wire 1 O mem_read $end
$var wire 32 #" addr [31:0] $end
$var integer 32 $" i [31:0] $end
$upscope $end
$scope module ex_mem1 $end
$var wire 32 %" alu_result_in [31:0] $end
$var wire 1 ! clk $end
$var wire 1 " rst $end
$var wire 32 &" write_data_in [31:0] $end
$var wire 1 0 reg_write_in $end
$var wire 5 '" rd_in [4:0] $end
$var wire 1 G mem_write_in $end
$var wire 1 L mem_to_reg_in $end
$var wire 1 R mem_read_in $end
$var reg 32 (" alu_result_out [31:0] $end
$var reg 1 O mem_read_out $end
$var reg 1 I mem_to_reg_out $end
$var reg 1 D mem_write_out $end
$var reg 5 )" rd_out [4:0] $end
$var reg 1 - reg_write_out $end
$var reg 32 *" write_data_out [31:0] $end
$upscope $end
$scope module fwd $end
$var wire 5 +" ex_mem_rd [4:0] $end
$var wire 1 - ex_mem_reg_write $end
$var wire 1 , mem_wb_reg_write $end
$var wire 5 ," mem_wb_rd [4:0] $end
$var wire 5 -" id_ex_rs2 [4:0] $end
$var wire 5 ." id_ex_rs1 [4:0] $end
$var reg 2 /" forward_A [1:0] $end
$var reg 2 0" forward_B [1:0] $end
$upscope $end
$scope module hz $end
$var wire 5 1" rs1_id [4:0] $end
$var wire 5 2" rs2_id [4:0] $end
$var wire 5 3" rd_ex [4:0] $end
$var wire 1 R MemRead_ex $end
$var reg 1 [ ID_EX_write $end
$var reg 1 Z IF_ID_write $end
$var reg 1 9 PC_Write $end
$var reg 1 c control_mux_sel $end
$upscope $end
$scope module id_ex1 $end
$var wire 3 4" aluOp_id [2:0] $end
$var wire 1 h aluSrc_id $end
$var wire 1 d branch_id $end
$var wire 1 ! clk $end
$var wire 1 b flush $end
$var wire 3 5" funct3_id [2:0] $end
$var wire 7 6" funct7_id [6:0] $end
$var wire 1 7" id_ex_write $end
$var wire 1 S jump_id $end
$var wire 1 P memRead_id $end
$var wire 1 J memToReg_id $end
$var wire 1 E memWrite_id $end
$var wire 5 8" rd_id [4:0] $end
$var wire 1 . regWrite_id $end
$var wire 5 9" rs1_id [4:0] $end
$var wire 5 :" rs2_id [4:0] $end
$var wire 1 " rst $end
$var wire 1 c stall $end
$var wire 32 ;" read_data2_id [31:0] $end
$var wire 32 <" read_data1_id [31:0] $end
$var wire 32 =" pc_id [31:0] $end
$var wire 32 >" imm_val_id [31:0] $end
$var reg 3 ?" aluOp_ex [2:0] $end
$var reg 1 j aluSrc_ex $end
$var reg 1 f branch_ex $end
$var reg 3 @" funct3_ex [2:0] $end
$var reg 7 A" funct7_ex [6:0] $end
$var reg 32 B" imm_val_ex [31:0] $end
$var reg 1 U jump_ex $end
$var reg 1 R memRead_ex $end
$var reg 1 L memToReg_ex $end
$var reg 1 G memWrite_ex $end
$var reg 32 C" pc_ex [31:0] $end
$var reg 5 D" rd_ex [4:0] $end
$var reg 32 E" read_data1_ex [31:0] $end
$var reg 32 F" read_data2_ex [31:0] $end
$var reg 1 0 regWrite_ex $end
$var reg 5 G" rs1_ex [4:0] $end
$var reg 5 H" rs2_ex [4:0] $end
$upscope $end
$scope module if_id_reg $end
$var wire 1 Z IF_ID_write $end
$var wire 1 b IF_flush $end
$var wire 32 I" IF_pcplus4 [31:0] $end
$var wire 1 ! clk $end
$var wire 1 " rst $end
$var wire 32 J" IF_pc [31:0] $end
$var wire 32 K" IF_instr [31:0] $end
$var reg 32 L" Instr_ID [31:0] $end
$var reg 32 M" pc_ID [31:0] $end
$var reg 32 N" pc_plus_4_ID [31:0] $end
$upscope $end
$scope module imem_if $end
$var wire 32 O" instruction_code [31:0] $end
$var wire 32 P" pc [31:0] $end
$upscope $end
$scope module imm1 $end
$var wire 32 Q" instruction [31:0] $end
$var reg 32 R" imm_val [31:0] $end
$upscope $end
$scope module m1 $end
$var wire 32 S" alu_result [31:0] $end
$var wire 2 T" forward_A [1:0] $end
$var wire 32 U" rd1 [31:0] $end
$var wire 32 V" mem_result [31:0] $end
$var reg 32 W" src1 [31:0] $end
$upscope $end
$scope module m2 $end
$var wire 32 X" alu_result [31:0] $end
$var wire 2 Y" forward_B [1:0] $end
$var wire 32 Z" rd2 [31:0] $end
$var wire 32 [" mem_result [31:0] $end
$var reg 32 \" src2 [31:0] $end
$upscope $end
$scope module m3 $end
$var wire 1 j alu_src $end
$var wire 32 ]" imm [31:0] $end
$var wire 32 ^" src2_in [31:0] $end
$var reg 32 _" src2 [31:0] $end
$upscope $end
$scope module mem_wb1 $end
$var wire 32 `" alu_result_mem [31:0] $end
$var wire 1 ! clk $end
$var wire 1 I mem_to_reg_mem $end
$var wire 5 a" rd_mem [4:0] $end
$var wire 32 b" read_data_mem [31:0] $end
$var wire 1 - reg_write_mem $end
$var wire 1 " rst $end
$var reg 32 c" alu_result_wb [31:0] $end
$var reg 1 H mem_to_reg_wb $end
$var reg 5 d" rd_wb [4:0] $end
$var reg 32 e" read_data_wb [31:0] $end
$var reg 1 , reg_write_wb $end
$upscope $end
$scope module mux_if $end
$var wire 1 ; PCSrc $end
$var wire 32 f" pc_plus_4 [31:0] $end
$var wire 32 g" next_pc [31:0] $end
$var wire 32 h" PCTarget [31:0] $end
$upscope $end
$scope module pc_if $end
$var wire 1 ! clk $end
$var wire 32 i" next_pc [31:0] $end
$var wire 1 9 pc_write $end
$var wire 1 " rst $end
$var reg 32 j" pc [31:0] $end
$upscope $end
$scope module pco $end
$var wire 32 k" imm [31:0] $end
$var wire 32 l" pc [31:0] $end
$var reg 32 m" pc_offset_out [31:0] $end
$upscope $end
$scope module rf $end
$var wire 1 ! clk $end
$var wire 5 n" rd [4:0] $end
$var wire 1 , reg_write $end
$var wire 5 o" rs1 [4:0] $end
$var wire 5 p" rs2 [4:0] $end
$var wire 1 " rst $end
$var wire 32 q" write_data [31:0] $end
$var wire 32 r" read_data2 [31:0] $end
$var wire 32 s" read_data1 [31:0] $end
$var integer 32 t" i [31:0] $end
$upscope $end
$scope module wb_mux $end
$var wire 32 u" alu_result [31:0] $end
$var wire 1 H mem_to_reg $end
$var wire 32 v" r_data [31:0] $end
$var wire 32 w" data_out [31:0] $end
$upscope $end
$upscope $end
$upscope $end
$enddefinitions $end
$comment Show the parameter values. $end
$dumpall
$end
#0
$dumpvars
bx w"
bx v"
bx u"
bx t"
bx s"
bx r"
bx q"
bx p"
bx o"
bx n"
bx m"
bx l"
bx k"
bx j"
bx i"
bx h"
bx g"
bx f"
bx e"
bx d"
bx c"
bx b"
bx a"
bx `"
bx _"
bx ^"
bx ]"
bx \"
bx ["
bx Z"
bx Y"
bx X"
bx W"
bx V"
bx U"
bx T"
bx S"
bx R"
bx Q"
bx P"
bx O"
bx N"
bx M"
bx L"
bx K"
bx J"
bx I"
bx H"
bx G"
bx F"
bx E"
bx D"
bx C"
bx B"
bx A"
bx @"
bx ?"
bx >"
bx ="
bx <"
bx ;"
bx :"
bx 9"
bx 8"
z7"
bx 6"
bx 5"
bx 4"
bx 3"
bx 2"
bx 1"
bx 0"
bx /"
bx ."
bx -"
bx ,"
bx +"
bx *"
bx )"
bx ("
bx '"
bx &"
bx %"
bx $"
bx #"
bx ""
bx !"
bx ~
bx }
bx |
bx {
bx z
bx y
bx x
bx w
bx v
bx u
bx t
bx s
bx r
bx q
bx p
bx o
bx n
bx m
bx l
bx k
xj
xi
xh
xg
xf
xe
xd
xc
xb
bx a
bx `
bx _
bx ^
bx ]
bx \
x[
xZ
bx Y
bx X
bx W
bx V
xU
xT
xS
xR
xQ
xP
xO
bx N
bx M
xL
xK
xJ
xI
xH
xG
xF
xE
xD
bx C
bx B
bx A
bx @
bx ?
bx >
bx =
bx <
x;
bx :
x9
bx 8
bx 7
bx 6
bx 5
bx 4
bx 3
bx 2
bx 1
x0
x/
x.
x-
x,
bx +
bx *
bx )
bx (
bx '
bx &
bx %
bx $
bx #
1"
0!
$end
#5000
0S
0J
0P
0E
0d
b0 n
b0 |
b0 4"
0h
0.
0b
0;
b0 1
b0 ;"
b0 r"
b0 3
b0 <"
b0 s"
0T
0K
0Q
0F
0e
b0 o
b0 {
b0 ~
0i
0/
b0 N
b0 ""
b0 b"
b0 m
b0 v
b0 %"
0g
b101000000000000010010011 V
b101000000000000010010011 K"
b101000000000000010010011 O"
b100 C
b100 g"
b100 i"
b0 X
b0 >"
b0 R"
b0 \
b0 6"
b0 (
b0 2"
b0 :"
b0 p"
b0 *
b0 1"
b0 9"
b0 o"
b0 ^
b0 5"
b0 7
b0 8"
b0 B
b0 }
b1 A
b1 u
b1 z
b0 &
b0 s
b0 _"
0c
1[
1Z
19
b0 :
b0 h"
b0 m"
b0 '
b0 t
b0 W"
b0 %
b0 &"
b0 \"
b0 ^"
b0 `
b0 0"
b0 Y"
b0 a
b0 /"
b0 T"
b0 #
b0 V"
b0 ["
b0 q"
b0 w"
b100 =
b100 q
b100 I"
b100 f"
b0 @
b0 r
b0 J"
b0 P"
b0 j"
b0 <
b0 N"
b0 >
b0 ="
b0 M"
b0 W
b0 L"
b0 Q"
0U
0L
0R
0G
0f
b0 p
b0 y
b0 ?"
0j
00
b0 ]
b0 w
b0 A"
b0 _
b0 x
b0 @"
b0 Y
b0 B"
b0 ]"
b0 k"
b0 2
b0 F"
b0 Z"
b0 4
b0 E"
b0 U"
b0 8
b0 '"
b0 3"
b0 D"
b0 )
b0 -"
b0 H"
b0 +
b0 ."
b0 G"
b0 ?
b0 C"
b0 l"
0-
0I
0D
0O
b0 6
b0 )"
b0 +"
b0 a"
b0 $
b0 !"
b0 *"
b0 l
b0 #"
b0 ("
b0 S"
b0 X"
b0 `"
b0 5
b0 ,"
b0 d"
b0 n"
0H
0,
b0 M
b0 e"
b0 v"
b0 k
b0 c"
b0 u"
b100000 t"
b1000000000000 $"
1!
#10000
0!
0"
#15000
b11 n
b11 |
b11 4"
1h
1.
b11 o
b11 {
b11 ~
1i
1/
b1010 X
b1010 >"
b1010 R"
b1010 (
b1010 2"
b1010 :"
b1010 p"
b1 7
b1 8"
b10011 B
b10011 }
b100000000000100010011 V
b100000000000100010011 K"
b100000000000100010011 O"
b1000 C
b1000 g"
b1000 i"
b100 <
b100 N"
b101000000000000010010011 W
b101000000000000010010011 L"
b101000000000000010010011 Q"
b1000 =
b1000 q
b1000 I"
b1000 f"
b100 @
b100 r
b100 J"
b100 P"
b100 j"
1!
#20000
0!
#25000
b1010 m
b1010 v
b1010 %"
b1000000001000001000000010110011 V
b1000000001000001000000010110011 K"
b1000000001000001000000010110011 O"
b1100 C
b1100 g"
b1100 i"
b1 X
b1 >"
b1 R"
b1 (
b1 2"
b1 :"
b1 p"
b10 7
b10 8"
b1011 A
b1011 u
b1011 z
b1010 &
b1010 s
b1010 _"
b1010 :
b1010 h"
b1010 m"
b1100 =
b1100 q
b1100 I"
b1100 f"
b1000 @
b1000 r
b1000 J"
b1000 P"
b1000 j"
b1000 <
b1000 N"
b100 >
b100 ="
b100 M"
b100000000000100010011 W
b100000000000100010011 L"
b100000000000100010011 Q"
b11 p
b11 y
b11 ?"
1j
10
b1010 Y
b1010 B"
b1010 ]"
b1010 k"
b1 8
b1 '"
b1 3"
b1 D"
b1010 )
b1010 -"
b1010 H"
1!
#30000
0!
#35000
b10 n
b10 |
b10 4"
0h
b1 m
b1 v
b1 %"
b10 o
b10 {
b10 ~
0i
b1010 %
b1010 &"
b1010 \"
b1010 ^"
b1 &
b1 s
b1 _"
b1 `
b1 0"
b1 Y"
b101 :
b101 h"
b101 m"
b0 X
b0 >"
b0 R"
b100000 \
b100000 6"
b10 (
b10 2"
b10 :"
b10 p"
b1 *
b1 1"
b1 9"
b1 o"
b1 7
b1 8"
b110011 B
b110011 }
b11111110000000001001111011100011 V
b11111110000000001001111011100011 K"
b11111110000000001001111011100011 O"
b10000 C
b10000 g"
b10000 i"
1-
b1 6
b1 )"
b1 +"
b1 a"
b1010 l
b1010 #"
b1010 ("
b1010 S"
b1010 X"
b1010 `"
b1 Y
b1 B"
b1 ]"
b1 k"
b10 8
b10 '"
b10 3"
b10 D"
b1 )
b1 -"
b1 H"
b100 ?
b100 C"
b100 l"
b1100 <
b1100 N"
b1000 >
b1000 ="
b1000 M"
b1000000001000001000000010110011 W
b1000000001000001000000010110011 L"
b1000000001000001000000010110011 Q"
b10000 =
b10000 q
b10000 I"
b10000 f"
b1100 @
b1100 r
b1100 J"
b1100 P"
b1100 j"
1!
#40000
0!
#45000
1d
b1 n
b1 |
b1 4"
0.
1e
b1 o
b1 {
b1 ~
0/
b1001 m
b1001 v
b1001 %"
b1101111 V
b1101111 K"
b1101111 O"
b10100 C
b10100 g"
b10100 i"
b11111111111111111111111111111100 X
b11111111111111111111111111111100 >"
b11111111111111111111111111111100 R"
b1111111 \
b1111111 6"
b0 (
b0 2"
b0 :"
b0 p"
b1 ^
b1 5"
b11101 7
b11101 8"
b1100011 B
b1100011 }
b10 A
b10 u
b10 z
b1000 :
b1000 h"
b1000 m"
b1010 '
b1010 t
b1010 W"
b1 %
b1 &"
b1 \"
b1 ^"
b10 a
b10 /"
b10 T"
b1010 #
b1010 V"
b1010 ["
b1010 q"
b1010 w"
b10100 =
b10100 q
b10100 I"
b10100 f"
b10000 @
b10000 r
b10000 J"
b10000 P"
b10000 j"
b10000 <
b10000 N"
b1100 >
b1100 ="
b1100 M"
b11111110000000001001111011100011 W
b11111110000000001001111011100011 L"
b11111110000000001001111011100011 Q"
b10 p
b10 y
b10 ?"
0j
b100000 ]
b100000 w
b100000 A"
b0 Y
b0 B"
b0 ]"
b0 k"
b1 8
b1 '"
b1 3"
b1 D"
b10 )
b10 -"
b10 H"
b1 +
b1 ."
b1 G"
b1000 ?
b1000 C"
b1000 l"
b10 6
b10 )"
b10 +"
b10 a"
b1010 $
b1010 !"
b1010 *"
b1 l
b1 #"
b1 ("
b1 S"
b1 X"
b1 `"
b1 5
b1 ,"
b1 d"
b1 n"
1,
b1010 k
b1010 c"
b1010 u"
1!
#50000
0!
#55000
1b
1;
1S
0d
b100 n
b100 |
b100 4"
1.
b0 &
b0 s
b0 _"
b0 m
b0 v
b0 %"
1g
1T
0e
b100 o
b100 {
b100 ~
1/
b1 #
b1 V"
b1 ["
b1 q"
b1 w"
b1001 '
b1001 t
b1001 W"
b0 %
b0 &"
b0 \"
b0 ^"
b11100 A
b11100 u
b11100 z
b0 `
b0 0"
b0 Y"
b1 a
b1 /"
b1 T"
b0 X
b0 >"
b0 R"
b0 \
b0 6"
b0 *
b0 1"
b0 9"
b0 o"
b0 ^
b0 5"
b0 7
b0 8"
b1101111 B
b1101111 }
bx V
bx K"
bx O"
b1000 C
b1000 g"
b1000 i"
b10 5
b10 ,"
b10 d"
b10 n"
b1 k
b1 c"
b1 u"
b1 6
b1 )"
b1 +"
b1 a"
b1 $
b1 !"
b1 *"
b1001 l
b1001 #"
b1001 ("
b1001 S"
b1001 X"
b1001 `"
1f
b1 p
b1 y
b1 ?"
00
b1111111 ]
b1111111 w
b1111111 A"
b1 _
b1 x
b1 @"
b11111111111111111111111111111100 Y
b11111111111111111111111111111100 B"
b11111111111111111111111111111100 ]"
b11111111111111111111111111111100 k"
b11101 8
b11101 '"
b11101 3"
b11101 D"
b0 )
b0 -"
b0 H"
b1100 ?
b1100 C"
b1100 l"
b10100 <
b10100 N"
b10000 >
b10000 ="
b10000 M"
b1101111 W
b1101111 L"
b1101111 Q"
b11000 =
b11000 q
b11000 I"
b11000 f"
b10100 @
b10100 r
b10100 J"
b10100 P"
b10100 j"
1!
#60000
0!
#65000
0b
0;
0S
b0 n
b0 |
b0 4"
0.
0T
b0 o
b0 {
b0 ~
0/
b1100 C
b1100 g"
b1100 i"
0g
b1000000001000001000000010110011 V
b1000000001000001000000010110011 K"
b1000000001000001000000010110011 O"
b0 B
b0 }
b0 :
b0 h"
b0 m"
b1 A
b1 u
b1 z
b0 '
b0 t
b0 W"
b0 a
b0 /"
b0 T"
b1001 #
b1001 V"
b1001 ["
b1001 q"
b1001 w"
b1100 =
b1100 q
b1100 I"
b1100 f"
b1000 @
b1000 r
b1000 J"
b1000 P"
b1000 j"
b0 <
b0 N"
b0 >
b0 ="
b0 M"
b0 W
b0 L"
b0 Q"
b0 ]
b0 w
b0 A"
b0 _
b0 x
b0 @"
b0 Y
b0 B"
b0 ]"
b0 k"
b0 8
b0 '"
b0 3"
b0 D"
b0 +
b0 ."
b0 G"
b0 ?
b0 C"
b0 l"
0f
b0 p
b0 y
b0 ?"
0-
b11101 6
b11101 )"
b11101 +"
b11101 a"
b0 $
b0 !"
b0 *"
b0 l
b0 #"
b0 ("
b0 S"
b0 X"
b0 `"
b1 5
b1 ,"
b1 d"
b1 n"
b1001 k
b1001 c"
b1001 u"
1!
#70000
0!
#75000
b10 n
b10 |
b10 4"
1.
b1 1
b1 ;"
b1 r"
b1001 3
b1001 <"
b1001 s"
b10 o
b10 {
b10 ~
1/
b0 #
b0 V"
b0 ["
b0 q"
b0 w"
b100000 \
b100000 6"
b10 (
b10 2"
b10 :"
b10 p"
b1 *
b1 1"
b1 9"
b1 o"
b1 7
b1 8"
b110011 B
b110011 }
b11111110000000001001111011100011 V
b11111110000000001001111011100011 K"
b11111110000000001001111011100011 O"
b10000 C
b10000 g"
b10000 i"
b11101 5
b11101 ,"
b11101 d"
b11101 n"
0,
b0 k
b0 c"
b0 u"
b0 6
b0 )"
b0 +"
b0 a"
b1100 <
b1100 N"
b1000 >
b1000 ="
b1000 M"
b1000000001000001000000010110011 W
b1000000001000001000000010110011 L"
b1000000001000001000000010110011 Q"
b10000 =
b10000 q
b10000 I"
b10000 f"
b1100 @
b1100 r
b1100 J"
b1100 P"
b1100 j"
1!
#80000
0!
#85000
1d
b1 n
b1 |
b1 4"
0.
b0 1
b0 ;"
b0 r"
1e
b1 o
b1 {
b1 ~
0/
b1 &
b1 s
b1 _"
b1000 m
b1000 v
b1000 %"
b1101111 V
b1101111 K"
b1101111 O"
b10100 C
b10100 g"
b10100 i"
b11111111111111111111111111111100 X
b11111111111111111111111111111100 >"
b11111111111111111111111111111100 R"
b1111111 \
b1111111 6"
b0 (
b0 2"
b0 :"
b0 p"
b1 ^
b1 5"
b11101 7
b11101 8"
b1100011 B
b1100011 }
b10 A
b10 u
b10 z
b1 %
b1 &"
b1 \"
b1 ^"
b1001 '
b1001 t
b1001 W"
b1000 :
b1000 h"
b1000 m"
b10100 =
b10100 q
b10100 I"
b10100 f"
b10000 @
b10000 r
b10000 J"
b10000 P"
b10000 j"
b10000 <
b10000 N"
b1100 >
b1100 ="
b1100 M"
b11111110000000001001111011100011 W
b11111110000000001001111011100011 L"
b11111110000000001001111011100011 Q"
b10 p
b10 y
b10 ?"
10
b100000 ]
b100000 w
b100000 A"
b1 2
b1 F"
b1 Z"
b1001 4
b1001 E"
b1001 U"
b1 8
b1 '"
b1 3"
b1 D"
b10 )
b10 -"
b10 H"
b1 +
b1 ."
b1 G"
b1000 ?
b1000 C"
b1000 l"
b0 5
b0 ,"
b0 d"
b0 n"
1!
#90000
0!
#95000
1b
1;
1S
0d
b100 n
b100 |
b100 4"
1.
b0 m
b0 v
b0 %"
1g
b0 3
b0 <"
b0 s"
1T
0e
b100 o
b100 {
b100 ~
1/
b1000 '
b1000 t
b1000 W"
b11100 A
b11100 u
b11100 z
b0 &
b0 s
b0 _"
b0 %
b0 &"
b0 \"
b0 ^"
b1 a
b1 /"
b1 T"
b0 X
b0 >"
b0 R"
b0 \
b0 6"
b0 *
b0 1"
b0 9"
b0 o"
b0 ^
b0 5"
b0 7
b0 8"
b1101111 B
b1101111 }
bx V
bx K"
bx O"
b1000 C
b1000 g"
b1000 i"
1-
b1 6
b1 )"
b1 +"
b1 a"
b1 $
b1 !"
b1 *"
b1000 l
b1000 #"
b1000 ("
b1000 S"
b1000 X"
b1000 `"
1f
b1 p
b1 y
b1 ?"
00
b1111111 ]
b1111111 w
b1111111 A"
b1 _
b1 x
b1 @"
b11111111111111111111111111111100 Y
b11111111111111111111111111111100 B"
b11111111111111111111111111111100 ]"
b11111111111111111111111111111100 k"
b0 2
b0 F"
b0 Z"
b11101 8
b11101 '"
b11101 3"
b11101 D"
b0 )
b0 -"
b0 H"
b1100 ?
b1100 C"
b1100 l"
b10100 <
b10100 N"
b10000 >
b10000 ="
b10000 M"
b1101111 W
b1101111 L"
b1101111 Q"
b11000 =
b11000 q
b11000 I"
b11000 f"
b10100 @
b10100 r
b10100 J"
b10100 P"
b10100 j"
1!
#100000
0!
#105000
0b
0;
0S
b0 n
b0 |
b0 4"
0.
0T
b0 o
b0 {
b0 ~
0/
b1100 C
b1100 g"
b1100 i"
0g
b1000000001000001000000010110011 V
b1000000001000001000000010110011 K"
b1000000001000001000000010110011 O"
b0 B
b0 }
b0 :
b0 h"
b0 m"
b1 A
b1 u
b1 z
b0 '
b0 t
b0 W"
b0 a
b0 /"
b0 T"
b1000 #
b1000 V"
b1000 ["
b1000 q"
b1000 w"
b1100 =
b1100 q
b1100 I"
b1100 f"
b1000 @
b1000 r
b1000 J"
b1000 P"
b1000 j"
b0 <
b0 N"
b0 >
b0 ="
b0 M"
b0 W
b0 L"
b0 Q"
b0 ]
b0 w
b0 A"
b0 _
b0 x
b0 @"
b0 Y
b0 B"
b0 ]"
b0 k"
b0 4
b0 E"
b0 U"
b0 8
b0 '"
b0 3"
b0 D"
b0 +
b0 ."
b0 G"
b0 ?
b0 C"
b0 l"
0f
b0 p
b0 y
b0 ?"
0-
b11101 6
b11101 )"
b11101 +"
b11101 a"
b0 $
b0 !"
b0 *"
b0 l
b0 #"
b0 ("
b0 S"
b0 X"
b0 `"
b1 5
b1 ,"
b1 d"
b1 n"
1,
b1000 k
b1000 c"
b1000 u"
1!
#110000
0!
#115000
b10 n
b10 |
b10 4"
1.
b1 1
b1 ;"
b1 r"
b1000 3
b1000 <"
b1000 s"
b10 o
b10 {
b10 ~
1/
b0 #
b0 V"
b0 ["
b0 q"
b0 w"
b100000 \
b100000 6"
b10 (
b10 2"
b10 :"
b10 p"
b1 *
b1 1"
b1 9"
b1 o"
b1 7
b1 8"
b110011 B
b110011 }
b11111110000000001001111011100011 V
b11111110000000001001111011100011 K"
b11111110000000001001111011100011 O"
b10000 C
b10000 g"
b10000 i"
b11101 5
b11101 ,"
b11101 d"
b11101 n"
0,
b0 k
b0 c"
b0 u"
b0 6
b0 )"
b0 +"
b0 a"
b1100 <
b1100 N"
b1000 >
b1000 ="
b1000 M"
b1000000001000001000000010110011 W
b1000000001000001000000010110011 L"
b1000000001000001000000010110011 Q"
b10000 =
b10000 q
b10000 I"
b10000 f"
b1100 @
b1100 r
b1100 J"
b1100 P"
b1100 j"
1!
#120000
0!
#125000
1d
b1 n
b1 |
b1 4"
0.
b0 1
b0 ;"
b0 r"
1e
b1 o
b1 {
b1 ~
0/
b1 &
b1 s
b1 _"
b111 m
b111 v
b111 %"
b1101111 V
b1101111 K"
b1101111 O"
b10100 C
b10100 g"
b10100 i"
b11111111111111111111111111111100 X
b11111111111111111111111111111100 >"
b11111111111111111111111111111100 R"
b1111111 \
b1111111 6"
b0 (
b0 2"
b0 :"
b0 p"
b1 ^
b1 5"
b11101 7
b11101 8"
b1100011 B
b1100011 }
b10 A
b10 u
b10 z
b1 %
b1 &"
b1 \"
b1 ^"
b1000 '
b1000 t
b1000 W"
b1000 :
b1000 h"
b1000 m"
b10100 =
b10100 q
b10100 I"
b10100 f"
b10000 @
b10000 r
b10000 J"
b10000 P"
b10000 j"
b10000 <
b10000 N"
b1100 >
b1100 ="
b1100 M"
b11111110000000001001111011100011 W
b11111110000000001001111011100011 L"
b11111110000000001001111011100011 Q"
b10 p
b10 y
b10 ?"
10
b100000 ]
b100000 w
b100000 A"
b1 2
b1 F"
b1 Z"
b1000 4
b1000 E"
b1000 U"
b1 8
b1 '"
b1 3"
b1 D"
b10 )
b10 -"
b10 H"
b1 +
b1 ."
b1 G"
b1000 ?
b1000 C"
b1000 l"
b0 5
b0 ,"
b0 d"
b0 n"
1!
#130000
0!
