processor/scripts/riscv_core.vcd
$date
	Mon Apr  6 23:29:05 2026
$end
$version
	Icarus Verilog
$end
$timescale
	1ps
$end
$scope module tb_risc $end
$var reg 1 ! clk $end
$var reg 1 " rst $end
$scope module uut $end
$var wire 1 ! clk $end
$var wire 1 " rst $end
$var wire 32 # write_data_wb [31:0] $end
$var wire 32 $ write_data_mem [31:0] $end
$var wire 32 % src2_forwarded [31:0] $end
$var wire 32 & src2 [31:0] $end
$var wire 32 ' src1_forwarded [31:0] $end
$var wire 32 ( src1 [31:0] $end
$var wire 5 ) rs2_id [4:0] $end
$var wire 5 * rs2_ex [4:0] $end
$var wire 5 + rs1_id [4:0] $end
$var wire 5 , rs1_ex [4:0] $end
$var wire 1 - reg_write_wb $end
$var wire 1 . reg_write_mem $end
$var wire 1 / reg_write_id_mux $end
$var wire 1 0 reg_write_id $end
$var wire 1 1 reg_write_ex $end
$var wire 32 2 read_data_2_id [31:0] $end
$var wire 32 3 read_data_2_ex [31:0] $end
$var wire 32 4 read_data_1_id [31:0] $end
$var wire 32 5 read_data_1_ex [31:0] $end
$var wire 5 6 rd_wb [4:0] $end
$var wire 5 7 rd_mem [4:0] $end
$var wire 5 8 rd_id [4:0] $end
$var wire 5 9 rd_ex [4:0] $end
$var wire 1 : pc_write $end
$var wire 32 ; pc_target [31:0] $end
$var wire 1 < pc_src $end
$var wire 32 = pc_plus_4_id [31:0] $end
$var wire 32 > pc_plus_4 [31:0] $end
$var wire 32 ? pc_int_offset [31:0] $end
$var wire 32 @ pc_id [31:0] $end
$var wire 32 A pc_ex [31:0] $end
$var wire 32 B pc [31:0] $end
$var wire 6 C operation [5:0] $end
$var wire 7 D opcode_id [6:0] $end
$var wire 32 E next_pc [31:0] $end
$var wire 1 F mem_write_mem $end
$var wire 1 G mem_write_id_mux $end
$var wire 1 H mem_write_id $end
$var wire 1 I mem_write_ex $end
$var wire 1 J mem_to_reg_wb $end
$var wire 1 K mem_to_reg_mem $end
$var wire 1 L mem_to_reg_id_mux $end
$var wire 1 M mem_to_reg_id $end
$var wire 1 N mem_to_reg_ex $end
$var wire 32 O mem_result_wb [31:0] $end
$var wire 32 P mem_result_mem [31:0] $end
$var wire 1 Q mem_read_mem $end
$var wire 1 R mem_read_id_mux $end
$var wire 1 S mem_read_id $end
$var wire 1 T mem_read_ex $end
$var wire 1 U jump_id_mux $end
$var wire 1 V jump_id $end
$var wire 1 W jump_ex $end
$var wire 1 X jalr_sel_id_mux $end
$var wire 1 Y jalr_sel_id $end
$var wire 1 Z jalr_sel_ex $end
$var wire 32 [ instruction_code_if [31:0] $end
$var wire 32 \ instruction_code_id [31:0] $end
$var wire 32 ] imm_val_id [31:0] $end
$var wire 32 ^ imm_val_ex [31:0] $end
$var wire 1 _ if_id_write $end
$var wire 7 ` funct7_id [6:0] $end
$var wire 7 a funct7_ex [6:0] $end
$var wire 3 b funct3_id [2:0] $end
$var wire 3 c funct3_ex [2:0] $end
$var wire 2 d forwardB [1:0] $end
$var wire 2 e forwardA [1:0] $end
$var wire 1 f flush $end
$var wire 1 g control_mux_sel_id $end
$var wire 1 h branch_id_mux $end
$var wire 1 i branch_id $end
$var wire 1 j branch_ex $end
$var wire 1 k branch_condn_ex $end
$var wire 1 l alu_src_id_mux $end
$var wire 1 m alu_src_id $end
$var wire 1 n alu_src_ex $end
$var wire 32 o alu_result_wb [31:0] $end
$var wire 32 p alu_result_mem [31:0] $end
$var wire 32 q alu_result_ex [31:0] $end
$var wire 1 r alu_pc_sel_id_mux $end
$var wire 1 s alu_pc_sel_id $end
$var wire 1 t alu_pc_sel_ex $end
$var wire 3 u alu_op_id_mux [2:0] $end
$var wire 3 v alu_op_id [2:0] $end
$var wire 3 w alu_op_ex [2:0] $end
$var wire 1 x ID_EX_write $end
$scope module add_if $end
$var wire 32 y pc_plus_4 [31:0] $end
$var wire 32 z pc [31:0] $end
$upscope $end
$scope module alu1 $end
$var wire 32 { src2 [31:0] $end
$var wire 32 | src1 [31:0] $end
$var wire 6 } operation [5:0] $end
$var reg 32 ~ alu_result [31:0] $end
$var reg 1 k branch_condn $end
$upscope $end
$scope module alu_ctrl $end
$var wire 7 !" func7 [6:0] $end
$var wire 3 "" func3 [2:0] $end
$var wire 3 #" alu_op [2:0] $end
$var reg 6 $" operation [5:0] $end
$upscope $end
$scope module bd $end
$var wire 1 k branch_condn_ex $end
$var wire 1 f flush $end
$var wire 1 < pc_src $end
$var wire 1 W jump_ex $end
$var wire 1 j branch_ex $end
$upscope $end
$scope module cmux $end
$var wire 1 0 regWrite $end
$var wire 1 H memWrite $end
$var wire 1 M memToReg $end
$var wire 1 S memRead $end
$var wire 1 V jump $end
$var wire 1 Y jalr_sel $end
$var wire 1 g control_mux_sel $end
$var wire 1 i branch $end
$var wire 1 s alu_pc_sel $end
$var wire 1 m aluSrc $end
$var wire 3 %" aluOp [2:0] $end
$var reg 3 &" aluOp_mux_out [2:0] $end
$var reg 1 l aluSrc_mux_out $end
$var reg 1 r alu_pc_sel_out $end
$var reg 1 h branch_mux_out $end
$var reg 1 X jalr_sel_out $end
$var reg 1 U jump_mux_out $end
$var reg 1 R memRead_mux_out $end
$var reg 1 L memToReg_mux_out $end
$var reg 1 G memWrite_mux_out $end
$var reg 1 / regWrite_mux_out $end
$upscope $end
$scope module ctrl $end
$var wire 7 '" opcode [6:0] $end
$var reg 3 (" aluOp [2:0] $end
$var reg 1 m aluSrc $end
$var reg 1 s alu_pc_sel $end
$var reg 1 i branch $end
$var reg 1 Y jalr_sel $end
$var reg 1 V jump $end
$var reg 1 S memRead $end
$var reg 1 M memToReg $end
$var reg 1 H memWrite $end
$var reg 1 0 regWrite $end
$upscope $end
$scope module dmem $end
$var wire 1 ! clk $end
$var wire 1 " rst $end
$var wire 32 )" w_data [31:0] $end
$var wire 32 *" r_data [31:0] $end
$var wire 1 F mem_write $end
$var wire 1 Q mem_read $end
$var wire 32 +" addr [31:0] $end
$var integer 32 ," i [31:0] $end
$upscope $end
$scope module ex_mem1 $end
$var wire 32 -" alu_result_in [31:0] $end
$var wire 1 ! clk $end
$var wire 1 " rst $end
$var wire 32 ." write_data_in [31:0] $end
$var wire 1 1 reg_write_in $end
$var wire 5 /" rd_in [4:0] $end
$var wire 1 I mem_write_in $end
$var wire 1 N mem_to_reg_in $end
$var wire 1 T mem_read_in $end
$var reg 32 0" alu_result_out [31:0] $end
$var reg 1 Q mem_read_out $end
$var reg 1 K mem_to_reg_out $end
$var reg 1 F mem_write_out $end
$var reg 5 1" rd_out [4:0] $end
$var reg 1 . reg_write_out $end
$var reg 32 2" write_data_out [31:0] $end
$upscope $end
$scope module fwd $end
$var wire 5 3" ex_mem_rd [4:0] $end
$var wire 1 . ex_mem_reg_write $end
$var wire 1 - mem_wb_reg_write $end
$var wire 5 4" mem_wb_rd [4:0] $end
$var wire 5 5" id_ex_rs2 [4:0] $end
$var wire 5 6" id_ex_rs1 [4:0] $end
$var reg 2 7" forward_A [1:0] $end
$var reg 2 8" forward_B [1:0] $end
$upscope $end
$scope module hz $end
$var wire 5 9" rs1_id [4:0] $end
$var wire 5 :" rs2_id [4:0] $end
$var wire 5 ;" rd_ex [4:0] $end
$var wire 1 T MemRead_ex $end
$var reg 1 x ID_EX_write $end
$var reg 1 _ IF_ID_write $end
$var reg 1 : PC_Write $end
$var reg 1 g control_mux_sel $end
$upscope $end
$scope module id_ex1 $end
$var wire 3 <" aluOp_id [2:0] $end
$var wire 1 l aluSrc_id $end
$var wire 1 r alu_pc_sel_id $end
$var wire 1 h branch_id $end
$var wire 1 ! clk $end
$var wire 1 f flush $end
$var wire 3 =" funct3_id [2:0] $end
$var wire 7 >" funct7_id [6:0] $end
$var wire 1 X jalr_sel_id $end
$var wire 1 U jump_id $end
$var wire 1 R memRead_id $end
$var wire 1 L memToReg_id $end
$var wire 1 G memWrite_id $end
$var wire 5 ?" rd_id [4:0] $end
$var wire 1 / regWrite_id $end
$var wire 5 @" rs1_id [4:0] $end
$var wire 5 A" rs2_id [4:0] $end
$var wire 1 " rst $end
$var wire 1 g stall $end
$var wire 32 B" read_data2_id [31:0] $end
$var wire 32 C" read_data1_id [31:0] $end
$var wire 32 D" pc_id [31:0] $end
$var wire 32 E" imm_val_id [31:0] $end
$var reg 3 F" aluOp_ex [2:0] $end
$var reg 1 n aluSrc_ex $end
$var reg 1 t alu_pc_sel_ex $end
$var reg 1 j branch_ex $end
$var reg 3 G" funct3_ex [2:0] $end
$var reg 7 H" funct7_ex [6:0] $end
$var reg 32 I" imm_val_ex [31:0] $end
$var reg 1 Z jalr_sel_ex $end
$var reg 1 W jump_ex $end
$var reg 1 T memRead_ex $end
$var reg 1 N memToReg_ex $end
$var reg 1 I memWrite_ex $end
$var reg 32 J" pc_ex [31:0] $end
$var reg 5 K" rd_ex [4:0] $end
$var reg 32 L" read_data1_ex [31:0] $end
$var reg 32 M" read_data2_ex [31:0] $end
$var reg 1 1 regWrite_ex $end
$var reg 5 N" rs1_ex [4:0] $end
$var reg 5 O" rs2_ex [4:0] $end
$upscope $end
$scope module if_id_reg $end
$var wire 1 _ IF_ID_write $end
$var wire 1 f IF_flush $end
$var wire 32 P" IF_pcplus4 [31:0] $end
$var wire 1 ! clk $end
$var wire 1 " rst $end
$var wire 32 Q" IF_pc [31:0] $end
$var wire 32 R" IF_instr [31:0] $end
$var reg 32 S" Instr_ID [31:0] $end
$var reg 32 T" pc_ID [31:0] $end
$var reg 32 U" pc_plus_4_ID [31:0] $end
$upscope $end
$scope module imem_if $end
$var wire 32 V" instruction_code [31:0] $end
$var wire 32 W" pc [31:0] $end
$upscope $end
$scope module imm1 $end
$var wire 32 X" instruction [31:0] $end
$var reg 32 Y" imm_val [31:0] $end
$upscope $end
$scope module m1 $end
$var wire 32 Z" alu_result [31:0] $end
$var wire 2 [" forward_A [1:0] $end
$var wire 32 \" rd1 [31:0] $end
$var wire 32 ]" mem_result [31:0] $end
$var reg 32 ^" src1 [31:0] $end
$upscope $end
$scope module m2 $end
$var wire 32 _" alu_result [31:0] $end
$var wire 2 `" forward_B [1:0] $end
$var wire 32 a" rd2 [31:0] $end
$var wire 32 b" mem_result [31:0] $end
$var reg 32 c" src2 [31:0] $end
$upscope $end
$scope module m3 $end
$var wire 1 n alu_src $end
$var wire 32 d" imm [31:0] $end
$var wire 32 e" src2_in [31:0] $end
$var reg 32 f" src2 [31:0] $end
$upscope $end
$scope module m4 $end
$var wire 1 t alu_pc_sel $end
$var wire 32 g" pc [31:0] $end
$var wire 32 h" src1_in [31:0] $end
$var reg 32 i" src1 [31:0] $end
$upscope $end
$scope module m5 $end
$var wire 1 Z jalr_sel $end
$var wire 32 j" pc [31:0] $end
$var wire 32 k" read_data_1_ex [31:0] $end
$var reg 32 l" pc_offset_in [31:0] $end
$upscope $end
$scope module mem_wb1 $end
$var wire 32 m" alu_result_mem [31:0] $end
$var wire 1 ! clk $end
$var wire 1 K mem_to_reg_mem $end
$var wire 5 n" rd_mem [4:0] $end
$var wire 32 o" read_data_mem [31:0] $end
$var wire 1 . reg_write_mem $end
$var wire 1 " rst $end
$var reg 32 p" alu_result_wb [31:0] $end
$var reg 1 J mem_to_reg_wb $end
$var reg 5 q" rd_wb [4:0] $end
$var reg 32 r" read_data_wb [31:0] $end
$var reg 1 - reg_write_wb $end
$upscope $end
$scope module mux_if $end
$var wire 1 < PCSrc $end
$var wire 32 s" pc_plus_4 [31:0] $end
$var wire 32 t" next_pc [31:0] $end
$var wire 32 u" PCTarget [31:0] $end
$upscope $end
$scope module pc_if $end
$var wire 1 ! clk $end
$var wire 32 v" next_pc [31:0] $end
$var wire 1 : pc_write $end
$var wire 1 " rst $end
$var reg 32 w" pc [31:0] $end
$upscope $end
$scope module pco $end
$var wire 32 x" imm [31:0] $end
$var wire 32 y" pc_offset_in [31:0] $end
$var reg 32 z" pc_offset_out [31:0] $end
$upscope $end
$scope module rf $end
$var wire 1 ! clk $end
$var wire 5 {" rd [4:0] $end
$var wire 1 - reg_write $end
$var wire 5 |" rs1 [4:0] $end
$var wire 5 }" rs2 [4:0] $end
$var wire 1 " rst $end
$var wire 32 ~" write_data [31:0] $end
$var wire 32 !# read_data2 [31:0] $end
$var wire 32 "# read_data1 [31:0] $end
$var integer 32 ## i [31:0] $end
$upscope $end
$scope module wb_mux $end
$var wire 32 $# alu_result [31:0] $end
$var wire 1 J memToReg $end
$var wire 32 %# r_data [31:0] $end
$var wire 32 &# data_out [31:0] $end
$upscope $end
$upscope $end
$upscope $end
$enddefinitions $end
$comment Show the parameter values. $end
$dumpall
$end
#0
$dumpvars
bx &#
bx %#
bx $#
bx ##
bx "#
bx !#
bx ~"
bx }"
bx |"
bx {"
bx z"
bx y"
bx x"
bx w"
bx v"
bx u"
bx t"
bx s"
bx r"
bx q"
bx p"
bx o"
bx n"
bx m"
bx l"
bx k"
bx j"
bx i"
bx h"
bx g"
bx f"
bx e"
bx d"
bx c"
bx b"
bx a"
bx `"
bx _"
bx ^"
bx ]"
bx \"
bx ["
bx Z"
bx Y"
bx X"
bx W"
bx V"
bx U"
bx T"
bx S"
bx R"
bx Q"
bx P"
bx O"
bx N"
bx M"
bx L"
bx K"
bx J"
bx I"
bx H"
bx G"
bx F"
bx E"
bx D"
bx C"
bx B"
bx A"
bx @"
bx ?"
bx >"
bx ="
bx <"
bx ;"
bx :"
bx 9"
bx 8"
bx 7"
bx 6"
bx 5"
bx 4"
bx 3"
bx 2"
bx 1"
bx 0"
bx /"
bx ."
bx -"
bx ,"
bx +"
bx *"
bx )"
bx ("
bx '"
bx &"
bx %"
bx $"
bx #"
bx ""
bx !"
bx ~
bx }
bx |
bx {
bx z
bx y
xx
bx w
bx v
bx u
xt
xs
xr
bx q
bx p
bx o
xn
xm
xl
xk
xj
xi
xh
xg
xf
bx e
bx d
bx c
bx b
bx a
bx `
x_
bx ^
bx ]
bx \
bx [
xZ
xY
xX
xW
xV
xU
xT
xS
xR
xQ
bx P
bx O
xN
xM
xL
xK
xJ
xI
xH
xG
xF
bx E
bx D
bx C
bx B
bx A
bx @
bx ?
bx >
bx =
x<
bx ;
x:
bx 9
bx 8
bx 7
bx 6
bx 5
bx 4
bx 3
bx 2
x1
x0
x/
x.
x-
bx ,
bx +
bx *
bx )
bx (
bx '
bx &
bx %
bx $
bx #
1"
0!
$end
#5000
0r
0X
0U
0L
0R
0G
0h
b0 u
b0 &"
b0 <"
0l
0/
0f
0<
b0 2
b0 B"
b0 !#
b0 4
b0 C"
b0 "#
0s
0Y
0V
0M
0S
0H
0i
b0 v
b0 %"
b0 ("
0m
00
b0 q
b0 ~
b0 -"
0k
b10010011 [
b10010011 R"
b10010011 V"
b100 E
b100 t"
b100 v"
b0 ]
b0 E"
b0 Y"
b0 `
b0 >"
b0 )
b0 :"
b0 A"
b0 }"
b0 +
b0 9"
b0 @"
b0 |"
b0 b
b0 ="
b0 8
b0 ?"
b0 D
b0 '"
b1 C
b1 }
b1 $"
b0 &
b0 {
b0 f"
b0 ;
b0 u"
b0 z"
0g
1x
1_
1:
b0 '
b0 |
b0 i"
b0 ?
b0 l"
b0 y"
b0 P
b0 *"
b0 o"
b0 (
b0 ^"
b0 h"
b0 %
b0 ."
b0 c"
b0 e"
b0 d
b0 8"
b0 `"
b0 e
b0 7"
b0 ["
b0 #
b0 ]"
b0 b"
b0 ~"
b0 &#
b100 >
b100 y
b100 P"
b100 s"
b0 B
b0 z
b0 Q"
b0 W"
b0 w"
b0 =
b0 U"
b0 @
b0 D"
b0 T"
b0 \
b0 S"
b0 X"
0t
0Z
0W
0N
0T
0I
0j
b0 w
b0 #"
b0 F"
0n
01
b0 a
b0 !"
b0 H"
b0 c
b0 ""
b0 G"
b0 ^
b0 I"
b0 d"
b0 x"
b0 3
b0 M"
b0 a"
b0 5
b0 L"
b0 \"
b0 k"
b0 9
b0 /"
b0 ;"
b0 K"
b0 *
b0 5"
b0 O"
b0 ,
b0 6"
b0 N"
b0 A
b0 J"
b0 g"
b0 j"
0.
0K
0F
0Q
b0 7
b0 1"
b0 3"
b0 n"
b0 $
b0 )"
b0 2"
b0 p
b0 +"
b0 0"
b0 Z"
b0 _"
b0 m"
b0 6
b0 4"
b0 q"
b0 {"
0J
0-
b0 O
b0 r"
b0 %#
b0 o
b0 p"
b0 $#
b100000 ##
b1000000000000 ,"
1!
#10000
0!
0"
#15000
b11 u
b11 &"
b11 <"
1l
1/
b11 v
b11 %"
b11 ("
1m
10
b1 8
b1 ?"
b10011 D
b10011 '"
b100000000000100010011 [
b100000000000100010011 R"
b100000000000100010011 V"
b1000 E
b1000 t"
b1000 v"
b100 =
b100 U"
b10010011 \
b10010011 S"
b10010011 X"
b1000 >
b1000 y
b1000 P"
b1000 s"
b100 B
b100 z
b100 Q"
b100 W"
b100 w"
1!
#20000
0!
#25000
b10100000000000110010011 [
b10100000000000110010011 R"
b10100000000000110010011 V"
b1100 E
b1100 t"
b1100 v"
b1 ]
b1 E"
b1 Y"
b1 )
b1 :"
b1 A"
b1 }"
b10 8
b10 ?"
b1011 C
b1011 }
b1011 $"
b1100 >
b1100 y
b1100 P"
b1100 s"
b1000 B
b1000 z
b1000 Q"
b1000 W"
b1000 w"
b1000 =
b1000 U"
b100 @
b100 D"
b100 T"
b100000000000100010011 \
b100000000000100010011 S"
b100000000000100010011 X"
b11 w
b11 #"
b11 F"
1n
11
b1 9
b1 /"
b1 ;"
b1 K"
1!
#30000
0!
#35000
b1 q
b1 ~
b1 -"
b1 &
b1 {
b1 f"
b101 ;
b101 u"
b101 z"
b1 d
b1 8"
b1 `"
b100 ?
b100 l"
b100 y"
b101 ]
b101 E"
b101 Y"
b101 )
b101 :"
b101 A"
b101 }"
b11 8
b11 ?"
b1000010011 [
b1000010011 R"
b1000010011 V"
b10000 E
b10000 t"
b10000 v"
1.
b1 7
b1 1"
b1 3"
b1 n"
b1 ^
b1 I"
b1 d"
b1 x"
b10 9
b10 /"
b10 ;"
b10 K"
b1 *
b1 5"
b1 O"
b100 A
b100 J"
b100 g"
b100 j"
b1100 =
b1100 U"
b1000 @
b1000 D"
b1000 T"
b10100000000000110010011 \
b10100000000000110010011 S"
b10100000000000110010011 X"
b10000 >
b10000 y
b10000 P"
b10000 s"
b1100 B
b1100 z
b1100 Q"
b1100 W"
b1100 w"
1!
#40000
0!
#45000
b101 q
b101 ~
b101 -"
b110010000000000010100010011 [
b110010000000000010100010011 R"
b110010000000000010100010011 V"
b10100 E
b10100 t"
b10100 v"
b0 ]
b0 E"
b0 Y"
b0 )
b0 :"
b0 A"
b0 }"
b100 8
b100 ?"
b101 &
b101 {
b101 f"
b1101 ;
b1101 u"
b1101 z"
b1000 ?
b1000 l"
b1000 y"
b0 d
b0 8"
b0 `"
b10100 >
b10100 y
b10100 P"
b10100 s"
b10000 B
b10000 z
b10000 Q"
b10000 W"
b10000 w"
b10000 =
b10000 U"
b1100 @
b1100 D"
b1100 T"
b1000010011 \
b1000010011 S"
b1000010011 X"
b101 ^
b101 I"
b101 d"
b101 x"
b11 9
b11 /"
b11 ;"
b11 K"
b101 *
b101 5"
b101 O"
b1000 A
b1000 J"
b1000 g"
b1000 j"
b10 7
b10 1"
b10 3"
b10 n"
b1 p
b1 +"
b1 0"
b1 Z"
b1 _"
b1 m"
b1 6
b1 4"
b1 q"
b1 {"
1-
1!
#50000
0!
#55000
b0 q
b0 ~
b0 -"
b1 #
b1 ]"
b1 b"
b1 ~"
b1 &#
b0 &
b0 {
b0 f"
b1100 ;
b1100 u"
b1100 z"
b1100 ?
b1100 l"
b1100 y"
b1100100 ]
b1100100 E"
b1100100 Y"
b11 `
b11 >"
b100 )
b100 :"
b100 A"
b100 }"
b1010 8
b1010 ?"
b101010010000000100011 [
b101010010000000100011 R"
b101010010000000100011 V"
b11000 E
b11000 t"
b11000 v"
b10 6
b10 4"
b10 q"
b10 {"
b1 o
b1 p"
b1 $#
b11 7
b11 1"
b11 3"
b11 n"
b101 p
b101 +"
b101 0"
b101 Z"
b101 _"
b101 m"
b0 ^
b0 I"
b0 d"
b0 x"
b100 9
b100 /"
b100 ;"
b100 K"
b0 *
b0 5"
b0 O"
b1100 A
b1100 J"
b1100 g"
b1100 j"
b10100 =
b10100 U"
b10000 @
b10000 D"
b10000 T"
b110010000000000010100010011 \
b110010000000000010100010011 S"
b110010000000000010100010011 X"
b11000 >
b11000 y
b11000 P"
b11000 s"
b10100 B
b10100 z
b10100 Q"
b10100 W"
b10100 w"
1!
#60000
0!
#65000
1G
b0 u
b0 &"
b0 <"
0/
1H
b0 v
b0 %"
b0 ("
00
b1100100 q
b1100100 ~
b1100100 -"
b1010010001100000011 [
b1010010001100000011 R"
b1010010001100000011 V"
b11100 E
b11100 t"
b11100 v"
b0 ]
b0 E"
b0 Y"
b0 `
b0 >"
b1 )
b1 :"
b1 A"
b1 }"
b1010 +
b1010 9"
b1010 @"
b1010 |"
b10 b
b10 ="
b0 8
b0 ?"
b100011 D
b100011 '"
b1011 C
b1011 }
b1011 $"
b1100100 &
b1100100 {
b1100100 f"
b1110100 ;
b1110100 u"
b1110100 z"
b10000 ?
b10000 l"
b10000 y"
b1 d
b1 8"
b1 `"
b101 #
b101 ]"
b101 b"
b101 ~"
b101 &#
b11100 >
b11100 y
b11100 P"
b11100 s"
b11000 B
b11000 z
b11000 Q"
b11000 W"
b11000 w"
b11000 =
b11000 U"
b10100 @
b10100 D"
b10100 T"
b101010010000000100011 \
b101010010000000100011 S"
b101010010000000100011 X"
b11 a
b11 !"
b11 H"
b1100100 ^
b1100100 I"
b1100100 d"
b1100100 x"
b1010 9
b1010 /"
b1010 ;"
b1010 K"
b100 *
b100 5"
b100 O"
b10000 A
b10000 J"
b10000 g"
b10000 j"
b100 7
b100 1"
b100 3"
b100 n"
b0 p
b0 +"
b0 0"
b0 Z"
b0 _"
b0 m"
b11 6
b11 4"
b11 q"
b11 {"
b101 o
b101 p"
b101 $#
1!
#70000
0!
#75000
1L
1R
0G
1/
b1100100 '
b1100100 |
b1100100 i"
b1100100 q
b1100100 ~
b1100100 -"
1M
1S
0H
10
b0 #
b0 ]"
b0 b"
b0 ~"
b0 &#
b1100100 (
b1100100 ^"
b1100100 h"
b1 C
b1 }
b1 $"
b0 &
b0 {
b0 f"
b10100 ;
b10100 u"
b10100 z"
b0 d
b0 8"
b0 `"
b1 e
b1 7"
b1 ["
b10100 ?
b10100 l"
b10100 y"
b0 )
b0 :"
b0 A"
b0 }"
b110 8
b110 ?"
b11 D
b11 '"
b10001010000010100010011 [
b10001010000010100010011 R"
b10001010000010100010011 V"
b100000 E
b100000 t"
b100000 v"
b100 6
b100 4"
b100 q"
b100 {"
b0 o
b0 p"
b0 $#
b1010 7
b1010 1"
b1010 3"
b1010 n"
b1100100 p
b1100100 +"
b1100100 0"
b1100100 Z"
b1100100 _"
b1100100 m"
1I
b0 w
b0 #"
b0 F"
01
b0 a
b0 !"
b0 H"
b10 c
b10 ""
b10 G"
b0 ^
b0 I"
b0 d"
b0 x"
b0 9
b0 /"
b0 ;"
b0 K"
b1 *
b1 5"
b1 O"
b1010 ,
b1010 6"
b1010 N"
b10100 A
b10100 J"
b10100 g"
b10100 j"
b11100 =
b11100 U"
b11000 @
b11000 D"
b11000 T"
b1010010001100000011 \
b1010010001100000011 S"
b1010010001100000011 X"
b100000 >
b100000 y
b100000 P"
b100000 s"
b11100 B
b11100 z
b11100 Q"
b11100 W"
b11100 w"
1!
#80000
0!
#85000
0L
0R
b11 u
b11 &"
b11 <"
0M
0S
b11 v
b11 %"
b11 ("
b11000 ;
b11000 u"
b11000 z"
b1000001000001010110011 [
b1000001000001010110011 R"
b1000001000001010110011 V"
b100100 E
b100100 t"
b100100 v"
b100 ]
b100 E"
b100 Y"
b100 )
b100 :"
b100 A"
b100 }"
b0 b
b0 ="
b1010 8
b1010 ?"
b10011 D
b10011 '"
b11000 ?
b11000 l"
b11000 y"
b10 e
b10 7"
b10 ["
b1100100 #
b1100100 ]"
b1100100 b"
b1100100 ~"
b1100100 &#
b100100 >
b100100 y
b100100 P"
b100100 s"
b100000 B
b100000 z
b100000 Q"
b100000 W"
b100000 w"
b100000 =
b100000 U"
b11100 @
b11100 D"
b11100 T"
b10001010000010100010011 \
b10001010000010100010011 S"
b10001010000010100010011 X"
1N
1T
0I
11
b110 9
b110 /"
b110 ;"
b110 K"
b0 *
b0 5"
b0 O"
b11000 A
b11000 J"
b11000 g"
b11000 j"
0.
1F
b0 7
b0 1"
b0 3"
b0 n"
b1010 6
b1010 4"
b1010 q"
b1010 {"
b1100100 o
b1100100 p"
b1100100 $#
1!
#90000
0!
#95000
b0 '
b0 |
b0 i"
b10 u
b10 &"
b10 <"
0l
b100 q
b100 ~
b100 -"
b0 (
b0 ^"
b0 h"
b1 2
b1 B"
b1 !#
b10 v
b10 %"
b10 ("
0m
b1011 C
b1011 }
b1011 $"
b100 &
b100 {
b100 f"
b100000 ;
b100000 u"
b100000 z"
b0 e
b0 7"
b0 ["
b11100 ?
b11100 l"
b11100 y"
b0 ]
b0 E"
b0 Y"
b10 )
b10 :"
b10 A"
b10 }"
b1 +
b1 9"
b1 @"
b1 |"
b101 8
b101 ?"
b110011 D
b110011 '"
b10000000010110011 [
b10000000010110011 R"
b10000000010110011 V"
b101000 E
b101000 t"
b101000 v"
b0 6
b0 4"
b0 q"
b0 {"
0-
1.
1K
0F
1Q
b110 7
b110 1"
b110 3"
b110 n"
0N
0T
b11 w
b11 #"
b11 F"
b0 c
b0 ""
b0 G"
b100 ^
b100 I"
b100 d"
b100 x"
b1010 9
b1010 /"
b1010 ;"
b1010 K"
b100 *
b100 5"
b100 O"
b11100 A
b11100 J"
b11100 g"
b11100 j"
b100100 =
b100100 U"
b100000 @
b100000 D"
b100000 T"
b1000001000001010110011 \
b1000001000001010110011 S"
b1000001000001010110011 X"
b101000 >
b101000 y
b101000 P"
b101000 s"
b100100 B
b100100 z
b100100 Q"
b100100 W"
b100100 w"
1!
#100000
0!
#105000
b0 2
b0 B"
b0 !#
b1 4
b1 C"
b1 "#
b1 q
b1 ~
b1 -"
b101000000100110011 [
b101000000100110011 R"
b101000000100110011 V"
b101100 E
b101100 t"
b101100 v"
b0 )
b0 :"
b0 A"
b0 }"
b10 +
b10 9"
b10 @"
b10 |"
b1 8
b1 ?"
b1 C
b1 }
b1 $"
b1 &
b1 {
b1 f"
b100000 ?
b100000 l"
b100000 y"
b1 %
b1 ."
b1 c"
b1 e"
b0 #
b0 ]"
b0 b"
b0 ~"
b0 &#
b101100 >
b101100 y
b101100 P"
b101100 s"
b101000 B
b101000 z
b101000 Q"
b101000 W"
b101000 w"
b101000 =
b101000 U"
b100100 @
b100100 D"
b100100 T"
b10000000010110011 \
b10000000010110011 S"
b10000000010110011 X"
b10 w
b10 #"
b10 F"
0n
b0 ^
b0 I"
b0 d"
b0 x"
b1 3
b1 M"
b1 a"
b101 9
b101 /"
b101 ;"
b101 K"
b10 *
b10 5"
b10 O"
b1 ,
b1 6"
b1 N"
b100000 A
b100000 J"
b100000 g"
b100000 j"
0K
0Q
b1010 7
b1010 1"
b1010 3"
b1010 n"
b100 p
b100 +"
b100 0"
b100 Z"
b100 _"
b100 m"
b110 6
b110 4"
b110 q"
b110 {"
1J
1-
1!
#110000
0!
#115000
b0 &
b0 {
b0 f"
b1 '
b1 |
b1 i"
b100100 ;
b100100 u"
b100100 z"
b0 4
b0 C"
b0 "#
b100 #
b100 ]"
b100 b"
b100 ~"
b100 &#
b0 %
b0 ."
b0 c"
b0 e"
b1 (
b1 ^"
b1 h"
b100100 ?
b100100 l"
b100100 y"
b101 +
b101 9"
b101 @"
b101 |"
b10 8
b10 ?"
b100100000001000010011 [
b100100000001000010011 R"
b100100000001000010011 V"
b110000 E
b110000 t"
b110000 v"
b1010 6
b1010 4"
b1010 q"
b1010 {"
0J
b100 o
b100 p"
b100 $#
b101 7
b101 1"
b101 3"
b101 n"
b1 $
b1 )"
b1 2"
b1 p
b1 +"
b1 0"
b1 Z"
b1 _"
b1 m"
b0 3
b0 M"
b0 a"
b1 5
b1 L"
b1 \"
b1 k"
b1 9
b1 /"
b1 ;"
b1 K"
b0 *
b0 5"
b0 O"
b10 ,
b10 6"
b10 N"
b100100 A
b100100 J"
b100100 g"
b100100 j"
b101100 =
b101100 U"
b101000 @
b101000 D"
b101000 T"
b101000000100110011 \
b101000000100110011 S"
b101000000100110011 X"
b110000 >
b110000 y
b110000 P"
b110000 s"
b101100 B
b101100 z
b101100 Q"
b101100 W"
b101100 w"
1!
#120000
0!
#125000
b11 u
b11 &"
b11 <"
1l
b11 v
b11 %"
b11 ("
1m
b101000 ;
b101000 u"
b101000 z"
b11111110001100100100001011100011 [
b11111110001100100100001011100011 R"
b11111110001100100100001011100011 V"
b110100 E
b110100 t"
b110100 v"
b1 ]
b1 E"
b1 Y"
b1 )
b1 :"
b1 A"
b1 }"
b100 +
b100 9"
b100 @"
b100 |"
b100 8
b100 ?"
b10011 D
b10011 '"
b101000 ?
b101000 l"
b101000 y"
b10 e
b10 7"
b10 ["
b1 #
b1 ]"
b1 b"
b1 ~"
b1 &#
b110100 >
b110100 y
b110100 P"
b110100 s"
b110000 B
b110000 z
b110000 Q"
b110000 W"
b110000 w"
b110000 =
b110000 U"
b101100 @
b101100 D"
b101100 T"
b100100000001000010011 \
b100100000001000010011 S"
b100100000001000010011 X"
b0 5
b0 L"
b0 \"
b0 k"
b10 9
b10 /"
b10 ;"
b10 K"
b101 ,
b101 6"
b101 N"
b101000 A
b101000 J"
b101000 g"
b101000 j"
b1 7
b1 1"
b1 3"
b1 n"
b0 $
b0 )"
b0 2"
b101 6
b101 4"
b101 q"
b101 {"
b1 o
b1 p"
b1 $#
1!
