processor/scripts/riscv_core.vcd
$date
	Fri Apr  3 14:00:39 2026
$end
$version
	Icarus Verilog
$end
$timescale
	1ps
$end
$scope module tb_risc $end
$var reg 1 ! clk $end
$var reg 1 " rst $end
$scope module uut $end
$var wire 1 ! clk $end
$var wire 1 " rst $end
$var wire 32 # write_data_wb [31:0] $end
$var wire 32 $ write_data_mem [31:0] $end
$var wire 32 % src2_forwarded [31:0] $end
$var wire 32 & src2 [31:0] $end
$var wire 32 ' src1 [31:0] $end
$var wire 5 ( rs2_id [4:0] $end
$var wire 5 ) rs2_ex [4:0] $end
$var wire 5 * rs1_id [4:0] $end
$var wire 5 + rs1_ex [4:0] $end
$var wire 1 , reg_write_wb $end
$var wire 1 - reg_write_mem $end
$var wire 1 . reg_write_id_mux $end
$var wire 1 / reg_write_id $end
$var wire 1 0 reg_write_ex $end
$var wire 32 1 read_data_2_id [31:0] $end
$var wire 32 2 read_data_2_ex [31:0] $end
$var wire 32 3 read_data_1_id [31:0] $end
$var wire 32 4 read_data_1_ex [31:0] $end
$var wire 5 5 rd_wb [4:0] $end
$var wire 5 6 rd_mem [4:0] $end
$var wire 5 7 rd_id [4:0] $end
$var wire 5 8 rd_ex [4:0] $end
$var wire 1 9 pc_write $end
$var wire 32 : pc_target [31:0] $end
$var wire 1 ; pc_src $end
$var wire 32 < pc_plus_4_id [31:0] $end
$var wire 32 = pc_plus_4 [31:0] $end
$var wire 32 > pc_id [31:0] $end
$var wire 32 ? pc_ex [31:0] $end
$var wire 32 @ pc [31:0] $end
$var wire 6 A operation [5:0] $end
$var wire 7 B opcode_id [6:0] $end
$var wire 32 C next_pc [31:0] $end
$var wire 1 D mem_write_mem $end
$var wire 1 E mem_write_id_mux $end
$var wire 1 F mem_write_id $end
$var wire 1 G mem_write_ex $end
$var wire 1 H mem_to_reg_wb $end
$var wire 1 I mem_to_reg_mem $end
$var wire 1 J mem_to_reg_id_mux $end
$var wire 1 K mem_to_reg_id $end
$var wire 1 L mem_to_reg_ex $end
$var wire 32 M mem_result_wb [31:0] $end
$var wire 32 N mem_result_mem [31:0] $end
$var wire 1 O mem_read_mem $end
$var wire 1 P mem_read_id_mux $end
$var wire 1 Q mem_read_id $end
$var wire 1 R mem_read_ex $end
$var wire 1 S jump_id_mux $end
$var wire 1 T jump_id $end
$var wire 1 U jump_ex $end
$var wire 32 V instruction_code_if [31:0] $end
$var wire 32 W instruction_code_id [31:0] $end
$var wire 32 X imm_val_id [31:0] $end
$var wire 32 Y imm_val_ex [31:0] $end
$var wire 1 Z if_id_write $end
$var wire 1 [ id_ex_write $end
$var wire 7 \ funct7_id [6:0] $end
$var wire 7 ] funct7_ex [6:0] $end
$var wire 3 ^ funct3_id [2:0] $end
$var wire 3 _ funct3_ex [2:0] $end
$var wire 2 ` forwardB [1:0] $end
$var wire 2 a forwardA [1:0] $end
$var wire 1 b flush $end
$var wire 1 c control_mux_sel_id $end
$var wire 1 d branch_id_mux $end
$var wire 1 e branch_id $end
$var wire 1 f branch_ex $end
$var wire 1 g branch_condn_ex $end
$var wire 1 h alu_src_id_mux $end
$var wire 1 i alu_src_id $end
$var wire 1 j alu_src_ex $end
$var wire 32 k alu_result_wb [31:0] $end
$var wire 32 l alu_result_mem [31:0] $end
$var wire 32 m alu_result_ex [31:0] $end
$var wire 3 n alu_op_id_mux [2:0] $end
$var wire 3 o alu_op_id [2:0] $end
$var wire 3 p alu_op_ex [2:0] $end
$scope module add_if $end
$var wire 32 q pc_plus_4 [31:0] $end
$var wire 32 r pc [31:0] $end
$upscope $end
$scope module alu1 $end
$var wire 32 s src2 [31:0] $end
$var wire 32 t src1 [31:0] $end
$var wire 6 u operation [5:0] $end
$var reg 32 v alu_result [31:0] $end
$var reg 1 g branch_condn $end
$upscope $end
$scope module alu_ctrl $end
$var wire 7 w func7 [6:0] $end
$var wire 3 x func3 [2:0] $end
$var wire 3 y alu_op [2:0] $end
$var reg 6 z operation [5:0] $end
$upscope $end
$scope module bd $end
$var wire 1 g branch_condn_ex $end
$var wire 1 b flush $end
$var wire 1 ; pc_src $end
$var wire 1 U jump_ex $end
$var wire 1 f branch_ex $end
$upscope $end
$scope module cmux $end
$var wire 1 / regWrite $end
$var wire 1 F memWrite $end
$var wire 1 K memToReg $end
$var wire 1 Q memRead $end
$var wire 1 T jump $end
$var wire 1 c control_mux_sel $end
$var wire 1 e branch $end
$var wire 1 i aluSrc $end
$var wire 3 { aluOp [2:0] $end
$var reg 3 | aluOp_mux_out [2:0] $end
$var reg 1 h aluSrc_mux_out $end
$var reg 1 d branch_mux_out $end
$var reg 1 S jump_mux_out $end
$var reg 1 P memRead_mux_out $end
$var reg 1 J memToReg_mux_out $end
$var reg 1 E memWrite_mux_out $end
$var reg 1 . regWrite_mux_out $end
$upscope $end
$scope module ctrl $end
$var wire 7 } opcode [6:0] $end
$var reg 3 ~ aluOp [2:0] $end
$var reg 1 i aluSrc $end
$var reg 1 e branch $end
$var reg 1 T jump $end
$var reg 1 Q memRead $end
$var reg 1 K memToReg $end
$var reg 1 F memWrite $end
$var reg 1 / regWrite $end
$upscope $end
$scope module dmem $end
$var wire 1 ! clk $end
$var wire 1 " rst $end
$var wire 32 !" w_data [31:0] $end
$var wire 32 "" r_data [31:0] $end
$var wire 1 D mem_write $end
$var wire 1 O mem_read $end
$var wire 32 #" addr [31:0] $end
$var integer 32 $" i [31:0] $end
$upscope $end
$scope module ex_mem1 $end
$var wire 32 %" alu_result_in [31:0] $end
$var wire 1 ! clk $end
$var wire 1 " rst $end
$var wire 32 &" write_data_in [31:0] $end
$var wire 1 0 reg_write_in $end
$var wire 5 '" rd_in [4:0] $end
$var wire 1 G mem_write_in $end
$var wire 1 L mem_to_reg_in $end
$var wire 1 R mem_read_in $end
$var reg 32 (" alu_result_out [31:0] $end
$var reg 1 O mem_read_out $end
$var reg 1 I mem_to_reg_out $end
$var reg 1 D mem_write_out $end
$var reg 5 )" rd_out [4:0] $end
$var reg 1 - reg_write_out $end
$var reg 32 *" write_data_out [31:0] $end
$upscope $end
$scope module fwd $end
$var wire 5 +" ex_mem_rd [4:0] $end
$var wire 1 - ex_mem_reg_write $end
$var wire 1 , mem_wb_reg_write $end
$var wire 5 ," mem_wb_rd [4:0] $end
$var wire 5 -" id_ex_rs2 [4:0] $end
$var wire 5 ." id_ex_rs1 [4:0] $end
$var reg 2 /" forward_A [1:0] $end
$var reg 2 0" forward_B [1:0] $end
$upscope $end
$scope module hz $end
$var wire 5 1" rs1_id [4:0] $end
$var wire 5 2" rs2_id [4:0] $end
$var wire 5 3" rd_ex [4:0] $end
$var wire 1 R MemRead_ex $end
$var reg 1 [ ID_EX_write $end
$var reg 1 Z IF_ID_write $end
$var reg 1 9 PC_Write $end
$var reg 1 c control_mux_sel $end
$upscope $end
$scope module id_ex1 $end
$var wire 3 4" aluOp_id [2:0] $end
$var wire 1 h aluSrc_id $end
$var wire 1 d branch_id $end
$var wire 1 ! clk $end
$var wire 1 b flush $end
$var wire 3 5" funct3_id [2:0] $end
$var wire 7 6" funct7_id [6:0] $end
$var wire 1 7" id_ex_write $end
$var wire 1 S jump_id $end
$var wire 1 P memRead_id $end
$var wire 1 J memToReg_id $end
$var wire 1 E memWrite_id $end
$var wire 5 8" rd_id [4:0] $end
$var wire 1 . regWrite_id $end
$var wire 5 9" rs1_id [4:0] $end
$var wire 5 :" rs2_id [4:0] $end
$var wire 1 " rst $end
$var wire 1 c stall $end
$var wire 32 ;" read_data2_id [31:0] $end
$var wire 32 <" read_data1_id [31:0] $end
$var wire 32 =" pc_id [31:0] $end
$var wire 32 >" imm_val_id [31:0] $end
$var reg 3 ?" aluOp_ex [2:0] $end
$var reg 1 j aluSrc_ex $end
$var reg 1 f branch_ex $end
$var reg 3 @" funct3_ex [2:0] $end
$var reg 7 A" funct7_ex [6:0] $end
$var reg 32 B" imm_val_ex [31:0] $end
$var reg 1 U jump_ex $end
$var reg 1 R memRead_ex $end
$var reg 1 L memToReg_ex $end
$var reg 1 G memWrite_ex $end
$var reg 32 C" pc_ex [31:0] $end
$var reg 5 D" rd_ex [4:0] $end
$var reg 32 E" read_data1_ex [31:0] $end
$var reg 32 F" read_data2_ex [31:0] $end
$var reg 1 0 regWrite_ex $end
$var reg 5 G" rs1_ex [4:0] $end
$var reg 5 H" rs2_ex [4:0] $end
$upscope $end
$scope module if_id_reg $end
$var wire 1 Z IF_ID_write $end
$var wire 1 b IF_flush $end
$var wire 32 I" IF_pcplus4 [31:0] $end
$var wire 1 ! clk $end
$var wire 1 " rst $end
$var wire 32 J" IF_pc [31:0] $end
$var wire 32 K" IF_instr [31:0] $end
$var reg 32 L" Instr_ID [31:0] $end
$var reg 32 M" pc_ID [31:0] $end
$var reg 32 N" pc_plus_4_ID [31:0] $end
$upscope $end
$scope module imem_if $end
$var wire 32 O" instruction_code [31:0] $end
$var wire 32 P" pc [31:0] $end
$upscope $end
$scope module imm1 $end
$var wire 32 Q" instruction [31:0] $end
$var reg 32 R" imm_val [31:0] $end
$upscope $end
$scope module m1 $end
$var wire 32 S" alu_result [31:0] $end
$var wire 2 T" forward_A [1:0] $end
$var wire 32 U" rd1 [31:0] $end
$var wire 32 V" mem_result [31:0] $end
$var reg 32 W" src1 [31:0] $end
$upscope $end
$scope module m2 $end
$var wire 32 X" alu_result [31:0] $end
$var wire 2 Y" forward_B [1:0] $end
$var wire 32 Z" rd2 [31:0] $end
$var wire 32 [" mem_result [31:0] $end
$var reg 32 \" src2 [31:0] $end
$upscope $end
$scope module m3 $end
$var wire 1 j alu_src $end
$var wire 32 ]" imm [31:0] $end
$var wire 32 ^" src2_in [31:0] $end
$var reg 32 _" src2 [31:0] $end
$upscope $end
$scope module mem_wb1 $end
$var wire 32 `" alu_result_mem [31:0] $end
$var wire 1 ! clk $end
$var wire 1 I mem_to_reg_mem $end
$var wire 5 a" rd_mem [4:0] $end
$var wire 32 b" read_data_mem [31:0] $end
$var wire 1 - reg_write_mem $end
$var wire 1 " rst $end
$var reg 32 c" alu_result_wb [31:0] $end
$var reg 1 H mem_to_reg_wb $end
$var reg 5 d" rd_wb [4:0] $end
$var reg 32 e" read_data_wb [31:0] $end
$var reg 1 , reg_write_wb $end
$upscope $end
$scope module mux_if $end
$var wire 1 ; PCSrc $end
$var wire 32 f" pc_plus_4 [31:0] $end
$var wire 32 g" next_pc [31:0] $end
$var wire 32 h" PCTarget [31:0] $end
$upscope $end
$scope module pc_if $end
$var wire 1 ! clk $end
$var wire 32 i" next_pc [31:0] $end
$var wire 1 9 pc_write $end
$var wire 1 " rst $end
$var reg 32 j" pc [31:0] $end
$upscope $end
$scope module pco $end
$var wire 32 k" imm [31:0] $end
$var wire 32 l" pc [31:0] $end
$var reg 32 m" pc_offset_out [31:0] $end
$upscope $end
$scope module rf $end
$var wire 1 ! clk $end
$var wire 5 n" rd [4:0] $end
$var wire 1 , reg_write $end
$var wire 5 o" rs1 [4:0] $end
$var wire 5 p" rs2 [4:0] $end
$var wire 1 " rst $end
$var wire 32 q" write_data [31:0] $end
$var wire 32 r" read_data2 [31:0] $end
$var wire 32 s" read_data1 [31:0] $end
$var integer 32 t" i [31:0] $end
$upscope $end
$scope module wb_mux $end
$var wire 32 u" alu_result [31:0] $end
$var wire 1 H mem_to_reg $end
$var wire 32 v" r_data [31:0] $end
$var wire 32 w" data_out [31:0] $end
$upscope $end
$upscope $end
$upscope $end
$enddefinitions $end
$comment Show the parameter values. $end
$dumpall
$end
#0
$dumpvars
bx w"
bx v"
bx u"
bx t"
bx s"
bx r"
bx q"
bx p"
bx o"
bx n"
bx m"
bx l"
bx k"
bx j"
bx i"
bx h"
bx g"
bx f"
bx e"
bx d"
bx c"
bx b"
bx a"
bx `"
bx _"
bx ^"
bx ]"
bx \"
bx ["
bx Z"
bx Y"
bx X"
bx W"
bx V"
bx U"
bx T"
bx S"
bx R"
bx Q"
bx P"
bx O"
bx N"
bx M"
bx L"
bx K"
bx J"
bx I"
bx H"
bx G"
bx F"
bx E"
bx D"
bx C"
bx B"
bx A"
bx @"
bx ?"
bx >"
bx ="
bx <"
bx ;"
bx :"
bx 9"
bx 8"
z7"
bx 6"
bx 5"
bx 4"
bx 3"
bx 2"
bx 1"
bx 0"
bx /"
bx ."
bx -"
bx ,"
bx +"
bx *"
bx )"
bx ("
bx '"
bx &"
bx %"
bx $"
bx #"
bx ""
bx !"
bx ~
bx }
bx |
bx {
bx z
bx y
bx x
bx w
bx v
bx u
bx t
bx s
bx r
bx q
bx p
bx o
bx n
bx m
bx l
bx k
xj
xi
xh
xg
xf
xe
xd
xc
xb
bx a
bx `
bx _
bx ^
bx ]
bx \
x[
xZ
bx Y
bx X
bx W
bx V
xU
xT
xS
xR
xQ
xP
xO
bx N
bx M
xL
xK
xJ
xI
xH
xG
xF
xE
xD
bx C
bx B
bx A
bx @
bx ?
bx >
bx =
bx <
x;
bx :
x9
bx 8
bx 7
bx 6
bx 5
bx 4
bx 3
bx 2
bx 1
x0
x/
x.
x-
x,
bx +
bx *
bx )
bx (
bx '
bx &
bx %
bx $
bx #
1"
0!
$end
#5000
0S
0J
0P
0E
0d
b0 n
b0 |
b0 4"
0h
0.
0b
0;
b0 1
b0 ;"
b0 r"
b0 3
b0 <"
b0 s"
0T
0K
0Q
0F
0e
b0 o
b0 {
b0 ~
0i
0/
b0 N
b0 ""
b0 b"
b0 m
b0 v
b0 %"
0g
b10100000000010100010011 V
b10100000000010100010011 K"
b10100000000010100010011 O"
b100 C
b100 g"
b100 i"
b0 X
b0 >"
b0 R"
b0 \
b0 6"
b0 (
b0 2"
b0 :"
b0 p"
b0 *
b0 1"
b0 9"
b0 o"
b0 ^
b0 5"
b0 7
b0 8"
b0 B
b0 }
b1 A
b1 u
b1 z
b0 &
b0 s
b0 _"
0c
1[
1Z
19
b0 :
b0 h"
b0 m"
b0 '
b0 t
b0 W"
b0 %
b0 &"
b0 \"
b0 ^"
b0 `
b0 0"
b0 Y"
b0 a
b0 /"
b0 T"
b0 #
b0 V"
b0 ["
b0 q"
b0 w"
b100 =
b100 q
b100 I"
b100 f"
b0 @
b0 r
b0 J"
b0 P"
b0 j"
b0 <
b0 N"
b0 >
b0 ="
b0 M"
b0 W
b0 L"
b0 Q"
0U
0L
0R
0G
0f
b0 p
b0 y
b0 ?"
0j
00
b0 ]
b0 w
b0 A"
b0 _
b0 x
b0 @"
b0 Y
b0 B"
b0 ]"
b0 k"
b0 2
b0 F"
b0 Z"
b0 4
b0 E"
b0 U"
b0 8
b0 '"
b0 3"
b0 D"
b0 )
b0 -"
b0 H"
b0 +
b0 ."
b0 G"
b0 ?
b0 C"
b0 l"
0-
0I
0D
0O
b0 6
b0 )"
b0 +"
b0 a"
b0 $
b0 !"
b0 *"
b0 l
b0 #"
b0 ("
b0 S"
b0 X"
b0 `"
b0 5
b0 ,"
b0 d"
b0 n"
0H
0,
b0 M
b0 e"
b0 v"
b0 k
b0 c"
b0 u"
b100000 t"
b1000000000000 $"
1!
#10000
0!
0"
#15000
b11 n
b11 |
b11 4"
1h
1.
b11 o
b11 {
b11 ~
1i
1/
b101 X
b101 >"
b101 R"
b101 (
b101 2"
b101 :"
b101 p"
b1010 7
b1010 8"
b10011 B
b10011 }
b1100010111 V
b1100010111 K"
b1100010111 O"
b1000 C
b1000 g"
b1000 i"
b100 <
b100 N"
b10100000000010100010011 W
b10100000000010100010011 L"
b10100000000010100010011 Q"
b1000 =
b1000 q
b1000 I"
b1000 f"
b100 @
b100 r
b100 J"
b100 P"
b100 j"
1!
#20000
0!
#25000
b111 n
b111 |
b111 4"
b111 o
b111 {
b111 ~
b101 m
b101 v
b101 %"
b1000000110000000011100111 V
b1000000110000000011100111 K"
b1000000110000000011100111 O"
b1100 C
b1100 g"
b1100 i"
b0 X
b0 >"
b0 R"
b0 (
b0 2"
b0 :"
b0 p"
b110 7
b110 8"
b10111 B
b10111 }
b1011 A
b1011 u
b1011 z
b101 &
b101 s
b101 _"
b101 :
b101 h"
b101 m"
b1100 =
b1100 q
b1100 I"
b1100 f"
b1000 @
b1000 r
b1000 J"
b1000 P"
b1000 j"
b1000 <
b1000 N"
b100 >
b100 ="
b100 M"
b1100010111 W
b1100010111 L"
b1100010111 Q"
b11 p
b11 y
b11 ?"
1j
10
b101 Y
b101 B"
b101 ]"
b101 k"
b1010 8
b1010 '"
b1010 3"
b1010 D"
b101 )
b101 -"
b101 H"
1!
#30000
0!
#35000
1S
b101 n
b101 |
b101 4"
b0 m
b0 v
b0 %"
1T
b101 o
b101 {
b101 ~
b1 A
b1 u
b1 z
b0 &
b0 s
b0 _"
b100 :
b100 h"
b100 m"
b10000 X
b10000 >"
b10000 R"
b10000 (
b10000 2"
b10000 :"
b10000 p"
b110 *
b110 1"
b110 9"
b110 o"
b1 7
b1 8"
b1100111 B
b1100111 }
b101000000000100010010011 V
b101000000000100010010011 K"
b101000000000100010010011 O"
b10000 C
b10000 g"
b10000 i"
1-
b1010 6
b1010 )"
b1010 +"
b1010 a"
b101 l
b101 #"
b101 ("
b101 S"
b101 X"
b101 `"
b111 p
b111 y
b111 ?"
b0 Y
b0 B"
b0 ]"
b0 k"
b110 8
b110 '"
b110 3"
b110 D"
b0 )
b0 -"
b0 H"
b100 ?
b100 C"
b100 l"
b1100 <
b1100 N"
b1000 >
b1000 ="
b1000 M"
b1000000110000000011100111 W
b1000000110000000011100111 L"
b1000000110000000011100111 Q"
b10000 =
b10000 q
b10000 I"
b10000 f"
b1100 @
b1100 r
b1100 J"
b1100 P"
b1100 j"
1!
#40000
0!
#45000
0S
b11 n
b11 |
b11 4"
1b
1;
0T
b11 o
b11 {
b11 ~
b10000 m
b10000 v
b10000 %"
b1110011 V
b1110011 K"
b1110011 O"
b11000 C
b11000 g"
b11000 i"
b1010 X
b1010 >"
b1010 R"
b1010 (
b1010 2"
b1010 :"
b1010 p"
b0 *
b0 1"
b0 9"
b0 o"
b10001 7
b10001 8"
b10011 B
b10011 }
b10000 &
b10000 s
b10000 _"
b11000 :
b11000 h"
b11000 m"
b1 a
b1 /"
b1 T"
b101 #
b101 V"
b101 ["
b101 q"
b101 w"
b10100 =
b10100 q
b10100 I"
b10100 f"
b10000 @
b10000 r
b10000 J"
b10000 P"
b10000 j"
b10000 <
b10000 N"
b1100 >
b1100 ="
b1100 M"
b101000000000100010010011 W
b101000000000100010010011 L"
b101000000000100010010011 Q"
1U
b101 p
b101 y
b101 ?"
b10000 Y
b10000 B"
b10000 ]"
b10000 k"
b1 8
b1 '"
b1 3"
b1 D"
b10000 )
b10000 -"
b10000 H"
b110 +
b110 ."
b110 G"
b1000 ?
b1000 C"
b1000 l"
b110 6
b110 )"
b110 +"
b110 a"
b0 l
b0 #"
b0 ("
b0 S"
b0 X"
b0 `"
b1010 5
b1010 ,"
b1010 d"
b1010 n"
1,
b101 k
b101 c"
b101 u"
1!
#50000
0!
#55000
0b
0;
b0 n
b0 |
b0 4"
0h
0.
b11100 C
b11100 g"
b11100 i"
b0 m
b0 v
b0 %"
b0 o
b0 {
b0 ~
0i
0/
b0 #
b0 V"
b0 ["
b0 q"
b0 w"
b0 a
b0 /"
b0 T"
b0 :
b0 h"
b0 m"
b0 &
b0 s
b0 _"
b0 X
b0 >"
b0 R"
b0 (
b0 2"
b0 :"
b0 p"
b0 7
b0 8"
b0 B
b0 }
b100010010111000100011 V
b100010010111000100011 K"
b100010010111000100011 O"
b110 5
b110 ,"
b110 d"
b110 n"
b0 k
b0 c"
b0 u"
b1 6
b1 )"
b1 +"
b1 a"
b10000 l
b10000 #"
b10000 ("
b10000 S"
b10000 X"
b10000 `"
b0 Y
b0 B"
b0 ]"
b0 k"
b0 8
b0 '"
b0 3"
b0 D"
b0 )
b0 -"
b0 H"
b0 +
b0 ."
b0 G"
b0 ?
b0 C"
b0 l"
0U
b0 p
b0 y
b0 ?"
0j
00
b0 <
b0 N"
b0 >
b0 ="
b0 M"
b0 W
b0 L"
b0 Q"
b11100 =
b11100 q
b11100 I"
b11100 f"
b11000 @
b11000 r
b11000 J"
b11000 P"
b11000 j"
1!
#60000
0!
#65000
1E
1h
1F
1i
b100000010010110000100011 V
b100000010010110000100011 K"
b100000010010110000100011 O"
b100000 C
b100000 g"
b100000 i"
b11100 X
b11100 >"
b11100 R"
b1 (
b1 2"
b1 :"
b1 p"
b10 *
b10 1"
b10 9"
b10 o"
b10 ^
b10 5"
b11100 7
b11100 8"
b100011 B
b100011 }
b10000 #
b10000 V"
b10000 ["
b10000 q"
b10000 w"
b100000 =
b100000 q
b100000 I"
b100000 f"
b11100 @
b11100 r
b11100 J"
b11100 P"
b11100 j"
b11100 <
b11100 N"
b11000 >
b11000 ="
b11000 M"
b100010010111000100011 W
b100010010111000100011 L"
b100010010111000100011 Q"
0-
b0 6
b0 )"
b0 +"
b0 a"
b0 l
b0 #"
b0 ("
b0 S"
b0 X"
b0 `"
b1 5
b1 ,"
b1 d"
b1 n"
b10000 k
b10000 c"
b10000 u"
1!
#70000
0!
#75000
b11100 m
b11100 v
b11100 %"
b0 #
b0 V"
b0 ["
b0 q"
b0 w"
b11100 &
b11100 s
b11100 _"
b110100 :
b110100 h"
b110100 m"
b11000 X
b11000 >"
b11000 R"
b1000 (
b1000 2"
b1000 :"
b1000 p"
b11000 7
b11000 8"
b10000000010000010000010011 V
b10000000010000010000010011 K"
b10000000010000010000010011 O"
b100100 C
b100100 g"
b100100 i"
b0 5
b0 ,"
b0 d"
b0 n"
0,
b0 k
b0 c"
b0 u"
1G
1j
b10 _
b10 x
b10 @"
b11100 Y
b11100 B"
b11100 ]"
b11100 k"
b11100 8
b11100 '"
b11100 3"
b11100 D"
b1 )
b1 -"
b1 H"
b10 +
b10 ."
b10 G"
b11000 ?
b11000 C"
b11000 l"
b100000 <
b100000 N"
b11100 >
b11100 ="
b11100 M"
b100000010010110000100011 W
b100000010010110000100011 L"
b100000010010110000100011 Q"
b100100 =
b100100 q
b100100 I"
b100100 f"
b100000 @
b100000 r
b100000 J"
b100000 P"
b100000 j"
1!
#80000
0!
#85000
0E
b11 n
b11 |
b11 4"
1.
0F
b11 o
b11 {
b11 ~
1/
b11000 m
b11000 v
b11000 %"
b11111110101001000010011000100011 V
b11111110101001000010011000100011 K"
b11111110101001000010011000100011 O"
b101000 C
b101000 g"
b101000 i"
b100000 X
b100000 >"
b100000 R"
b1 \
b1 6"
b0 (
b0 2"
b0 :"
b0 p"
b0 ^
b0 5"
b1000 7
b1000 8"
b10011 B
b10011 }
b11000 &
b11000 s
b11000 _"
b101000 =
b101000 q
b101000 I"
b101000 f"
b100100 @
b100100 r
b100100 J"
b100100 P"
b100100 j"
b100100 <
b100100 N"
b100000 >
b100000 ="
b100000 M"
b10000000010000010000010011 W
b10000000010000010000010011 L"
b10000000010000010000010011 Q"
b11000 Y
b11000 B"
b11000 ]"
b11000 k"
b11000 8
b11000 '"
b11000 3"
b11000 D"
b1000 )
b1000 -"
b1000 H"
b11100 ?
b11100 C"
b11100 l"
1D
b11100 6
b11100 )"
b11100 +"
b11100 a"
b11100 l
b11100 #"
b11100 ("
b11100 S"
b11100 X"
b11100 `"
1!
#90000
0!
#95000
1E
b0 n
b0 |
b0 4"
0.
b100000 m
b100000 v
b100000 %"
b101 1
b101 ;"
b101 r"
1F
b0 o
b0 {
b0 ~
0/
b11100 #
b11100 V"
b11100 ["
b11100 q"
b11100 w"
b1011 A
b1011 u
b1011 z
b100000 &
b100000 s
b100000 _"
b1000000 :
b1000000 h"
b1000000 m"
b11111111111111111111111111101100 X
b11111111111111111111111111101100 >"
b11111111111111111111111111101100 R"
b1111111 \
b1111111 6"
b1010 (
b1010 2"
b1010 :"
b1010 p"
b1000 *
b1000 1"
b1000 9"
b1000 o"
b10 ^
b10 5"
b1100 7
b1100 8"
b100011 B
b100011 }
b11111110110001000010011110000011 V
b11111110110001000010011110000011 K"
b11111110110001000010011110000011 O"
b101100 C
b101100 g"
b101100 i"
b11100 5
b11100 ,"
b11100 d"
b11100 n"
b11100 k
b11100 c"
b11100 u"
b11000 6
b11000 )"
b11000 +"
b11000 a"
b11000 l
b11000 #"
b11000 ("
b11000 S"
b11000 X"
b11000 `"
0G
b11 p
b11 y
b11 ?"
10
b1 ]
b1 w
b1 A"
b0 _
b0 x
b0 @"
b100000 Y
b100000 B"
b100000 ]"
b100000 k"
b1000 8
b1000 '"
b1000 3"
b1000 D"
b0 )
b0 -"
b0 H"
b100000 ?
b100000 C"
b100000 l"
b101000 <
b101000 N"
b100100 >
b100100 ="
b100100 M"
b11111110101001000010011000100011 W
b11111110101001000010011000100011 L"
b11111110101001000010011000100011 Q"
b101100 =
b101100 q
b101100 I"
b101100 f"
b101000 @
b101000 r
b101000 J"
b101000 P"
b101000 j"
1!
#100000
0!
#105000
1J
1P
0E
1.
b0 1
b0 ;"
b0 r"
1K
1Q
0F
1/
b1100 m
b1100 v
b1100 %"
b10111101111000011110110011 V
b10111101111000011110110011 K"
b10111101111000011110110011 O"
b110000 C
b110000 g"
b110000 i"
b1100 (
b1100 2"
b1100 :"
b1100 p"
b1111 7
b1111 8"
b11 B
b11 }
b1 A
b1 u
b1 z
b11111111111111111111111111101100 &
b11111111111111111111111111101100 s
b11111111111111111111111111101100 _"
b10000 :
b10000 h"
b10000 m"
b100000 '
b100000 t
b100000 W"
b101 %
b101 &"
b101 \"
b101 ^"
b1 a
b1 /"
b1 T"
b11000 #
b11000 V"
b11000 ["
b11000 q"
b11000 w"
b110000 =
b110000 q
b110000 I"
b110000 f"
b101100 @
b101100 r
b101100 J"
b101100 P"
b101100 j"
b101100 <
b101100 N"
b101000 >
b101000 ="
b101000 M"
b11111110110001000010011110000011 W
b11111110110001000010011110000011 L"
b11111110110001000010011110000011 Q"
1G
b0 p
b0 y
b0 ?"
00
b1111111 ]
b1111111 w
b1111111 A"
b10 _
b10 x
b10 @"
b11111111111111111111111111101100 Y
b11111111111111111111111111101100 B"
b11111111111111111111111111101100 ]"
b11111111111111111111111111101100 k"
b101 2
b101 F"
b101 Z"
b1100 8
b1100 '"
b1100 3"
b1100 D"
b1010 )
b1010 -"
b1010 H"
b1000 +
b1000 ."
b1000 G"
b100100 ?
b100100 C"
b100100 l"
1-
0D
b1000 6
b1000 )"
b1000 +"
b1000 a"
b100000 l
b100000 #"
b100000 ("
b100000 S"
b100000 X"
b100000 `"
b11000 5
b11000 ,"
b11000 d"
b11000 n"
b11000 k
b11000 c"
b11000 u"
1!
#110000
0!
#115000
b1100 m
b1100 v
b1100 %"
0J
0P
0h
0.
0K
0Q
b10 o
b10 {
b10 ~
0i
b100000 #
b100000 V"
b100000 ["
b100000 q"
b100000 w"
b100000 '
b100000 t
b100000 W"
b0 %
b0 &"
b0 \"
b0 ^"
1c
0[
0Z
09
b10 a
b10 /"
b10 T"
b10100 :
b10100 h"
b10100 m"
b0 X
b0 >"
b0 R"
b1 \
b1 6"
b1111 (
b1111 2"
b1111 :"
b1111 p"
b1111 *
b1111 1"
b1111 9"
b1111 o"
b0 ^
b0 5"
b110011 B
b110011 }
b1111000010100010011 V
b1111000010100010011 K"
b1111000010100010011 O"
b110100 C
b110100 g"
b110100 i"
b1000 5
b1000 ,"
b1000 d"
b1000 n"
1,
b100000 k
b100000 c"
b100000 u"
0-
1D
b1100 6
b1100 )"
b1100 +"
b1100 a"
b101 $
b101 !"
b101 *"
b1100 l
b1100 #"
b1100 ("
b1100 S"
b1100 X"
b1100 `"
1L
1R
0G
10
b0 2
b0 F"
b0 Z"
b1111 8
b1111 '"
b1111 3"
b1111 D"
b1100 )
b1100 -"
b1100 H"
b101000 ?
b101000 C"
b101000 l"
b110000 <
b110000 N"
b101100 >
b101100 ="
b101100 M"
b10111101111000011110110011 W
b10111101111000011110110011 L"
b10111101111000011110110011 Q"
b110100 =
b110100 q
b110100 I"
b110100 f"
b110000 @
b110000 r
b110000 J"
b110000 P"
b110000 j"
1!
#120000
0!
#125000
b10 n
b10 |
b10 4"
1.
b0 m
b0 v
b0 %"
b101 N
b101 ""
b101 b"
b0 '
b0 t
b0 W"
0c
1[
1Z
19
b0 &
b0 s
b0 _"
b0 a
b0 /"
b0 T"
b1100 #
b1100 V"
b1100 ["
b1100 q"
b1100 w"
0L
0R
0j
00
1-
1I
0D
1O
b1111 6
b1111 )"
b1111 +"
b1111 a"
b0 $
b0 !"
b0 *"
b1100 5
b1100 ,"
b1100 d"
b1100 n"
0,
b1100 k
b1100 c"
b1100 u"
1!
#130000
0!
