processor/rtl/riscv-core/waveform.vcd
$date
	Tue Mar 31 16:41:33 2026
$end
$version
	Icarus Verilog
$end
$timescale
	1ps
$end
$scope module tb_risc $end
$var reg 1 ! clk $end
$var reg 1 " rst $end
$scope module uut $end
$var wire 1 ! clk $end
$var wire 1 " rst $end
$var wire 32 # write_data_wb [31:0] $end
$var wire 32 $ write_data_mem [31:0] $end
$var wire 32 % src2_forwarded [31:0] $end
$var wire 32 & src2 [31:0] $end
$var wire 32 ' src1 [31:0] $end
$var wire 5 ( rs2_id [4:0] $end
$var wire 5 ) rs2_ex [4:0] $end
$var wire 5 * rs1_id [4:0] $end
$var wire 5 + rs1_ex [4:0] $end
$var wire 1 , reg_write_wb $end
$var wire 1 - reg_write_mem $end
$var wire 1 . reg_write_id_mux $end
$var wire 1 / reg_write_id $end
$var wire 1 0 reg_write_ex $end
$var wire 32 1 read_data_2_id [31:0] $end
$var wire 32 2 read_data_2_ex [31:0] $end
$var wire 32 3 read_data_1_id [31:0] $end
$var wire 32 4 read_data_1_ex [31:0] $end
$var wire 5 5 rd_wb [4:0] $end
$var wire 5 6 rd_mem [4:0] $end
$var wire 5 7 rd_id [4:0] $end
$var wire 5 8 rd_ex [4:0] $end
$var wire 1 9 pc_write $end
$var wire 32 : pc_target [31:0] $end
$var wire 1 ; pc_src $end
$var wire 32 < pc_plus_4_id [31:0] $end
$var wire 32 = pc_plus_4 [31:0] $end
$var wire 32 > pc_id [31:0] $end
$var wire 32 ? pc_ex [31:0] $end
$var wire 32 @ pc [31:0] $end
$var wire 6 A operation [5:0] $end
$var wire 7 B opcode_id [6:0] $end
$var wire 32 C next_pc [31:0] $end
$var wire 1 D mem_write_mem $end
$var wire 1 E mem_write_id_mux $end
$var wire 1 F mem_write_id $end
$var wire 1 G mem_write_ex $end
$var wire 1 H mem_to_reg_wb $end
$var wire 1 I mem_to_reg_mem $end
$var wire 1 J mem_to_reg_id_mux $end
$var wire 1 K mem_to_reg_id $end
$var wire 1 L mem_to_reg_ex $end
$var wire 32 M mem_result_wb [31:0] $end
$var wire 32 N mem_result_mem [31:0] $end
$var wire 1 O mem_read_mem $end
$var wire 1 P mem_read_id_mux $end
$var wire 1 Q mem_read_id $end
$var wire 1 R mem_read_ex $end
$var wire 1 S jump_id_mux $end
$var wire 1 T jump_id $end
$var wire 1 U jump_ex $end
$var wire 32 V instruction_code_if [31:0] $end
$var wire 32 W instruction_code_id [31:0] $end
$var wire 32 X imm_val_id [31:0] $end
$var wire 32 Y imm_val_ex [31:0] $end
$var wire 1 Z if_id_write $end
$var wire 7 [ funct7_id [6:0] $end
$var wire 7 \ funct7_ex [6:0] $end
$var wire 3 ] funct3_id [2:0] $end
$var wire 3 ^ funct3_ex [2:0] $end
$var wire 2 _ forwardB [1:0] $end
$var wire 2 ` forwardA [1:0] $end
$var wire 1 a flush $end
$var wire 1 b control_mux_sel_id $end
$var wire 1 c branch_id_mux $end
$var wire 1 d branch_id $end
$var wire 1 e branch_ex $end
$var wire 1 f branch_condn_ex $end
$var wire 1 g alu_src_id_mux $end
$var wire 1 h alu_src_id $end
$var wire 1 i alu_src_ex $end
$var wire 32 j alu_result_wb [31:0] $end
$var wire 32 k alu_result_mem [31:0] $end
$var wire 32 l alu_result_ex [31:0] $end
$var wire 3 m alu_op_id_mux [2:0] $end
$var wire 3 n alu_op_id [2:0] $end
$var wire 3 o alu_op_ex [2:0] $end
$scope module add_if $end
$var wire 32 p pc_plus_4 [31:0] $end
$var wire 32 q pc [31:0] $end
$upscope $end
$scope module alu1 $end
$var wire 32 r src2 [31:0] $end
$var wire 32 s src1 [31:0] $end
$var wire 6 t operation [5:0] $end
$var reg 32 u alu_result [31:0] $end
$var reg 1 f branch_condn $end
$upscope $end
$scope module alu_ctrl $end
$var wire 7 v func7 [6:0] $end
$var wire 3 w func3 [2:0] $end
$var wire 3 x alu_op [2:0] $end
$var reg 6 y operation [5:0] $end
$upscope $end
$scope module bd $end
$var wire 1 f branch_condn_ex $end
$var wire 1 a flush $end
$var wire 1 ; pc_src $end
$var wire 1 U jump_ex $end
$var wire 1 e branch_ex $end
$upscope $end
$scope module cmux $end
$var wire 1 / regWrite $end
$var wire 1 F memWrite $end
$var wire 1 K memToReg $end
$var wire 1 Q memRead $end
$var wire 1 T jump $end
$var wire 1 b control_mux_sel $end
$var wire 1 d branch $end
$var wire 1 h aluSrc $end
$var wire 3 z aluOp [2:0] $end
$var reg 3 { aluOp_mux_out [2:0] $end
$var reg 1 g aluSrc_mux_out $end
$var reg 1 c branch_mux_out $end
$var reg 1 S jump_mux_out $end
$var reg 1 P memRead_mux_out $end
$var reg 1 J memToReg_mux_out $end
$var reg 1 E memWrite_mux_out $end
$var reg 1 . regWrite_mux_out $end
$upscope $end
$scope module ctrl $end
$var wire 7 | opcode [6:0] $end
$var reg 3 } aluOp [2:0] $end
$var reg 1 h aluSrc $end
$var reg 1 d branch $end
$var reg 1 T jump $end
$var reg 1 Q memRead $end
$var reg 1 K memToReg $end
$var reg 1 F memWrite $end
$var reg 1 / regWrite $end
$upscope $end
$scope module dmem $end
$var wire 1 ! clk $end
$var wire 1 " rst $end
$var wire 32 ~ w_data [31:0] $end
$var wire 32 !" r_data [31:0] $end
$var wire 1 D mem_write $end
$var wire 1 O mem_read $end
$var wire 32 "" addr [31:0] $end
$var integer 32 #" i [31:0] $end
$upscope $end
$scope module ex_mem1 $end
$var wire 32 $" alu_result_in [31:0] $end
$var wire 1 ! clk $end
$var wire 1 " rst $end
$var wire 32 %" write_data_in [31:0] $end
$var wire 1 0 reg_write_in $end
$var wire 5 &" rd_in [4:0] $end
$var wire 1 G mem_write_in $end
$var wire 1 L mem_to_reg_in $end
$var wire 1 R mem_read_in $end
$var reg 32 '" alu_result_out [31:0] $end
$var reg 1 O mem_read_out $end
$var reg 1 I mem_to_reg_out $end
$var reg 1 D mem_write_out $end
$var reg 5 (" rd_out [4:0] $end
$var reg 1 - reg_write_out $end
$var reg 32 )" write_data_out [31:0] $end
$upscope $end
$scope module fwd $end
$var wire 5 *" ex_mem_rd [4:0] $end
$var wire 1 - ex_mem_reg_write $end
$var wire 1 , mem_wb_reg_write $end
$var wire 5 +" mem_wb_rd [4:0] $end
$var wire 5 ," id_ex_rs2 [4:0] $end
$var wire 5 -" id_ex_rs1 [4:0] $end
$var reg 2 ." forward_A [1:0] $end
$var reg 2 /" forward_B [1:0] $end
$upscope $end
$scope module hz $end
$var wire 5 0" rs1_id [4:0] $end
$var wire 5 1" rs2_id [4:0] $end
$var wire 5 2" rd_ex [4:0] $end
$var wire 1 R MemRead_ex $end
$var reg 1 Z IF_ID_write $end
$var reg 1 9 PC_Write $end
$var reg 1 b control_mux_sel $end
$upscope $end
$scope module id_ex1 $end
$var wire 3 3" aluOp_id [2:0] $end
$var wire 1 g aluSrc_id $end
$var wire 1 c branch_id $end
$var wire 1 ! clk $end
$var wire 1 a flush $end
$var wire 3 4" funct3_id [2:0] $end
$var wire 7 5" funct7_id [6:0] $end
$var wire 1 S jump_id $end
$var wire 1 P memRead_id $end
$var wire 1 J memToReg_id $end
$var wire 1 E memWrite_id $end
$var wire 5 6" rd_id [4:0] $end
$var wire 1 . regWrite_id $end
$var wire 5 7" rs1_id [4:0] $end
$var wire 5 8" rs2_id [4:0] $end
$var wire 1 " rst $end
$var wire 1 b stall $end
$var wire 32 9" read_data2_id [31:0] $end
$var wire 32 :" read_data1_id [31:0] $end
$var wire 32 ;" pc_id [31:0] $end
$var wire 32 <" imm_val_id [31:0] $end
$var reg 3 =" aluOp_ex [2:0] $end
$var reg 1 i aluSrc_ex $end
$var reg 1 e branch_ex $end
$var reg 3 >" funct3_ex [2:0] $end
$var reg 7 ?" funct7_ex [6:0] $end
$var reg 32 @" imm_val_ex [31:0] $end
$var reg 1 U jump_ex $end
$var reg 1 R memRead_ex $end
$var reg 1 L memToReg_ex $end
$var reg 1 G memWrite_ex $end
$var reg 32 A" pc_ex [31:0] $end
$var reg 5 B" rd_ex [4:0] $end
$var reg 32 C" read_data1_ex [31:0] $end
$var reg 32 D" read_data2_ex [31:0] $end
$var reg 1 0 regWrite_ex $end
$var reg 5 E" rs1_ex [4:0] $end
$var reg 5 F" rs2_ex [4:0] $end
$upscope $end
$scope module if_id_reg $end
$var wire 1 Z IF_ID_write $end
$var wire 1 a IF_flush $end
$var wire 32 G" IF_pcplus4 [31:0] $end
$var wire 1 ! clk $end
$var wire 1 " rst $end
$var wire 32 H" IF_pc [31:0] $end
$var wire 32 I" IF_instr [31:0] $end
$var reg 32 J" Instr_ID [31:0] $end
$var reg 32 K" pc_ID [31:0] $end
$var reg 32 L" pc_plus_4_ID [31:0] $end
$upscope $end
$scope module imem_if $end
$var wire 32 M" instruction_code [31:0] $end
$var wire 32 N" pc [31:0] $end
$upscope $end
$scope module imm1 $end
$var wire 32 O" instruction [31:0] $end
$var reg 32 P" imm_val [31:0] $end
$upscope $end
$scope module m1 $end
$var wire 32 Q" alu_result [31:0] $end
$var wire 2 R" forward_A [1:0] $end
$var wire 32 S" rd1 [31:0] $end
$var wire 32 T" mem_result [31:0] $end
$var reg 32 U" src1 [31:0] $end
$upscope $end
$scope module m2 $end
$var wire 32 V" alu_result [31:0] $end
$var wire 2 W" forward_B [1:0] $end
$var wire 32 X" rd2 [31:0] $end
$var wire 32 Y" mem_result [31:0] $end
$var reg 32 Z" src2 [31:0] $end
$upscope $end
$scope module m3 $end
$var wire 1 i alu_src $end
$var wire 32 [" imm [31:0] $end
$var wire 32 \" src2_in [31:0] $end
$var reg 32 ]" src2 [31:0] $end
$upscope $end
$scope module mem_wb1 $end
$var wire 32 ^" alu_result_mem [31:0] $end
$var wire 1 ! clk $end
$var wire 1 I mem_to_reg_mem $end
$var wire 5 _" rd_mem [4:0] $end
$var wire 32 `" read_data_mem [31:0] $end
$var wire 1 - reg_write_mem $end
$var wire 1 " rst $end
$var reg 32 a" alu_result_wb [31:0] $end
$var reg 1 H mem_to_reg_wb $end
$var reg 5 b" rd_wb [4:0] $end
$var reg 32 c" read_data_wb [31:0] $end
$var reg 1 , reg_write_wb $end
$upscope $end
$scope module mux_if $end
$var wire 1 ; PCSrc $end
$var wire 32 d" pc_plus_4 [31:0] $end
$var wire 32 e" next_pc [31:0] $end
$var wire 32 f" PCTarget [31:0] $end
$upscope $end
$scope module pc_if $end
$var wire 1 ! clk $end
$var wire 32 g" next_pc [31:0] $end
$var wire 1 9 pc_write $end
$var wire 1 " rst $end
$var reg 32 h" pc [31:0] $end
$upscope $end
$scope module pco $end
$var wire 32 i" imm [31:0] $end
$var wire 32 j" pc [31:0] $end
$var reg 32 k" pc_offset_out [31:0] $end
$upscope $end
$scope module rf $end
$var wire 1 ! clk $end
$var wire 5 l" rd [4:0] $end
$var wire 1 , reg_write $end
$var wire 5 m" rs1 [4:0] $end
$var wire 5 n" rs2 [4:0] $end
$var wire 1 " rst $end
$var wire 32 o" write_data [31:0] $end
$var wire 32 p" read_data2 [31:0] $end
$var wire 32 q" read_data1 [31:0] $end
$var integer 32 r" i [31:0] $end
$upscope $end
$scope module wb_mux $end
$var wire 32 s" alu_result [31:0] $end
$var wire 1 H mem_to_reg $end
$var wire 32 t" r_data [31:0] $end
$var wire 32 u" data_out [31:0] $end
$upscope $end
$upscope $end
$upscope $end
$enddefinitions $end
$comment Show the parameter values. $end
$dumpall
$end
#0
$dumpvars
bx u"
bx t"
bx s"
bx r"
bx q"
bx p"
bx o"
bx n"
bx m"
bx l"
bx k"
bx j"
bx i"
bx h"
bx g"
bx f"
bx e"
bx d"
bx c"
bx b"
bx a"
bx `"
bx _"
bx ^"
bx ]"
bx \"
bx ["
bx Z"
bx Y"
bx X"
bx W"
bx V"
bx U"
bx T"
bx S"
bx R"
bx Q"
bx P"
bx O"
bx N"
bx M"
bx L"
bx K"
bx J"
bx I"
bx H"
bx G"
bx F"
bx E"
bx D"
bx C"
bx B"
bx A"
bx @"
bx ?"
bx >"
bx ="
bx <"
bx ;"
bx :"
bx 9"
bx 8"
bx 7"
bx 6"
bx 5"
bx 4"
bx 3"
bx 2"
bx 1"
bx 0"
bx /"
bx ."
bx -"
bx ,"
bx +"
bx *"
bx )"
bx ("
bx '"
bx &"
bx %"
bx $"
bx #"
bx ""
bx !"
bx ~
bx }
bx |
bx {
bx z
bx y
bx x
bx w
bx v
bx u
bx t
bx s
bx r
bx q
bx p
bx o
bx n
bx m
bx l
bx k
bx j
xi
xh
xg
xf
xe
xd
xc
xb
xa
bx `
bx _
bx ^
bx ]
bx \
bx [
xZ
bx Y
bx X
bx W
bx V
xU
xT
xS
xR
xQ
xP
xO
bx N
bx M
xL
xK
xJ
xI
xH
xG
xF
xE
xD
bx C
bx B
bx A
bx @
bx ?
bx >
bx =
bx <
x;
bx :
x9
bx 8
bx 7
bx 6
bx 5
bx 4
bx 3
bx 2
bx 1
x0
x/
x.
x-
x,
bx +
bx *
bx )
bx (
bx '
bx &
bx %
bx $
bx #
1"
0!
$end
#5000
0S
0J
0P
0E
0c
b0 m
b0 {
b0 3"
0g
0.
0a
0;
b0 1
b0 9"
b0 p"
b0 3
b0 :"
b0 q"
0T
0K
0Q
0F
0d
b0 n
b0 z
b0 }
0h
0/
b0 l
b0 u
b0 $"
0f
b11000000000000100010011 V
b11000000000000100010011 I"
b11000000000000100010011 M"
b100 C
b100 e"
b100 g"
b0 X
b0 <"
b0 P"
b0 [
b0 5"
b0 (
b0 1"
b0 8"
b0 n"
b0 *
b0 0"
b0 7"
b0 m"
b0 ]
b0 4"
b0 7
b0 6"
b0 B
b0 |
b1 A
b1 t
b1 y
b0 &
b0 r
b0 %"
b0 ]"
0b
1Z
19
b0 :
b0 f"
b0 k"
b0 N
b0 !"
b0 `"
b0 '
b0 s
b0 U"
b0 %
b0 Z"
b0 \"
b0 _
b0 /"
b0 W"
b0 `
b0 ."
b0 R"
b0 #
b0 T"
b0 Y"
b0 o"
b0 u"
b100 =
b100 p
b100 G"
b100 d"
b0 @
b0 q
b0 H"
b0 N"
b0 h"
b0 <
b0 L"
b0 >
b0 ;"
b0 K"
b0 W
b0 J"
b0 O"
0U
0L
0R
0G
0e
b0 o
b0 x
b0 ="
0i
00
b0 \
b0 v
b0 ?"
b0 ^
b0 w
b0 >"
b0 Y
b0 @"
b0 ["
b0 i"
b0 2
b0 D"
b0 X"
b0 4
b0 C"
b0 S"
b0 8
b0 &"
b0 2"
b0 B"
b0 )
b0 ,"
b0 F"
b0 +
b0 -"
b0 E"
b0 ?
b0 A"
b0 j"
0-
0I
0D
0O
b0 6
b0 ("
b0 *"
b0 _"
b0 $
b0 ~
b0 )"
b0 k
b0 ""
b0 '"
b0 Q"
b0 V"
b0 ^"
b0 5
b0 +"
b0 b"
b0 l"
0H
0,
b0 M
b0 c"
b0 t"
b0 j
b0 a"
b0 s"
b100000 r"
b1000000000000 #"
1!
#10000
0!
0"
#15000
b11 m
b11 {
b11 3"
1g
1.
b11 n
b11 z
b11 }
1h
1/
b110 X
b110 <"
b110 P"
b110 (
b110 1"
b110 8"
b110 n"
b10 7
b10 6"
b10011 B
b10011 |
b1000011011000000100011 V
b1000011011000000100011 I"
b1000011011000000100011 M"
b1000 C
b1000 e"
b1000 g"
b100 <
b100 L"
b11000000000000100010011 W
b11000000000000100010011 J"
b11000000000000100010011 O"
b1000 =
b1000 p
b1000 G"
b1000 d"
b100 @
b100 q
b100 H"
b100 N"
b100 h"
1!
#20000
0!
#25000
1E
b0 m
b0 {
b0 3"
0.
1F
b0 n
b0 z
b0 }
0/
b110 l
b110 u
b110 $"
bx V
bx I"
bx M"
b1100 C
b1100 e"
b1100 g"
b0 X
b0 <"
b0 P"
b10 (
b10 1"
b10 8"
b10 n"
b11 *
b11 0"
b11 7"
b11 m"
b11 ]
b11 4"
b0 7
b0 6"
b100011 B
b100011 |
b1011 A
b1011 t
b1011 y
b110 &
b110 r
b110 %"
b110 ]"
b110 :
b110 f"
b110 k"
b1100 =
b1100 p
b1100 G"
b1100 d"
b1000 @
b1000 q
b1000 H"
b1000 N"
b1000 h"
b1000 <
b1000 L"
b100 >
b100 ;"
b100 K"
b1000011011000000100011 W
b1000011011000000100011 J"
b1000011011000000100011 O"
b11 o
b11 x
b11 ="
1i
10
b110 Y
b110 @"
b110 ["
b110 i"
b10 8
b10 &"
b10 2"
b10 B"
b110 )
b110 ,"
b110 F"
1!
#30000
0!
#35000
0E
0g
b0 l
b0 u
b0 $"
bx 1
bx 9"
bx p"
bx 3
bx :"
bx q"
0F
0h
b110 %
b110 Z"
b110 \"
b1 A
b1 t
b1 y
b0 &
b0 r
b0 %"
b0 ]"
b1 _
b1 /"
b1 W"
b100 :
b100 f"
b100 k"
bx [
bx 5"
bx (
bx 1"
bx 8"
bx n"
bx *
bx 0"
bx 7"
bx m"
bx ]
bx 4"
bx 7
bx 6"
bx B
bx |
b10000 C
b10000 e"
b10000 g"
1-
b10 6
b10 ("
b10 *"
b10 _"
b110 $
b110 ~
b110 )"
b110 k
b110 ""
b110 '"
b110 Q"
b110 V"
b110 ^"
1G
b0 o
b0 x
b0 ="
00
b11 ^
b11 w
b11 >"
b0 Y
b0 @"
b0 ["
b0 i"
b0 8
b0 &"
b0 2"
b0 B"
b10 )
b10 ,"
b10 F"
b11 +
b11 -"
b11 E"
b100 ?
b100 A"
b100 j"
b1100 <
b1100 L"
b1000 >
b1000 ;"
b1000 K"
bx W
bx J"
bx O"
b10000 =
b10000 p
b10000 G"
b10000 d"
b1100 @
b1100 q
b1100 H"
b1100 N"
b1100 h"
1!
#40000
0!
#45000
bx l
bx u
bx $"
b10100 C
b10100 e"
b10100 g"
bx &
bx r
bx %"
bx ]"
b1000 :
b1000 f"
b1000 k"
bx '
bx s
bx U"
bx %
bx Z"
bx \"
b0 _
b0 /"
b0 W"
b110 #
b110 T"
b110 Y"
b110 o"
b110 u"
b10100 =
b10100 p
b10100 G"
b10100 d"
b10000 @
b10000 q
b10000 H"
b10000 N"
b10000 h"
b10000 <
b10000 L"
b1100 >
b1100 ;"
b1100 K"
0G
0i
bx \
bx v
bx ?"
bx ^
bx w
bx >"
bx 2
bx D"
bx X"
bx 4
bx C"
bx S"
bx 8
bx &"
bx 2"
bx B"
bx )
bx ,"
bx F"
bx +
bx -"
bx E"
b1000 ?
b1000 A"
b1000 j"
0-
1D
b0 6
b0 ("
b0 *"
b0 _"
b0 $
b0 ~
b0 )"
b0 k
b0 ""
b0 '"
b0 Q"
b0 V"
b0 ^"
b10 5
b10 +"
b10 b"
b10 l"
1,
b110 j
b110 a"
b110 s"
1!
#50000
0!
#55000
b0 #
b0 T"
b0 Y"
b0 o"
b0 u"
b1100 :
b1100 f"
b1100 k"
b11000 C
b11000 e"
b11000 g"
b0 5
b0 +"
b0 b"
b0 l"
0,
b0 j
b0 a"
b0 s"
0D
bx 6
bx ("
bx *"
bx _"
bx $
bx ~
bx )"
bx k
bx ""
bx '"
bx Q"
bx V"
bx ^"
b1100 ?
b1100 A"
b1100 j"
b10100 <
b10100 L"
b10000 >
b10000 ;"
b10000 K"
b11000 =
b11000 p
b11000 G"
b11000 d"
b10100 @
b10100 q
b10100 H"
b10100 N"
b10100 h"
1!
#60000
0!
#65000
b11100 C
b11100 e"
b11100 g"
b10000 :
b10000 f"
b10000 k"
bx #
bx T"
bx Y"
bx o"
bx u"
b11100 =
b11100 p
b11100 G"
b11100 d"
b11000 @
b11000 q
b11000 H"
b11000 N"
b11000 h"
b11000 <
b11000 L"
b10100 >
b10100 ;"
b10100 K"
b10000 ?
b10000 A"
b10000 j"
bx 5
bx +"
bx b"
bx l"
bx j
bx a"
bx s"
1!
#70000
0!
#75000
b10100 :
b10100 f"
b10100 k"
b100000 C
b100000 e"
b100000 g"
b10100 ?
b10100 A"
b10100 j"
b11100 <
b11100 L"
b11000 >
b11000 ;"
b11000 K"
b100000 =
b100000 p
b100000 G"
b100000 d"
b11100 @
b11100 q
b11100 H"
b11100 N"
b11100 h"
1!
#80000
0!
#85000
b100100 C
b100100 e"
b100100 g"
b11000 :
b11000 f"
b11000 k"
b100100 =
b100100 p
b100100 G"
b100100 d"
b100000 @
b100000 q
b100000 H"
b100000 N"
b100000 h"
b100000 <
b100000 L"
b11100 >
b11100 ;"
b11100 K"
b11000 ?
b11000 A"
b11000 j"
1!
#90000
0!
#95000
b11100 :
b11100 f"
b11100 k"
b101000 C
b101000 e"
b101000 g"
b11100 ?
b11100 A"
b11100 j"
b100100 <
b100100 L"
b100000 >
b100000 ;"
b100000 K"
b101000 =
b101000 p
b101000 G"
b101000 d"
b100100 @
b100100 q
b100100 H"
b100100 N"
b100100 h"
1!
#100000
0!
#105000
b101100 C
b101100 e"
b101100 g"
b100000 :
b100000 f"
b100000 k"
b101100 =
b101100 p
b101100 G"
b101100 d"
b101000 @
b101000 q
b101000 H"
b101000 N"
b101000 h"
b101000 <
b101000 L"
b100100 >
b100100 ;"
b100100 K"
b100000 ?
b100000 A"
b100000 j"
1!
#110000
0!
#115000
b100100 :
b100100 f"
b100100 k"
b110000 C
b110000 e"
b110000 g"
b100100 ?
b100100 A"
b100100 j"
b101100 <
b101100 L"
b101000 >
b101000 ;"
b101000 K"
b110000 =
b110000 p
b110000 G"
b110000 d"
b101100 @
b101100 q
b101100 H"
b101100 N"
b101100 h"
1!
#120000
0!
#125000
b110100 C
b110100 e"
b110100 g"
b101000 :
b101000 f"
b101000 k"
b110100 =
b110100 p
b110100 G"
b110100 d"
b110000 @
b110000 q
b110000 H"
b110000 N"
b110000 h"
b110000 <
b110000 L"
b101100 >
b101100 ;"
b101100 K"
b101000 ?
b101000 A"
b101000 j"
1!
#130000
0!
#135000
b101100 :
b101100 f"
b101100 k"
b111000 C
b111000 e"
b111000 g"
b101100 ?
b101100 A"
b101100 j"
b110100 <
b110100 L"
b110000 >
b110000 ;"
b110000 K"
b111000 =
b111000 p
b111000 G"
b111000 d"
b110100 @
b110100 q
b110100 H"
b110100 N"
b110100 h"
1!
#140000
0!
#145000
b111100 C
b111100 e"
b111100 g"
b110000 :
b110000 f"
b110000 k"
b111100 =
b111100 p
b111100 G"
b111100 d"
b111000 @
b111000 q
b111000 H"
b111000 N"
b111000 h"
b111000 <
b111000 L"
b110100 >
b110100 ;"
b110100 K"
b110000 ?
b110000 A"
b110000 j"
1!
#150000
0!
#155000
b110100 :
b110100 f"
b110100 k"
b1000000 C
b1000000 e"
b1000000 g"
b110100 ?
b110100 A"
b110100 j"
b111100 <
b111100 L"
b111000 >
b111000 ;"
b111000 K"
b1000000 =
b1000000 p
b1000000 G"
b1000000 d"
b111100 @
b111100 q
b111100 H"
b111100 N"
b111100 h"
1!
#160000
0!
#165000
b1000100 C
b1000100 e"
b1000100 g"
b111000 :
b111000 f"
b111000 k"
b1000100 =
b1000100 p
b1000100 G"
b1000100 d"
b1000000 @
b1000000 q
b1000000 H"
b1000000 N"
b1000000 h"
b1000000 <
b1000000 L"
b111100 >
b111100 ;"
b111100 K"
b111000 ?
b111000 A"
b111000 j"
1!
#170000
0!
#175000
b111100 :
b111100 f"
b111100 k"
b1001000 C
b1001000 e"
b1001000 g"
b111100 ?
b111100 A"
b111100 j"
b1000100 <
b1000100 L"
b1000000 >
b1000000 ;"
b1000000 K"
b1001000 =
b1001000 p
b1001000 G"
b1001000 d"
b1000100 @
b1000100 q
b1000100 H"
b1000100 N"
b1000100 h"
1!
#180000
0!
#185000
b1001100 C
b1001100 e"
b1001100 g"
b1000000 :
b1000000 f"
b1000000 k"
b1001100 =
b1001100 p
b1001100 G"
b1001100 d"
b1001000 @
b1001000 q
b1001000 H"
b1001000 N"
b1001000 h"
b1001000 <
b1001000 L"
b1000100 >
b1000100 ;"
b1000100 K"
b1000000 ?
b1000000 A"
b1000000 j"
1!
#190000
0!
#195000
b1000100 :
b1000100 f"
b1000100 k"
b1010000 C
b1010000 e"
b1010000 g"
b1000100 ?
b1000100 A"
b1000100 j"
b1001100 <
b1001100 L"
b1001000 >
b1001000 ;"
b1001000 K"
b1010000 =
b1010000 p
b1010000 G"
b1010000 d"
b1001100 @
b1001100 q
b1001100 H"
b1001100 N"
b1001100 h"
1!
#200000
0!
#205000
b1010100 C
b1010100 e"
b1010100 g"
b1001000 :
b1001000 f"
b1001000 k"
b1010100 =
b1010100 p
b1010100 G"
b1010100 d"
b1010000 @
b1010000 q
b1010000 H"
b1010000 N"
b1010000 h"
b1010000 <
b1010000 L"
b1001100 >
b1001100 ;"
b1001100 K"
b1001000 ?
b1001000 A"
b1001000 j"
1!
#210000
0!
#215000
b1001100 :
b1001100 f"
b1001100 k"
b1011000 C
b1011000 e"
b1011000 g"
b1001100 ?
b1001100 A"
b1001100 j"
b1010100 <
b1010100 L"
b1010000 >
b1010000 ;"
b1010000 K"
b1011000 =
b1011000 p
b1011000 G"
b1011000 d"
b1010100 @
b1010100 q
b1010100 H"
b1010100 N"
b1010100 h"
1!
#220000
0!
#225000
b1011100 C
b1011100 e"
b1011100 g"
b1010000 :
b1010000 f"
b1010000 k"
b1011100 =
b1011100 p
b1011100 G"
b1011100 d"
b1011000 @
b1011000 q
b1011000 H"
b1011000 N"
b1011000 h"
b1011000 <
b1011000 L"
b1010100 >
b1010100 ;"
b1010100 K"
b1010000 ?
b1010000 A"
b1010000 j"
1!
#230000
0!
#235000
b1010100 :
b1010100 f"
b1010100 k"
b1100000 C
b1100000 e"
b1100000 g"
b1010100 ?
b1010100 A"
b1010100 j"
b1011100 <
b1011100 L"
b1011000 >
b1011000 ;"
b1011000 K"
b1100000 =
b1100000 p
b1100000 G"
b1100000 d"
b1011100 @
b1011100 q
b1011100 H"
b1011100 N"
b1011100 h"
1!
#240000
0!
#245000
b1100100 C
b1100100 e"
b1100100 g"
b1011000 :
b1011000 f"
b1011000 k"
b1100100 =
b1100100 p
b1100100 G"
b1100100 d"
b1100000 @
b1100000 q
b1100000 H"
b1100000 N"
b1100000 h"
b1100000 <
b1100000 L"
b1011100 >
b1011100 ;"
b1011100 K"
b1011000 ?
b1011000 A"
b1011000 j"
1!
#250000
0!
#255000
b1011100 :
b1011100 f"
b1011100 k"
b1101000 C
b1101000 e"
b1101000 g"
b1011100 ?
b1011100 A"
b1011100 j"
b1100100 <
b1100100 L"
b1100000 >
b1100000 ;"
b1100000 K"
b1101000 =
b1101000 p
b1101000 G"
b1101000 d"
b1100100 @
b1100100 q
b1100100 H"
b1100100 N"
b1100100 h"
1!
#260000
0!
#265000
b1101100 C
b1101100 e"
b1101100 g"
b1100000 :
b1100000 f"
b1100000 k"
b1101100 =
b1101100 p
b1101100 G"
b1101100 d"
b1101000 @
b1101000 q
b1101000 H"
b1101000 N"
b1101000 h"
b1101000 <
b1101000 L"
b1100100 >
b1100100 ;"
b1100100 K"
b1100000 ?
b1100000 A"
b1100000 j"
1!
#270000
0!
#275000
b1100100 :
b1100100 f"
b1100100 k"
b1110000 C
b1110000 e"
b1110000 g"
b1100100 ?
b1100100 A"
b1100100 j"
b1101100 <
b1101100 L"
b1101000 >
b1101000 ;"
b1101000 K"
b1110000 =
b1110000 p
b1110000 G"
b1110000 d"
b1101100 @
b1101100 q
b1101100 H"
b1101100 N"
b1101100 h"
1!
#280000
0!
#285000
b1110100 C
b1110100 e"
b1110100 g"
b1101000 :
b1101000 f"
b1101000 k"
b1110100 =
b1110100 p
b1110100 G"
b1110100 d"
b1110000 @
b1110000 q
b1110000 H"
b1110000 N"
b1110000 h"
b1110000 <
b1110000 L"
b1101100 >
b1101100 ;"
b1101100 K"
b1101000 ?
b1101000 A"
b1101000 j"
1!
#290000
0!
#295000
b1101100 :
b1101100 f"
b1101100 k"
b1111000 C
b1111000 e"
b1111000 g"
b1101100 ?
b1101100 A"
b1101100 j"
b1110100 <
b1110100 L"
b1110000 >
b1110000 ;"
b1110000 K"
b1111000 =
b1111000 p
b1111000 G"
b1111000 d"
b1110100 @
b1110100 q
b1110100 H"
b1110100 N"
b1110100 h"
1!
#300000
0!
#305000
b1111100 C
b1111100 e"
b1111100 g"
b1110000 :
b1110000 f"
b1110000 k"
b1111100 =
b1111100 p
b1111100 G"
b1111100 d"
b1111000 @
b1111000 q
b1111000 H"
b1111000 N"
b1111000 h"
b1111000 <
b1111000 L"
b1110100 >
b1110100 ;"
b1110100 K"
b1110000 ?
b1110000 A"
b1110000 j"
1!
#310000
0!
#315000
b1110100 :
b1110100 f"
b1110100 k"
b10000000 C
b10000000 e"
b10000000 g"
b1110100 ?
b1110100 A"
b1110100 j"
b1111100 <
b1111100 L"
b1111000 >
b1111000 ;"
b1111000 K"
b10000000 =
b10000000 p
b10000000 G"
b10000000 d"
b1111100 @
b1111100 q
b1111100 H"
b1111100 N"
b1111100 h"
1!
#320000
0!
#325000
b10000100 C
b10000100 e"
b10000100 g"
b1111000 :
b1111000 f"
b1111000 k"
b10000100 =
b10000100 p
b10000100 G"
b10000100 d"
b10000000 @
b10000000 q
b10000000 H"
b10000000 N"
b10000000 h"
b10000000 <
b10000000 L"
b1111100 >
b1111100 ;"
b1111100 K"
b1111000 ?
b1111000 A"
b1111000 j"
1!
#330000
0!
#335000
b1111100 :
b1111100 f"
b1111100 k"
b10001000 C
b10001000 e"
b10001000 g"
b1111100 ?
b1111100 A"
b1111100 j"
b10000100 <
b10000100 L"
b10000000 >
b10000000 ;"
b10000000 K"
b10001000 =
b10001000 p
b10001000 G"
b10001000 d"
b10000100 @
b10000100 q
b10000100 H"
b10000100 N"
b10000100 h"
1!
#340000
0!
