processor/rtl/ifu/dump.vcd
$date
	Sat Mar 28 23:14:51 2026
$end
$version
	Icarus Verilog
$end
$timescale
	1ps
$end
$scope module ifu_tb $end
$var wire 32 ! pc_plus_4_ID [31:0] $end
$var wire 32 " pc_ID [31:0] $end
$var wire 32 # Instr_ID [31:0] $end
$var reg 1 $ IF_ID_write $end
$var reg 1 % IF_flush $end
$var reg 1 & PCSrc $end
$var reg 32 ' PCTarget [31:0] $end
$var reg 1 ( PCWrite $end
$var reg 1 ) clk $end
$var reg 1 * rst $end
$scope module dut $end
$var wire 1 $ IF_ID_write $end
$var wire 1 % IF_flush $end
$var wire 32 + IF_instr [31:0] $end
$var wire 32 , IF_pc [31:0] $end
$var wire 32 - IF_pcplus4 [31:0] $end
$var wire 1 & PCSrc $end
$var wire 32 . PCTarget [31:0] $end
$var wire 1 ( PCWrite $end
$var wire 1 ) clk $end
$var wire 1 * rst $end
$var wire 32 / pc_plus_4_ID [31:0] $end
$var wire 32 0 pc_plus_4 [31:0] $end
$var wire 32 1 pc_ID [31:0] $end
$var wire 32 2 pc [31:0] $end
$var wire 32 3 next_pc [31:0] $end
$var wire 32 4 instruction_code [31:0] $end
$var wire 32 5 Instr_ID [31:0] $end
$scope module if_id_reg $end
$var wire 1 $ IF_ID_write $end
$var wire 1 % IF_flush $end
$var wire 32 6 IF_instr [31:0] $end
$var wire 32 7 IF_pc [31:0] $end
$var wire 32 8 IF_pcplus4 [31:0] $end
$var wire 1 ) clk $end
$var wire 1 * rst $end
$var reg 32 9 Instr_ID [31:0] $end
$var reg 32 : pc_ID [31:0] $end
$var reg 32 ; pc_plus_4_ID [31:0] $end
$upscope $end
$scope module imu $end
$var wire 32 < instruction_code [31:0] $end
$var wire 32 = pc [31:0] $end
$upscope $end
$scope module pc_adder $end
$var wire 32 > pc_plus_4 [31:0] $end
$var wire 32 ? pc [31:0] $end
$upscope $end
$scope module pc_mux $end
$var wire 1 & PCSrc $end
$var wire 32 @ PCTarget [31:0] $end
$var wire 32 A pc_plus_4 [31:0] $end
$var wire 32 B next_pc [31:0] $end
$upscope $end
$scope module program_counter $end
$var wire 1 ) clk $end
$var wire 32 C next_pc [31:0] $end
$var wire 1 ( pc_write $end
$var wire 1 * rst $end
$var reg 32 D pc [31:0] $end
$upscope $end
$upscope $end
$upscope $end
$enddefinitions $end
$comment Show the parameter values. $end
$dumpall
$end
#0
$dumpvars
bx D
bx C
bx B
bx A
b100 @
bx ?
bx >
bx =
bx <
bx ;
bx :
bx 9
bx 8
bx 7
bx 6
bx 5
bx 4
bx 3
bx 2
bx 1
bx 0
bx /
b100 .
bx -
bx ,
bx +
1*
0)
1(
b100 '
0&
0%
1$
bx #
bx "
bx !
$end
#50000
b100 3
b100 B
b100 C
b10111000010110111 +
b10111000010110111 6
b10111000010110111 4
b10111000010110111 <
bx !
bx /
bx ;
bx "
bx 1
bx :
bx #
bx 5
bx 9
b100 -
b100 8
b100 0
b100 >
b100 A
b0 ,
b0 7
b0 2
b0 =
b0 ?
b0 D
1)
#100000
0)
0*
#150000
b1000 3
b1000 B
b1000 C
b11000100110111 +
b11000100110111 6
b11000100110111 4
b11000100110111 <
b100 !
b100 /
b100 ;
b0 "
b0 1
b0 :
b10111000010110111 #
b10111000010110111 5
b10111000010110111 9
b1000 -
b1000 8
b1000 0
b1000 >
b1000 A
b100 ,
b100 7
b100 2
b100 =
b100 ?
b100 D
1)
#200000
0)
#250000
b1100 3
b1100 B
b1100 C
b100000110110111 +
b100000110110111 6
b100000110110111 4
b100000110110111 <
b1000 !
b1000 /
b1000 ;
b100 "
b100 1
b100 :
b11000100110111 #
b11000100110111 5
b11000100110111 9
b1100 -
b1100 8
b1100 0
b1100 >
b1100 A
b1000 ,
b1000 7
b1000 2
b1000 =
b1000 ?
b1000 D
1)
#300000
b100 3
b100 B
b100 C
0)
1&
#350000
b11000100110111 +
b11000100110111 6
b11000100110111 4
b11000100110111 <
b1100 !
b1100 /
b1100 ;
b1000 "
b1000 1
b1000 :
b100000110110111 #
b100000110110111 5
b100000110110111 9
b1000 -
b1000 8
b1000 0
b1000 >
b1000 A
b100 ,
b100 7
b100 2
b100 =
b100 ?
b100 D
1)
#400000
0)
#450000
b1000 !
b1000 /
b1000 ;
b100 "
b100 1
b100 :
b11000100110111 #
b11000100110111 5
b11000100110111 9
1)
#500000
b1000 3
b1000 B
b1000 C
0)
0&
#550000
b1100 3
b1100 B
b1100 C
b100000110110111 +
b100000110110111 6
b100000110110111 4
b100000110110111 <
b1100 -
b1100 8
b1100 0
b1100 >
b1100 A
b1000 ,
b1000 7
b1000 2
b1000 =
b1000 ?
b1000 D
1)
#600000
0)
#650000
b10000 3
b10000 B
b10000 C
b100010000000110110011 +
b100010000000110110011 6
b100010000000110110011 4
b100010000000110110011 <
b1100 !
b1100 /
b1100 ;
b1000 "
b1000 1
b1000 :
b100000110110111 #
b100000110110111 5
b100000110110111 9
b10000 -
b10000 8
b10000 0
b10000 >
b10000 A
b1100 ,
b1100 7
b1100 2
b1100 =
b1100 ?
b1100 D
1)
#700000
0)
0$
#750000
b10100 3
b10100 B
b10100 C
b1000000000100011000001010110011 +
b1000000000100011000001010110011 6
b1000000000100011000001010110011 4
b1000000000100011000001010110011 <
b10100 -
b10100 8
b10100 0
b10100 >
b10100 A
b10000 ,
b10000 7
b10000 2
b10000 =
b10000 ?
b10000 D
1)
#800000
0)
#850000
b11000 3
b11000 B
b11000 C
bx +
bx 6
bx 4
bx <
b11000 -
b11000 8
b11000 0
b11000 >
b11000 A
b10100 ,
b10100 7
b10100 2
b10100 =
b10100 ?
b10100 D
1)
#900000
0)
1$
#950000
b11100 3
b11100 B
b11100 C
b11000 !
b11000 /
b11000 ;
b10100 "
b10100 1
b10100 :
bx #
bx 5
bx 9
b11100 -
b11100 8
b11100 0
b11100 >
b11100 A
b11000 ,
b11000 7
b11000 2
b11000 =
b11000 ?
b11000 D
1)
#1000000
0)
#1050000
b100000 3
b100000 B
b100000 C
b11100 !
b11100 /
b11100 ;
b11000 "
b11000 1
b11000 :
b100000 -
b100000 8
b100000 0
b100000 >
b100000 A
b11100 ,
b11100 7
b11100 2
b11100 =
b11100 ?
b11100 D
1)
#1100000
0)
0(
#1150000
b100000 !
b100000 /
b100000 ;
b11100 "
b11100 1
b11100 :
1)
#1200000
0)
#1250000
1)
#1300000
0)
1%
1(
#1350000
b100100 3
b100100 B
b100100 C
b0 !
b0 /
b0 ;
b0 "
b0 1
b0 :
b0 #
b0 5
b0 9
b100100 -
b100100 8
b100100 0
b100100 >
b100100 A
b100000 ,
b100000 7
b100000 2
b100000 =
b100000 ?
b100000 D
1)
#1400000
0)
#1450000
b101000 3
b101000 B
b101000 C
b101000 -
b101000 8
b101000 0
b101000 >
b101000 A
b100100 ,
b100100 7
b100100 2
b100100 =
b100100 ?
b100100 D
1)
#1500000
0)
0%
#1550000
b101100 3
b101100 B
b101100 C
b101000 !
b101000 /
b101000 ;
b100100 "
b100100 1
b100100 :
bx #
bx 5
bx 9
b101100 -
b101100 8
b101100 0
b101100 >
b101100 A
b101000 ,
b101000 7
b101000 2
b101000 =
b101000 ?
b101000 D
1)
#1600000
0)
#1650000
b110000 3
b110000 B
b110000 C
b101100 !
b101100 /
b101100 ;
b101000 "
b101000 1
b101000 :
b110000 -
b110000 8
b110000 0
b110000 >
b110000 A
b101100 ,
b101100 7
b101100 2
b101100 =
b101100 ?
b101100 D
1)
